%!PS-Adobe-3.0 EPSF-3.0
%%Creator: (MATLAB, The Mathworks, Inc. Version 9.1.0.441655 \(R2016b\). Operating System: Mac OS X)
%%Title: /Users/zhangyuan/ijcai17-submission/auc_vs_cas2.eps
%%CreationDate: 2017-02-18T16:44:17
%%Pages: (atend)
%%BoundingBox: 0 0 628 246
%%LanguageLevel: 3
%%EndComments
%%BeginProlog
%%BeginResource: procset (Apache XML Graphics Std ProcSet) 1.2 0
%%Version: 1.2 0
%%Copyright: (Copyright 2001-2003,2010 The Apache Software Foundation. License terms: http://www.apache.org/licenses/LICENSE-2.0)
/bd{bind def}bind def
/ld{load def}bd
/GR/grestore ld
/M/moveto ld
/LJ/setlinejoin ld
/C/curveto ld
/f/fill ld
/LW/setlinewidth ld
/GC/setgray ld
/t/show ld
/N/newpath ld
/CT/concat ld
/cp/closepath ld
/S/stroke ld
/L/lineto ld
/CC/setcmykcolor ld
/A/ashow ld
/GS/gsave ld
/RC/setrgbcolor ld
/RM/rmoveto ld
/ML/setmiterlimit ld
/re {4 2 roll M
1 index 0 rlineto
0 exch rlineto
neg 0 rlineto
cp } bd
/_ctm matrix def
/_tm matrix def
/BT { _ctm currentmatrix pop matrix _tm copy pop 0 0 moveto } bd
/ET { _ctm setmatrix } bd
/iTm { _ctm setmatrix _tm concat } bd
/Tm { _tm astore pop iTm 0 0 moveto } bd
/ux 0.0 def
/uy 0.0 def
/F {
  /Tp exch def
  /Tf exch def
  Tf findfont Tp scalefont setfont
  /cf Tf def  /cs Tp def
} bd
/ULS {currentpoint /uy exch def /ux exch def} bd
/ULE {
  /Tcx currentpoint pop def
  gsave
  newpath
  cf findfont cs scalefont dup
  /FontMatrix get 0 get /Ts exch def /FontInfo get dup
  /UnderlinePosition get Ts mul /To exch def
  /UnderlineThickness get Ts mul /Tt exch def
  ux uy To add moveto  Tcx uy To add lineto
  Tt setlinewidth stroke
  grestore
} bd
/OLE {
  /Tcx currentpoint pop def
  gsave
  newpath
  cf findfont cs scalefont dup
  /FontMatrix get 0 get /Ts exch def /FontInfo get dup
  /UnderlinePosition get Ts mul /To exch def
  /UnderlineThickness get Ts mul /Tt exch def
  ux uy To add cs add moveto Tcx uy To add cs add lineto
  Tt setlinewidth stroke
  grestore
} bd
/SOE {
  /Tcx currentpoint pop def
  gsave
  newpath
  cf findfont cs scalefont dup
  /FontMatrix get 0 get /Ts exch def /FontInfo get dup
  /UnderlinePosition get Ts mul /To exch def
  /UnderlineThickness get Ts mul /Tt exch def
  ux uy To add cs 10 mul 26 idiv add moveto Tcx uy To add cs 10 mul 26 idiv add lineto
  Tt setlinewidth stroke
  grestore
} bd
/QT {
/Y22 exch store
/X22 exch store
/Y21 exch store
/X21 exch store
currentpoint
/Y21 load 2 mul add 3 div exch
/X21 load 2 mul add 3 div exch
/X21 load 2 mul /X22 load add 3 div
/Y21 load 2 mul /Y22 load add 3 div
/X22 load /Y22 load curveto
} bd
/SSPD {
dup length /d exch dict def
{
/v exch def
/k exch def
currentpagedevice k known {
/cpdv currentpagedevice k get def
v cpdv ne {
/upd false def
/nullv v type /nulltype eq def
/nullcpdv cpdv type /nulltype eq def
nullv nullcpdv or
{
/upd true def
} {
/sametype v type cpdv type eq def
sametype {
v type /arraytype eq {
/vlen v length def
/cpdvlen cpdv length def
vlen cpdvlen eq {
0 1 vlen 1 sub {
/i exch def
/obj v i get def
/cpdobj cpdv i get def
obj cpdobj ne {
/upd true def
exit
} if
} for
} {
/upd true def
} ifelse
} {
v type /dicttype eq {
v {
/dv exch def
/dk exch def
/cpddv cpdv dk get def
dv cpddv ne {
/upd true def
exit
} if
} forall
} {
/upd true def
} ifelse
} ifelse
} if
} ifelse
upd true eq {
d k v put
} if
} if
} if
} forall
d length 0 gt {
d setpagedevice
} if
} bd
/RE { % /NewFontName [NewEncodingArray] /FontName RE -
  findfont dup length dict begin
  {
    1 index /FID ne
    {def} {pop pop} ifelse
  } forall
  /Encoding exch def
  /FontName 1 index def
  currentdict definefont pop
  end
} bind def
%%EndResource
%%BeginResource: procset (Apache XML Graphics EPS ProcSet) 1.0 0
%%Version: 1.0 0
%%Copyright: (Copyright 2002-2003 The Apache Software Foundation. License terms: http://www.apache.org/licenses/LICENSE-2.0)
/BeginEPSF { %def
/b4_Inc_state save def         % Save state for cleanup
/dict_count countdictstack def % Count objects on dict stack
/op_count count 1 sub def      % Count objects on operand stack
userdict begin                 % Push userdict on dict stack
/showpage { } def              % Redefine showpage, { } = null proc
0 setgray 0 setlinecap         % Prepare graphics state
1 setlinewidth 0 setlinejoin
10 setmiterlimit [ ] 0 setdash newpath
/languagelevel where           % If level not equal to 1 then
{pop languagelevel             % set strokeadjust and
1 ne                           % overprint to their defaults.
{false setstrokeadjust false setoverprint
} if
} if
} bd
/EndEPSF { %def
count op_count sub {pop} repeat            % Clean up stacks
countdictstack dict_count sub {end} repeat
b4_Inc_state restore
} bd
%%EndResource
%FOPBeginFontDict
%%IncludeResource: font Courier-Bold
%%IncludeResource: font Helvetica
%%IncludeResource: font Courier-BoldOblique
%%IncludeResource: font Courier-Oblique
%%IncludeResource: font Times-Roman
%%IncludeResource: font Helvetica-BoldOblique
%%IncludeResource: font Helvetica-Bold
%%IncludeResource: font Helvetica-Oblique
%%IncludeResource: font Times-BoldItalic
%%IncludeResource: font Courier
%%IncludeResource: font Times-Italic
%%IncludeResource: font Times-Bold
%%IncludeResource: font Symbol
%%IncludeResource: font ZapfDingbats
%FOPEndFontDict
%%BeginResource: encoding WinAnsiEncoding
/WinAnsiEncoding [
/.notdef /.notdef /.notdef /.notdef /.notdef
/.notdef /.notdef /.notdef /.notdef /.notdef
/.notdef /.notdef /.notdef /.notdef /.notdef
/.notdef /.notdef /.notdef /.notdef /.notdef
/.notdef /.notdef /.notdef /.notdef /.notdef
/.notdef /.notdef /.notdef /.notdef /.notdef
/.notdef /.notdef /space /exclam /quotedbl
/numbersign /dollar /percent /ampersand /quotesingle
/parenleft /parenright /asterisk /plus /comma
/hyphen /period /slash /zero /one
/two /three /four /five /six
/seven /eight /nine /colon /semicolon
/less /equal /greater /question /at
/A /B /C /D /E
/F /G /H /I /J
/K /L /M /N /O
/P /Q /R /S /T
/U /V /W /X /Y
/Z /bracketleft /backslash /bracketright /asciicircum
/underscore /quoteleft /a /b /c
/d /e /f /g /h
/i /j /k /l /m
/n /o /p /q /r
/s /t /u /v /w
/x /y /z /braceleft /bar
/braceright /asciitilde /bullet /Euro /bullet
/quotesinglbase /florin /quotedblbase /ellipsis /dagger
/daggerdbl /circumflex /perthousand /Scaron /guilsinglleft
/OE /bullet /Zcaron /bullet /bullet
/quoteleft /quoteright /quotedblleft /quotedblright /bullet
/endash /emdash /asciitilde /trademark /scaron
/guilsinglright /oe /bullet /zcaron /Ydieresis
/space /exclamdown /cent /sterling /currency
/yen /brokenbar /section /dieresis /copyright
/ordfeminine /guillemotleft /logicalnot /sfthyphen /registered
/macron /degree /plusminus /twosuperior /threesuperior
/acute /mu /paragraph /middot /cedilla
/onesuperior /ordmasculine /guillemotright /onequarter /onehalf
/threequarters /questiondown /Agrave /Aacute /Acircumflex
/Atilde /Adieresis /Aring /AE /Ccedilla
/Egrave /Eacute /Ecircumflex /Edieresis /Igrave
/Iacute /Icircumflex /Idieresis /Eth /Ntilde
/Ograve /Oacute /Ocircumflex /Otilde /Odieresis
/multiply /Oslash /Ugrave /Uacute /Ucircumflex
/Udieresis /Yacute /Thorn /germandbls /agrave
/aacute /acircumflex /atilde /adieresis /aring
/ae /ccedilla /egrave /eacute /ecircumflex
/edieresis /igrave /iacute /icircumflex /idieresis
/eth /ntilde /ograve /oacute /ocircumflex
/otilde /odieresis /divide /oslash /ugrave
/uacute /ucircumflex /udieresis /yacute /thorn
/ydieresis
] def
%%EndResource
%FOPBeginFontReencode
/Courier-Bold findfont
dup length dict begin
  {1 index /FID ne {def} {pop pop} ifelse} forall
  /Encoding WinAnsiEncoding def
  currentdict
end
/Courier-Bold exch definefont pop
/Helvetica findfont
dup length dict begin
  {1 index /FID ne {def} {pop pop} ifelse} forall
  /Encoding WinAnsiEncoding def
  currentdict
end
/Helvetica exch definefont pop
/Courier-BoldOblique findfont
dup length dict begin
  {1 index /FID ne {def} {pop pop} ifelse} forall
  /Encoding WinAnsiEncoding def
  currentdict
end
/Courier-BoldOblique exch definefont pop
/Courier-Oblique findfont
dup length dict begin
  {1 index /FID ne {def} {pop pop} ifelse} forall
  /Encoding WinAnsiEncoding def
  currentdict
end
/Courier-Oblique exch definefont pop
/Times-Roman findfont
dup length dict begin
  {1 index /FID ne {def} {pop pop} ifelse} forall
  /Encoding WinAnsiEncoding def
  currentdict
end
/Times-Roman exch definefont pop
/Helvetica-BoldOblique findfont
dup length dict begin
  {1 index /FID ne {def} {pop pop} ifelse} forall
  /Encoding WinAnsiEncoding def
  currentdict
end
/Helvetica-BoldOblique exch definefont pop
/Helvetica-Bold findfont
dup length dict begin
  {1 index /FID ne {def} {pop pop} ifelse} forall
  /Encoding WinAnsiEncoding def
  currentdict
end
/Helvetica-Bold exch definefont pop
/Helvetica-Oblique findfont
dup length dict begin
  {1 index /FID ne {def} {pop pop} ifelse} forall
  /Encoding WinAnsiEncoding def
  currentdict
end
/Helvetica-Oblique exch definefont pop
/Times-BoldItalic findfont
dup length dict begin
  {1 index /FID ne {def} {pop pop} ifelse} forall
  /Encoding WinAnsiEncoding def
  currentdict
end
/Times-BoldItalic exch definefont pop
/Courier findfont
dup length dict begin
  {1 index /FID ne {def} {pop pop} ifelse} forall
  /Encoding WinAnsiEncoding def
  currentdict
end
/Courier exch definefont pop
/Times-Italic findfont
dup length dict begin
  {1 index /FID ne {def} {pop pop} ifelse} forall
  /Encoding WinAnsiEncoding def
  currentdict
end
/Times-Italic exch definefont pop
/Times-Bold findfont
dup length dict begin
  {1 index /FID ne {def} {pop pop} ifelse} forall
  /Encoding WinAnsiEncoding def
  currentdict
end
/Times-Bold exch definefont pop
%FOPEndFontReencode
%%EndProlog
%%Page: 1 1
%%PageBoundingBox: 0 0 628 246
%%BeginPageSetup
[1 0 0 -1 0 246] CT
%%EndPageSetup
GS
1 GC
N
0 0 628 246 re
f
GR
GS
1 GC
N
0 0 628 246 re
f
GR
GS
1 GC
N
51.5 175.5 M
293 175.5 L
293 5 L
51.5 5 L
cp
f
GR
GS
0.149 GC
2 setlinecap
1 LJ
0.5 LW
N
51.5 175.5 M
293 175.5 L
S
GR
GS
0.149 GC
2 setlinecap
1 LJ
0.5 LW
N
51.5 5 M
293 5 L
S
GR
GS
0.149 GC
2 setlinecap
1 LJ
0.5 LW
N
62.477 175.5 M
62.477 173.085 L
S
GR
GS
0.149 GC
2 setlinecap
1 LJ
0.5 LW
N
117.364 175.5 M
117.364 173.085 L
S
GR
GS
0.149 GC
2 setlinecap
1 LJ
0.5 LW
N
172.25 175.5 M
172.25 173.085 L
S
GR
GS
0.149 GC
2 setlinecap
1 LJ
0.5 LW
N
227.136 175.5 M
227.136 173.085 L
S
GR
GS
0.149 GC
2 setlinecap
1 LJ
0.5 LW
N
282.023 175.5 M
282.023 173.085 L
S
GR
GS
0.149 GC
2 setlinecap
1 LJ
0.5 LW
N
62.477 5 M
62.477 7.415 L
S
GR
GS
0.149 GC
2 setlinecap
1 LJ
0.5 LW
N
117.364 5 M
117.364 7.415 L
S
GR
GS
0.149 GC
2 setlinecap
1 LJ
0.5 LW
N
172.25 5 M
172.25 7.415 L
S
GR
GS
0.149 GC
2 setlinecap
1 LJ
0.5 LW
N
227.136 5 M
227.136 7.415 L
S
GR
GS
0.149 GC
2 setlinecap
1 LJ
0.5 LW
N
282.023 5 M
282.023 7.415 L
S
GR
GS
[1 0 0 1 62.47727 180.29999] CT
0.149 GC
/Helvetica 14 F
GS
[1 0 0 1 0 0] CT
-16 14 moveto 
1 -1 scale
(1000) t 
GR
GR
GS
[1 0 0 1 117.36364 180.29999] CT
0.149 GC
/Helvetica 14 F
GS
[1 0 0 1 0 0] CT
-16 14 moveto 
1 -1 scale
(1500) t 
GR
GR
GS
[1 0 0 1 172.25 180.29999] CT
0.149 GC
/Helvetica 14 F
GS
[1 0 0 1 0 0] CT
-16 14 moveto 
1 -1 scale
(2000) t 
GR
GR
GS
[1 0 0 1 227.13637 180.29999] CT
0.149 GC
/Helvetica 14 F
GS
[1 0 0 1 0 0] CT
-16 14 moveto 
1 -1 scale
(2500) t 
GR
GR
GS
[1 0 0 1 282.02274 180.29999] CT
0.149 GC
/Helvetica 14 F
GS
[1 0 0 1 0 0] CT
-16 14 moveto 
1 -1 scale
(3000) t 
GR
GR
GS
[1 0 0 1 107 213] CT
0.149 GC
/Helvetica 15.4 F
GS
[1 0 0 1 0 0] CT
0 0 moveto 
1 -1 scale
(#training_cascades) t 
GR
GR
GS
0.149 GC
2 setlinecap
1 LJ
0.5 LW
N
51.5 175.5 M
51.5 5 L
S
GR
GS
0.149 GC
2 setlinecap
1 LJ
0.5 LW
N
293 175.5 M
293 5 L
S
GR
GS
0.149 GC
2 setlinecap
1 LJ
0.5 LW
N
51.5 175.5 M
53.915 175.5 L
S
GR
GS
0.149 GC
2 setlinecap
1 LJ
0.5 LW
N
51.5 132.875 M
53.915 132.875 L
S
GR
GS
0.149 GC
2 setlinecap
1 LJ
0.5 LW
N
51.5 90.25 M
53.915 90.25 L
S
GR
GS
0.149 GC
2 setlinecap
1 LJ
0.5 LW
N
51.5 47.625 M
53.915 47.625 L
S
GR
GS
0.149 GC
2 setlinecap
1 LJ
0.5 LW
N
51.5 5 M
53.915 5 L
S
GR
GS
0.149 GC
2 setlinecap
1 LJ
0.5 LW
N
293 175.5 M
290.585 175.5 L
S
GR
GS
0.149 GC
2 setlinecap
1 LJ
0.5 LW
N
293 132.875 M
290.585 132.875 L
S
GR
GS
0.149 GC
2 setlinecap
1 LJ
0.5 LW
N
293 90.25 M
290.585 90.25 L
S
GR
GS
0.149 GC
2 setlinecap
1 LJ
0.5 LW
N
293 47.625 M
290.585 47.625 L
S
GR
GS
0.149 GC
2 setlinecap
1 LJ
0.5 LW
N
293 5 M
290.585 5 L
S
GR
GS
[1 0 0 1 46.7 175.50003] CT
0.149 GC
/Helvetica 14 F
GS
[1 0 0 1 0 0] CT
-28 5.5 moveto 
1 -1 scale
(0.77) t 
GR
GR
GS
[1 0 0 1 46.7 132.87498] CT
0.149 GC
/Helvetica 14 F
GS
[1 0 0 1 0 0] CT
-20 5.5 moveto 
1 -1 scale
(0.8) t 
GR
GR
GS
[1 0 0 1 46.7 90.25002] CT
0.149 GC
/Helvetica 14 F
GS
[1 0 0 1 0 0] CT
-28 5.5 moveto 
1 -1 scale
(0.83) t 
GR
GR
GS
[1 0 0 1 46.7 47.62498] CT
0.149 GC
/Helvetica 14 F
GS
[1 0 0 1 0 0] CT
-28 5.5 moveto 
1 -1 scale
(0.86) t 
GR
GR
GS
[1 0 0 1 46.7 5.00002] CT
0.149 GC
/Helvetica 14 F
GS
[1 0 0 1 0 0] CT
-28 5.5 moveto 
1 -1 scale
(0.89) t 
GR
GR
GS
[0 -1 1 0 16.02548 90.24994] CT
0.149 GC
/Helvetica 15.4 F
GS
[1 0 0 1 0 0] CT
-16 -4 moveto 
1 -1 scale
(AUC) t 
GR
GR
GS
[1 0 0 1 168.63754 245.57466] CT
/Times-Roman 20 F
GS
[1 0 0 1 0 0] CT
-11.5 -5 moveto 
1 -1 scale
(\(a\)) t 
GR
GR
GS
0.314 GC
1 LJ
2 LW
N
62.477 127.647 M
117.364 117.05 L
S
GR
GS
0.314 GC
1 setlinecap
1 LJ
2 LW
N
117.364 117.05 M
172.25 63.352 L
S
GR
GS
0.314 GC
1 setlinecap
1 LJ
2 LW
N
172.25 63.352 M
227.136 54.101 L
S
GR
GS
0.314 GC
1 LJ
2 LW
N
227.136 54.101 M
282.023 45.585 L
S
GR
GS
[1 0 0 1 62.47727 127.64667] CT
0.314 GC
N
-2 -2 M
-2 2 L
2 2 L
2 -2 L
cp
f
GR
GS
[1 0 0 1 62.47727 127.64667] CT
0.314 GC
10.0 ML
2 LW
N
-2 -2 M
-2 2 L
2 2 L
2 -2 L
cp
S
GR
GS
[1 0 0 1 117.36364 117.04971] CT
0.314 GC
N
/f701565780{-2 -2 M
-2 2 L
2 2 L
2 -2 L
cp}def
f701565780
f
GR
GS
[1 0 0 1 117.36364 117.04971] CT
0.314 GC
10.0 ML
2 LW
N
-2 -2 M
-2 2 L
2 2 L
2 -2 L
cp
S
GR
GS
[1 0 0 1 172.25 63.35151] CT
0.314 GC
N
f701565780
f
GR
GS
[1 0 0 1 172.25 63.35151] CT
0.314 GC
10.0 ML
2 LW
N
-2 -2 M
-2 2 L
2 2 L
2 -2 L
cp
S
GR
GS
[1 0 0 1 227.13637 54.10109] CT
0.314 GC
N
f701565780
f
GR
GS
[1 0 0 1 227.13637 54.10109] CT
0.314 GC
10.0 ML
2 LW
N
-2 -2 M
-2 2 L
2 2 L
2 -2 L
cp
S
GR
GS
[1 0 0 1 282.02274 45.58467] CT
0.314 GC
N
f701565780
f
GR
GS
[1 0 0 1 282.02274 45.58467] CT
0.314 GC
10.0 ML
2 LW
N
-2 -2 M
-2 2 L
2 2 L
2 -2 L
cp
S
GR
GS
1 0.6 0.784 RC
10.0 ML
2 LW
N
62.477 159.065 M
117.364 115.061 L
S
GR
GS
1 0.6 0.784 RC
1 setlinecap
1 LJ
2 LW
N
117.364 115.061 M
172.25 99.9 L
S
GR
GS
1 0.6 0.784 RC
1 setlinecap
1 LJ
2 LW
N
172.25 99.9 M
227.136 84.992 L
S
GR
GS
1 0.6 0.784 RC
1 LJ
2 LW
N
227.136 84.992 M
282.023 69.731 L
S
GR
GS
[1 0 0 1 62.47727 159.06483] CT
1 0.6 0.784 RC
N
/f598939798{0 -3.999 M
-3.463 1.999 L
3.463 1.999 L
cp}def
f598939798
f
GR
GS
[1 0 0 1 62.47727 159.06483] CT
1 0.6 0.784 RC
10.0 ML
2 LW
N
0 -3.999 M
-3.463 1.999 L
3.463 1.999 L
cp
S
GR
GS
[1 0 0 1 117.36364 115.0614] CT
1 0.6 0.784 RC
N
f598939798
f
GR
GS
[1 0 0 1 117.36364 115.0614] CT
1 0.6 0.784 RC
10.0 ML
2 LW
N
0 -3.999 M
-3.463 1.999 L
3.463 1.999 L
cp
S
GR
GS
[1 0 0 1 172.25 99.89974] CT
1 0.6 0.784 RC
N
f598939798
f
GR
GS
[1 0 0 1 172.25 99.89974] CT
1 0.6 0.784 RC
10.0 ML
2 LW
N
0 -3.999 M
-3.463 1.999 L
3.463 1.999 L
cp
S
GR
GS
[1 0 0 1 227.13637 84.99198] CT
1 0.6 0.784 RC
N
f598939798
f
GR
GS
[1 0 0 1 227.13637 84.99198] CT
1 0.6 0.784 RC
10.0 ML
2 LW
N
0 -3.999 M
-3.463 1.999 L
3.463 1.999 L
cp
S
GR
GS
[1 0 0 1 282.02274 69.73124] CT
1 0.6 0.784 RC
N
f598939798
f
GR
GS
[1 0 0 1 282.02274 69.73124] CT
1 0.6 0.784 RC
10.0 ML
2 LW
N
0 -3.999 M
-3.463 1.999 L
3.463 1.999 L
cp
S
GR
GS
0 1 1 RC
10.0 ML
2 LW
N
62.477 56.256 M
117.364 45.022 L
S
GR
GS
0 1 1 RC
1 setlinecap
1 LJ
2 LW
N
117.364 45.022 M
172.25 32.638 L
S
GR
GS
0 1 1 RC
1 setlinecap
1 LJ
2 LW
N
172.25 32.638 M
227.136 27.83 L
S
GR
GS
0 1 1 RC
1 LJ
2 LW
N
227.136 27.83 M
282.023 20.555 L
S
GR
GS
[1 0 0 1 62.47727 56.2559] CT
0 1 1 RC
N
/f-2139806394{2.5 -0.5 M
2.5 -2.157 1.157 -3.5 -0.5 -3.5 C
-2.157 -3.5 -3.5 -2.157 -3.5 -0.5 C
-3.5 1.157 -2.157 2.5 -0.5 2.5 C
1.157 2.5 2.5 1.157 2.5 -0.5 C}def
f-2139806394
f
GR
GS
[1 0 0 1 62.47727 56.2559] CT
0 1 1 RC
10.0 ML
2 LW
N
2.5 -0.5 M
2.5 -2.157 1.157 -3.5 -0.5 -3.5 C
-2.157 -3.5 -3.5 -2.157 -3.5 -0.5 C
-3.5 1.157 -2.157 2.5 -0.5 2.5 C
1.157 2.5 2.5 1.157 2.5 -0.5 C
S
GR
GS
[1 0 0 1 117.36364 45.02166] CT
0 1 1 RC
N
f-2139806394
f
GR
GS
[1 0 0 1 117.36364 45.02166] CT
0 1 1 RC
10.0 ML
2 LW
N
2.5 -0.5 M
2.5 -2.157 1.157 -3.5 -0.5 -3.5 C
-2.157 -3.5 -3.5 -2.157 -3.5 -0.5 C
-3.5 1.157 -2.157 2.5 -0.5 2.5 C
1.157 2.5 2.5 1.157 2.5 -0.5 C
S
GR
GS
[1 0 0 1 172.25 32.63812] CT
0 1 1 RC
N
f-2139806394
f
GR
GS
[1 0 0 1 172.25 32.63812] CT
0 1 1 RC
10.0 ML
2 LW
N
2.5 -0.5 M
2.5 -2.157 1.157 -3.5 -0.5 -3.5 C
-2.157 -3.5 -3.5 -2.157 -3.5 -0.5 C
-3.5 1.157 -2.157 2.5 -0.5 2.5 C
1.157 2.5 2.5 1.157 2.5 -0.5 C
S
GR
GS
[1 0 0 1 227.13637 27.83028] CT
0 1 1 RC
N
f-2139806394
f
GR
GS
[1 0 0 1 227.13637 27.83028] CT
0 1 1 RC
10.0 ML
2 LW
N
2.5 -0.5 M
2.5 -2.157 1.157 -3.5 -0.5 -3.5 C
-2.157 -3.5 -3.5 -2.157 -3.5 -0.5 C
-3.5 1.157 -2.157 2.5 -0.5 2.5 C
1.157 2.5 2.5 1.157 2.5 -0.5 C
S
GR
GS
[1 0 0 1 282.02274 20.55548] CT
0 1 1 RC
N
f-2139806394
f
GR
GS
[1 0 0 1 282.02274 20.55548] CT
0 1 1 RC
10.0 ML
2 LW
N
2.5 -0.5 M
2.5 -2.157 1.157 -3.5 -0.5 -3.5 C
-2.157 -3.5 -3.5 -2.157 -3.5 -0.5 C
-3.5 1.157 -2.157 2.5 -0.5 2.5 C
1.157 2.5 2.5 1.157 2.5 -0.5 C
S
GR
GS
1 GC
N
/f-951263874{198 164 M
198 114 L
286 114 L
286 164 L
cp}def
f-951263874
f
GR
GS
[1 0 0 1 235 123.5] CT
/Helvetica 12.6 F
GS
[1 0 0 1 0 0] CT
0 5 moveto 
1 -1 scale
(CDK) t 
GR
GR
GS
0.314 GC
1 LJ
2 LW
N
202 123.5 M
232 123.5 L
S
GR
GS
[1 0 0 1 217 123.5] CT
0.314 GC
N
f701565780
f
GR
GS
[1 0 0 1 217 123.5] CT
0.314 GC
10.0 ML
2 LW
N
-2 -2 M
-2 2 L
2 2 L
2 -2 L
cp
S
GR
GS
[1 0 0 1 235 139] CT
/Helvetica 12.6 F
GS
[1 0 0 1 0 0] CT
0 5 moveto 
1 -1 scale
(Pipeline) t 
GR
GR
GS
1 0.6 0.784 RC
1 LJ
2 LW
N
202 139 M
232 139 L
S
GR
GS
[1 0 0 1 217 139] CT
1 0.6 0.784 RC
N
f598939798
f
GR
GS
[1 0 0 1 217 139] CT
1 0.6 0.784 RC
10.0 ML
2 LW
N
0 -3.999 M
-3.463 1.999 L
3.463 1.999 L
cp
S
GR
GS
[1 0 0 1 235 154.5] CT
/Helvetica 12.6 F
GS
[1 0 0 1 0 0] CT
0 5 moveto 
1 -1 scale
(COSINE) t 
GR
GR
GS
0 1 1 RC
1 LJ
2 LW
N
202 154.5 M
232 154.5 L
S
GR
GS
[1 0 0 1 217 154.5] CT
0 1 1 RC
N
f-2139806394
f
GR
GS
[1 0 0 1 217 154.5] CT
0 1 1 RC
10.0 ML
2 LW
N
2.5 -0.5 M
2.5 -2.157 1.157 -3.5 -0.5 -3.5 C
-2.157 -3.5 -3.5 -2.157 -3.5 -0.5 C
-3.5 1.157 -2.157 2.5 -0.5 2.5 C
1.157 2.5 2.5 1.157 2.5 -0.5 C
S
GR
GS
0.149 GC
10.0 ML
0.5 LW
N
198 164 M
198 114 L
286 114 L
286 164 L
cp
S
GR
GS
1 GC
N
/f1195013796{380 177 M
624.5 177 L
624.5 5 L
380 5 L
cp}def
f1195013796
f
GR
GS
0.149 GC
2 setlinecap
1 LJ
0.5 LW
N
380 177 M
624.5 177 L
S
GR
GS
0.149 GC
2 setlinecap
1 LJ
0.5 LW
N
380 5 M
624.5 5 L
S
GR
GS
0.149 GC
2 setlinecap
1 LJ
0.5 LW
N
391.114 177 M
391.114 174.555 L
S
GR
GS
0.149 GC
2 setlinecap
1 LJ
0.5 LW
N
446.682 177 M
446.682 174.555 L
S
GR
GS
0.149 GC
2 setlinecap
1 LJ
0.5 LW
N
502.25 177 M
502.25 174.555 L
S
GR
GS
0.149 GC
2 setlinecap
1 LJ
0.5 LW
N
557.818 177 M
557.818 174.555 L
S
GR
GS
0.149 GC
2 setlinecap
1 LJ
0.5 LW
N
613.386 177 M
613.386 174.555 L
S
GR
GS
0.149 GC
2 setlinecap
1 LJ
0.5 LW
N
391.114 5 M
391.114 7.445 L
S
GR
GS
0.149 GC
2 setlinecap
1 LJ
0.5 LW
N
446.682 5 M
446.682 7.445 L
S
GR
GS
0.149 GC
2 setlinecap
1 LJ
0.5 LW
N
502.25 5 M
502.25 7.445 L
S
GR
GS
0.149 GC
2 setlinecap
1 LJ
0.5 LW
N
557.818 5 M
557.818 7.445 L
S
GR
GS
0.149 GC
2 setlinecap
1 LJ
0.5 LW
N
613.386 5 M
613.386 7.445 L
S
GR
GS
[1 0 0 1 391.11365 181.8] CT
0.149 GC
/Helvetica 14 F
GS
[1 0 0 1 0 0] CT
-10 14 moveto 
1 -1 scale
(0.5) t 
GR
GR
GS
[1 0 0 1 446.68182 181.8] CT
0.149 GC
/Helvetica 14 F
GS
[1 0 0 1 0 0] CT
-4 14 moveto 
1 -1 scale
(1) t 
GR
GR
GS
[1 0 0 1 502.25 181.8] CT
0.149 GC
/Helvetica 14 F
GS
[1 0 0 1 0 0] CT
-10 14 moveto 
1 -1 scale
(1.5) t 
GR
GR
GS
[1 0 0 1 557.81818 181.8] CT
0.149 GC
/Helvetica 14 F
GS
[1 0 0 1 0 0] CT
-4 14 moveto 
1 -1 scale
(2) t 
GR
GR
GS
[1 0 0 1 613.38635 181.8] CT
0.149 GC
/Helvetica 14 F
GS
[1 0 0 1 0 0] CT
-10 14 moveto 
1 -1 scale
(2.5) t 
GR
GR
GS
[1 0 0 1 437 212] CT
0.149 GC
/Helvetica 15.4 F
GS
[1 0 0 1 0 0] CT
0 0 moveto 
1 -1 scale
(#training_cascades) t 
GR
GR
GS
[1 0 0 1 591 217] CT
0.149 GC
N
2.063 -0.406 M
2.063 -0.516 2.125 -0.609 QT
5.031 -3.5 L
2.125 -6.406 L
2.063 -6.484 2.063 -6.594 QT
2.063 -6.703 2.141 -6.789 QT
2.219 -6.875 2.344 -6.875 QT
2.438 -6.875 2.547 -6.781 QT
5.453 -3.891 L
8.328 -6.781 L
8.453 -6.875 8.531 -6.875 QT
8.656 -6.875 8.734 -6.797 QT
8.813 -6.719 8.813 -6.594 QT
8.813 -6.484 8.75 -6.406 QT
5.844 -3.5 L
8.75 -0.609 L
8.813 -0.516 8.813 -0.406 QT
8.813 -0.281 8.734 -0.203 QT
8.656 -0.125 8.531 -0.125 QT
8.438 -0.125 8.328 -0.219 QT
5.453 -3.109 L
2.547 -0.219 L
2.453 -0.125 2.344 -0.125 QT
2.219 -0.125 2.141 -0.211 QT
2.063 -0.297 2.063 -0.406 QT
cp
f
GR
GS
[1 0 0 1 602 217] CT
0.149 GC
/Helvetica 14 F
GS
[1 0 0 1 0 0] CT
0 0 moveto 
1 -1 scale
(10) t 
GR
GR
GS
[1 0 0 1 618 210] CT
0.149 GC
/Helvetica 11.2 F
GS
[1 0 0 1 0 0] CT
0 0 moveto 
1 -1 scale
(5) t 
GR
GR
GS
0.149 GC
2 setlinecap
1 LJ
0.5 LW
N
380 177 M
380 5 L
S
GR
GS
0.149 GC
2 setlinecap
1 LJ
0.5 LW
N
624.5 177 M
624.5 5 L
S
GR
GS
0.149 GC
2 setlinecap
1 LJ
0.5 LW
N
380 177 M
382.445 177 L
S
GR
GS
0.149 GC
2 setlinecap
1 LJ
0.5 LW
N
380 142.6 M
382.445 142.6 L
S
GR
GS
0.149 GC
2 setlinecap
1 LJ
0.5 LW
N
380 108.2 M
382.445 108.2 L
S
GR
GS
0.149 GC
2 setlinecap
1 LJ
0.5 LW
N
380 73.8 M
382.445 73.8 L
S
GR
GS
0.149 GC
2 setlinecap
1 LJ
0.5 LW
N
380 39.4 M
382.445 39.4 L
S
GR
GS
0.149 GC
2 setlinecap
1 LJ
0.5 LW
N
380 5 M
382.445 5 L
S
GR
GS
0.149 GC
2 setlinecap
1 LJ
0.5 LW
N
624.5 177 M
622.055 177 L
S
GR
GS
0.149 GC
2 setlinecap
1 LJ
0.5 LW
N
624.5 142.6 M
622.055 142.6 L
S
GR
GS
0.149 GC
2 setlinecap
1 LJ
0.5 LW
N
624.5 108.2 M
622.055 108.2 L
S
GR
GS
0.149 GC
2 setlinecap
1 LJ
0.5 LW
N
624.5 73.8 M
622.055 73.8 L
S
GR
GS
0.149 GC
2 setlinecap
1 LJ
0.5 LW
N
624.5 39.4 M
622.055 39.4 L
S
GR
GS
0.149 GC
2 setlinecap
1 LJ
0.5 LW
N
624.5 5 M
622.055 5 L
S
GR
GS
[1 0 0 1 375.20001 177] CT
0.149 GC
/Helvetica 14 F
GS
[1 0 0 1 0 0] CT
-8 5.5 moveto 
1 -1 scale
(0) t 
GR
GR
GS
[1 0 0 1 375.20001 142.60001] CT
0.149 GC
/Helvetica 14 F
GS
[1 0 0 1 0 0] CT
-32 5.5 moveto 
1 -1 scale
(2000) t 
GR
GR
GS
[1 0 0 1 375.20001 108.2] CT
0.149 GC
/Helvetica 14 F
GS
[1 0 0 1 0 0] CT
-32 5.5 moveto 
1 -1 scale
(4000) t 
GR
GR
GS
[1 0 0 1 375.20001 73.8] CT
0.149 GC
/Helvetica 14 F
GS
[1 0 0 1 0 0] CT
-32 5.5 moveto 
1 -1 scale
(6000) t 
GR
GR
GS
[1 0 0 1 375.20001 39.4] CT
0.149 GC
/Helvetica 14 F
GS
[1 0 0 1 0 0] CT
-32 5.5 moveto 
1 -1 scale
(8000) t 
GR
GR
GS
[1 0 0 1 375.20001 5] CT
0.149 GC
/Helvetica 14 F
GS
[1 0 0 1 0 0] CT
-39 5.5 moveto 
1 -1 scale
(10000) t 
GR
GR
GS
[0 -1 1 0 335.93103 90.99992] CT
0.149 GC
/Helvetica 15.4 F
GS
[1 0 0 1 0 0] CT
-51.5 -4 moveto 
1 -1 scale
(running time \(s\)) t 
GR
GR
GS
[1 0 0 1 499.71683 246.259] CT
/Times-Roman 20 F
GS
[1 0 0 1 0 0] CT
-12 -5 moveto 
1 -1 scale
(\(b\)) t 
GR
GR
GS
0.314 GC
1 LJ
2 LW
N
391.114 150.89 M
446.682 124.867 L
S
GR
GS
0.314 GC
1 setlinecap
1 LJ
2 LW
N
446.682 124.867 M
502.25 98.172 L
S
GR
GS
0.314 GC
1 setlinecap
1 LJ
2 LW
N
502.25 98.172 M
557.818 66.146 L
S
GR
GS
0.314 GC
1 LJ
2 LW
N
557.818 66.146 M
613.386 35.96 L
S
GR
GS
[1 0 0 1 391.11365 150.8904] CT
0.314 GC
N
f701565780
f
GR
GS
[1 0 0 1 391.11365 150.8904] CT
0.314 GC
10.0 ML
2 LW
N
-2 -2 M
-2 2 L
2 2 L
2 -2 L
cp
S
GR
GS
[1 0 0 1 446.68182 124.8668] CT
0.314 GC
N
f701565780
f
GR
GS
[1 0 0 1 446.68182 124.8668] CT
0.314 GC
10.0 ML
2 LW
N
-2 -2 M
-2 2 L
2 2 L
2 -2 L
cp
S
GR
GS
[1 0 0 1 502.25 98.1724] CT
0.314 GC
N
f701565780
f
GR
GS
[1 0 0 1 502.25 98.1724] CT
0.314 GC
10.0 ML
2 LW
N
-2 -2 M
-2 2 L
2 2 L
2 -2 L
cp
S
GR
GS
[1 0 0 1 557.81818 66.146] CT
0.314 GC
N
f701565780
f
GR
GS
[1 0 0 1 557.81818 66.146] CT
0.314 GC
10.0 ML
2 LW
N
-2 -2 M
-2 2 L
2 2 L
2 -2 L
cp
S
GR
GS
[1 0 0 1 613.38635 35.96] CT
0.314 GC
N
f701565780
f
GR
GS
[1 0 0 1 613.38635 35.96] CT
0.314 GC
10.0 ML
2 LW
N
-2 -2 M
-2 2 L
2 2 L
2 -2 L
cp
S
GR
%%Trailer
%%Pages: 1
%%EOF
