%!PS-Adobe-3.0 EPSF-3.0
%%Creator: (MATLAB, The Mathworks, Inc. Version 9.1.0.441655 \(R2016b\). Operating System: Mac OS X)
%%Title: /Users/zhangyuan/ijcai17-submission/dim.eps
%%CreationDate: 2017-02-15T11:41:36
%%Pages: (atend)
%%BoundingBox: 0 0 607 197
%%LanguageLevel: 3
%%EndComments
%%BeginProlog
%%BeginResource: procset (Apache XML Graphics Std ProcSet) 1.2 0
%%Version: 1.2 0
%%Copyright: (Copyright 2001-2003,2010 The Apache Software Foundation. License terms: http://www.apache.org/licenses/LICENSE-2.0)
/bd{bind def}bind def
/ld{load def}bd
/GR/grestore ld
/M/moveto ld
/LJ/setlinejoin ld
/C/curveto ld
/f/fill ld
/LW/setlinewidth ld
/GC/setgray ld
/t/show ld
/N/newpath ld
/CT/concat ld
/cp/closepath ld
/S/stroke ld
/L/lineto ld
/CC/setcmykcolor ld
/A/ashow ld
/GS/gsave ld
/RC/setrgbcolor ld
/RM/rmoveto ld
/ML/setmiterlimit ld
/re {4 2 roll M
1 index 0 rlineto
0 exch rlineto
neg 0 rlineto
cp } bd
/_ctm matrix def
/_tm matrix def
/BT { _ctm currentmatrix pop matrix _tm copy pop 0 0 moveto } bd
/ET { _ctm setmatrix } bd
/iTm { _ctm setmatrix _tm concat } bd
/Tm { _tm astore pop iTm 0 0 moveto } bd
/ux 0.0 def
/uy 0.0 def
/F {
  /Tp exch def
  /Tf exch def
  Tf findfont Tp scalefont setfont
  /cf Tf def  /cs Tp def
} bd
/ULS {currentpoint /uy exch def /ux exch def} bd
/ULE {
  /Tcx currentpoint pop def
  gsave
  newpath
  cf findfont cs scalefont dup
  /FontMatrix get 0 get /Ts exch def /FontInfo get dup
  /UnderlinePosition get Ts mul /To exch def
  /UnderlineThickness get Ts mul /Tt exch def
  ux uy To add moveto  Tcx uy To add lineto
  Tt setlinewidth stroke
  grestore
} bd
/OLE {
  /Tcx currentpoint pop def
  gsave
  newpath
  cf findfont cs scalefont dup
  /FontMatrix get 0 get /Ts exch def /FontInfo get dup
  /UnderlinePosition get Ts mul /To exch def
  /UnderlineThickness get Ts mul /Tt exch def
  ux uy To add cs add moveto Tcx uy To add cs add lineto
  Tt setlinewidth stroke
  grestore
} bd
/SOE {
  /Tcx currentpoint pop def
  gsave
  newpath
  cf findfont cs scalefont dup
  /FontMatrix get 0 get /Ts exch def /FontInfo get dup
  /UnderlinePosition get Ts mul /To exch def
  /UnderlineThickness get Ts mul /Tt exch def
  ux uy To add cs 10 mul 26 idiv add moveto Tcx uy To add cs 10 mul 26 idiv add lineto
  Tt setlinewidth stroke
  grestore
} bd
/QT {
/Y22 exch store
/X22 exch store
/Y21 exch store
/X21 exch store
currentpoint
/Y21 load 2 mul add 3 div exch
/X21 load 2 mul add 3 div exch
/X21 load 2 mul /X22 load add 3 div
/Y21 load 2 mul /Y22 load add 3 div
/X22 load /Y22 load curveto
} bd
/SSPD {
dup length /d exch dict def
{
/v exch def
/k exch def
currentpagedevice k known {
/cpdv currentpagedevice k get def
v cpdv ne {
/upd false def
/nullv v type /nulltype eq def
/nullcpdv cpdv type /nulltype eq def
nullv nullcpdv or
{
/upd true def
} {
/sametype v type cpdv type eq def
sametype {
v type /arraytype eq {
/vlen v length def
/cpdvlen cpdv length def
vlen cpdvlen eq {
0 1 vlen 1 sub {
/i exch def
/obj v i get def
/cpdobj cpdv i get def
obj cpdobj ne {
/upd true def
exit
} if
} for
} {
/upd true def
} ifelse
} {
v type /dicttype eq {
v {
/dv exch def
/dk exch def
/cpddv cpdv dk get def
dv cpddv ne {
/upd true def
exit
} if
} forall
} {
/upd true def
} ifelse
} ifelse
} if
} ifelse
upd true eq {
d k v put
} if
} if
} if
} forall
d length 0 gt {
d setpagedevice
} if
} bd
/RE { % /NewFontName [NewEncodingArray] /FontName RE -
  findfont dup length dict begin
  {
    1 index /FID ne
    {def} {pop pop} ifelse
  } forall
  /Encoding exch def
  /FontName 1 index def
  currentdict definefont pop
  end
} bind def
%%EndResource
%%BeginResource: procset (Apache XML Graphics EPS ProcSet) 1.0 0
%%Version: 1.0 0
%%Copyright: (Copyright 2002-2003 The Apache Software Foundation. License terms: http://www.apache.org/licenses/LICENSE-2.0)
/BeginEPSF { %def
/b4_Inc_state save def         % Save state for cleanup
/dict_count countdictstack def % Count objects on dict stack
/op_count count 1 sub def      % Count objects on operand stack
userdict begin                 % Push userdict on dict stack
/showpage { } def              % Redefine showpage, { } = null proc
0 setgray 0 setlinecap         % Prepare graphics state
1 setlinewidth 0 setlinejoin
10 setmiterlimit [ ] 0 setdash newpath
/languagelevel where           % If level not equal to 1 then
{pop languagelevel             % set strokeadjust and
1 ne                           % overprint to their defaults.
{false setstrokeadjust false setoverprint
} if
} if
} bd
/EndEPSF { %def
count op_count sub {pop} repeat            % Clean up stacks
countdictstack dict_count sub {end} repeat
b4_Inc_state restore
} bd
%%EndResource
%FOPBeginFontDict
%%IncludeResource: font Courier-Bold
%%IncludeResource: font Helvetica
%%IncludeResource: font Courier-BoldOblique
%%IncludeResource: font Courier-Oblique
%%IncludeResource: font Times-Roman
%%IncludeResource: font Helvetica-BoldOblique
%%IncludeResource: font Helvetica-Bold
%%IncludeResource: font Helvetica-Oblique
%%IncludeResource: font Times-BoldItalic
%%IncludeResource: font Courier
%%IncludeResource: font Times-Italic
%%IncludeResource: font Times-Bold
%%IncludeResource: font Symbol
%%IncludeResource: font ZapfDingbats
%FOPEndFontDict
%%BeginResource: encoding WinAnsiEncoding
/WinAnsiEncoding [
/.notdef /.notdef /.notdef /.notdef /.notdef
/.notdef /.notdef /.notdef /.notdef /.notdef
/.notdef /.notdef /.notdef /.notdef /.notdef
/.notdef /.notdef /.notdef /.notdef /.notdef
/.notdef /.notdef /.notdef /.notdef /.notdef
/.notdef /.notdef /.notdef /.notdef /.notdef
/.notdef /.notdef /space /exclam /quotedbl
/numbersign /dollar /percent /ampersand /quotesingle
/parenleft /parenright /asterisk /plus /comma
/hyphen /period /slash /zero /one
/two /three /four /five /six
/seven /eight /nine /colon /semicolon
/less /equal /greater /question /at
/A /B /C /D /E
/F /G /H /I /J
/K /L /M /N /O
/P /Q /R /S /T
/U /V /W /X /Y
/Z /bracketleft /backslash /bracketright /asciicircum
/underscore /quoteleft /a /b /c
/d /e /f /g /h
/i /j /k /l /m
/n /o /p /q /r
/s /t /u /v /w
/x /y /z /braceleft /bar
/braceright /asciitilde /bullet /Euro /bullet
/quotesinglbase /florin /quotedblbase /ellipsis /dagger
/daggerdbl /circumflex /perthousand /Scaron /guilsinglleft
/OE /bullet /Zcaron /bullet /bullet
/quoteleft /quoteright /quotedblleft /quotedblright /bullet
/endash /emdash /asciitilde /trademark /scaron
/guilsinglright /oe /bullet /zcaron /Ydieresis
/space /exclamdown /cent /sterling /currency
/yen /brokenbar /section /dieresis /copyright
/ordfeminine /guillemotleft /logicalnot /sfthyphen /registered
/macron /degree /plusminus /twosuperior /threesuperior
/acute /mu /paragraph /middot /cedilla
/onesuperior /ordmasculine /guillemotright /onequarter /onehalf
/threequarters /questiondown /Agrave /Aacute /Acircumflex
/Atilde /Adieresis /Aring /AE /Ccedilla
/Egrave /Eacute /Ecircumflex /Edieresis /Igrave
/Iacute /Icircumflex /Idieresis /Eth /Ntilde
/Ograve /Oacute /Ocircumflex /Otilde /Odieresis
/multiply /Oslash /Ugrave /Uacute /Ucircumflex
/Udieresis /Yacute /Thorn /germandbls /agrave
/aacute /acircumflex /atilde /adieresis /aring
/ae /ccedilla /egrave /eacute /ecircumflex
/edieresis /igrave /iacute /icircumflex /idieresis
/eth /ntilde /ograve /oacute /ocircumflex
/otilde /odieresis /divide /oslash /ugrave
/uacute /ucircumflex /udieresis /yacute /thorn
/ydieresis
] def
%%EndResource
%FOPBeginFontReencode
/Courier-Bold findfont
dup length dict begin
  {1 index /FID ne {def} {pop pop} ifelse} forall
  /Encoding WinAnsiEncoding def
  currentdict
end
/Courier-Bold exch definefont pop
/Helvetica findfont
dup length dict begin
  {1 index /FID ne {def} {pop pop} ifelse} forall
  /Encoding WinAnsiEncoding def
  currentdict
end
/Helvetica exch definefont pop
/Courier-BoldOblique findfont
dup length dict begin
  {1 index /FID ne {def} {pop pop} ifelse} forall
  /Encoding WinAnsiEncoding def
  currentdict
end
/Courier-BoldOblique exch definefont pop
/Courier-Oblique findfont
dup length dict begin
  {1 index /FID ne {def} {pop pop} ifelse} forall
  /Encoding WinAnsiEncoding def
  currentdict
end
/Courier-Oblique exch definefont pop
/Times-Roman findfont
dup length dict begin
  {1 index /FID ne {def} {pop pop} ifelse} forall
  /Encoding WinAnsiEncoding def
  currentdict
end
/Times-Roman exch definefont pop
/Helvetica-BoldOblique findfont
dup length dict begin
  {1 index /FID ne {def} {pop pop} ifelse} forall
  /Encoding WinAnsiEncoding def
  currentdict
end
/Helvetica-BoldOblique exch definefont pop
/Helvetica-Bold findfont
dup length dict begin
  {1 index /FID ne {def} {pop pop} ifelse} forall
  /Encoding WinAnsiEncoding def
  currentdict
end
/Helvetica-Bold exch definefont pop
/Helvetica-Oblique findfont
dup length dict begin
  {1 index /FID ne {def} {pop pop} ifelse} forall
  /Encoding WinAnsiEncoding def
  currentdict
end
/Helvetica-Oblique exch definefont pop
/Times-BoldItalic findfont
dup length dict begin
  {1 index /FID ne {def} {pop pop} ifelse} forall
  /Encoding WinAnsiEncoding def
  currentdict
end
/Times-BoldItalic exch definefont pop
/Courier findfont
dup length dict begin
  {1 index /FID ne {def} {pop pop} ifelse} forall
  /Encoding WinAnsiEncoding def
  currentdict
end
/Courier exch definefont pop
/Times-Italic findfont
dup length dict begin
  {1 index /FID ne {def} {pop pop} ifelse} forall
  /Encoding WinAnsiEncoding def
  currentdict
end
/Times-Italic exch definefont pop
/Times-Bold findfont
dup length dict begin
  {1 index /FID ne {def} {pop pop} ifelse} forall
  /Encoding WinAnsiEncoding def
  currentdict
end
/Times-Bold exch definefont pop
%FOPEndFontReencode
%%EndProlog
%%Page: 1 1
%%PageBoundingBox: 0 0 607 197
%%BeginPageSetup
[1 0 0 -1 0 197] CT
%%EndPageSetup
GS
1 GC
N
0 0 607 197 re
f
GR
GS
1 GC
N
0 0 607 197 re
f
GR
GS
1 GC
N
79 161.5 M
282 161.5 L
282 19.5 L
79 19.5 L
cp
f
GR
GS
0.149 GC
2 setlinecap
1 LJ
0.5 LW
N
79 161.5 M
282 161.5 L
S
GR
GS
0.149 GC
2 setlinecap
1 LJ
0.5 LW
N
79 19.5 M
282 19.5 L
S
GR
GS
0.149 GC
2 setlinecap
1 LJ
0.5 LW
N
79 161.5 M
79 159.47 L
S
GR
GS
0.149 GC
2 setlinecap
1 LJ
0.5 LW
N
115.909 161.5 M
115.909 159.47 L
S
GR
GS
0.149 GC
2 setlinecap
1 LJ
0.5 LW
N
152.818 161.5 M
152.818 159.47 L
S
GR
GS
0.149 GC
2 setlinecap
1 LJ
0.5 LW
N
189.727 161.5 M
189.727 159.47 L
S
GR
GS
0.149 GC
2 setlinecap
1 LJ
0.5 LW
N
226.636 161.5 M
226.636 159.47 L
S
GR
GS
0.149 GC
2 setlinecap
1 LJ
0.5 LW
N
263.545 161.5 M
263.545 159.47 L
S
GR
GS
0.149 GC
2 setlinecap
1 LJ
0.5 LW
N
79 19.5 M
79 21.53 L
S
GR
GS
0.149 GC
2 setlinecap
1 LJ
0.5 LW
N
115.909 19.5 M
115.909 21.53 L
S
GR
GS
0.149 GC
2 setlinecap
1 LJ
0.5 LW
N
152.818 19.5 M
152.818 21.53 L
S
GR
GS
0.149 GC
2 setlinecap
1 LJ
0.5 LW
N
189.727 19.5 M
189.727 21.53 L
S
GR
GS
0.149 GC
2 setlinecap
1 LJ
0.5 LW
N
226.636 19.5 M
226.636 21.53 L
S
GR
GS
0.149 GC
2 setlinecap
1 LJ
0.5 LW
N
263.545 19.5 M
263.545 21.53 L
S
GR
GS
[1 0 0 1 79 165.70001] CT
0.149 GC
/Helvetica 11 F
GS
[1 0 0 1 0 0] CT
-3.5 11 moveto 
1 -1 scale
(0) t 
GR
GR
GS
[1 0 0 1 115.90909 165.70001] CT
0.149 GC
/Helvetica 11 F
GS
[1 0 0 1 0 0] CT
-6.5 11 moveto 
1 -1 scale
(20) t 
GR
GR
GS
[1 0 0 1 152.81818 165.70001] CT
0.149 GC
/Helvetica 11 F
GS
[1 0 0 1 0 0] CT
-6.5 11 moveto 
1 -1 scale
(40) t 
GR
GR
GS
[1 0 0 1 189.72728 165.70001] CT
0.149 GC
/Helvetica 11 F
GS
[1 0 0 1 0 0] CT
-6.5 11 moveto 
1 -1 scale
(60) t 
GR
GR
GS
[1 0 0 1 226.63637 165.70001] CT
0.149 GC
/Helvetica 11 F
GS
[1 0 0 1 0 0] CT
-6.5 11 moveto 
1 -1 scale
(80) t 
GR
GR
GS
[1 0 0 1 263.54544 165.70001] CT
0.149 GC
/Helvetica 11 F
GS
[1 0 0 1 0 0] CT
-9.5 11 moveto 
1 -1 scale
(100) t 
GR
GR
GS
[1 0 0 1 180.50009 179.70001] CT
0.149 GC
/Helvetica 12.1 F
GS
[1 0 0 1 0 0] CT
-34.5 12 moveto 
1 -1 scale
(#dimensions) t 
GR
GR
GS
0.149 GC
2 setlinecap
1 LJ
0.5 LW
N
79 161.5 M
79 19.5 L
S
GR
GS
0.149 GC
2 setlinecap
1 LJ
0.5 LW
N
282 161.5 M
282 19.5 L
S
GR
GS
0.149 GC
2 setlinecap
1 LJ
0.5 LW
N
79 161.5 M
81.03 161.5 L
S
GR
GS
0.149 GC
2 setlinecap
1 LJ
0.5 LW
N
79 126 M
81.03 126 L
S
GR
GS
0.149 GC
2 setlinecap
1 LJ
0.5 LW
N
79 90.5 M
81.03 90.5 L
S
GR
GS
0.149 GC
2 setlinecap
1 LJ
0.5 LW
N
79 55 M
81.03 55 L
S
GR
GS
0.149 GC
2 setlinecap
1 LJ
0.5 LW
N
79 19.5 M
81.03 19.5 L
S
GR
GS
0.149 GC
2 setlinecap
1 LJ
0.5 LW
N
282 161.5 M
279.97 161.5 L
S
GR
GS
0.149 GC
2 setlinecap
1 LJ
0.5 LW
N
282 126 M
279.97 126 L
S
GR
GS
0.149 GC
2 setlinecap
1 LJ
0.5 LW
N
282 90.5 M
279.97 90.5 L
S
GR
GS
0.149 GC
2 setlinecap
1 LJ
0.5 LW
N
282 55 M
279.97 55 L
S
GR
GS
0.149 GC
2 setlinecap
1 LJ
0.5 LW
N
282 19.5 M
279.97 19.5 L
S
GR
GS
[1 0 0 1 74.8 161.50003] CT
0.149 GC
/Helvetica 11 F
GS
[1 0 0 1 0 0] CT
-22 4 moveto 
1 -1 scale
(0.84) t 
GR
GR
GS
[1 0 0 1 74.8 125.99999] CT
0.149 GC
/Helvetica 11 F
GS
[1 0 0 1 0 0] CT
-22 4 moveto 
1 -1 scale
(0.87) t 
GR
GR
GS
[1 0 0 1 74.8 90.50003] CT
0.149 GC
/Helvetica 11 F
GS
[1 0 0 1 0 0] CT
-16 4 moveto 
1 -1 scale
(0.9) t 
GR
GR
GS
[1 0 0 1 74.8 54.99999] CT
0.149 GC
/Helvetica 11 F
GS
[1 0 0 1 0 0] CT
-22 4 moveto 
1 -1 scale
(0.93) t 
GR
GR
GS
[1 0 0 1 74.8 19.50002] CT
0.149 GC
/Helvetica 11 F
GS
[1 0 0 1 0 0] CT
-22 4 moveto 
1 -1 scale
(0.96) t 
GR
GR
GS
[0 -1 1 0 50.3 90.49995] CT
0.149 GC
/Helvetica 12.1 F
GS
[1 0 0 1 0 0] CT
-11.5 -3 moveto 
1 -1 scale
(NMI) t 
GR
GR
GS
[1 0 0 1 171.27289 18.2023] CT
/Helvetica-Bold 12.1 F
GS
[1 0 0 1 0 0] CT
-62 -3 moveto 
1 -1 scale
(Community detection) t 
GR
GR
GS
0.8 0 0 RC
1 LJ
2 LW
N
97.455 146.416 M
134.364 70.168 L
171.273 44.957 L
263.545 44.126 L
S
GR
GS
[1 0 0 1 97.45454 146.41588] CT
0.8 0 0 RC
N
1.5 -0.5 M
1.5 -1.605 0.605 -2.5 -0.5 -2.5 C
-1.605 -2.5 -2.5 -1.605 -2.5 -0.5 C
-2.5 0.605 -1.605 1.5 -0.5 1.5 C
0.605 1.5 1.5 0.605 1.5 -0.5 C
f
GR
GS
[1 0 0 1 97.45454 146.41588] CT
0.8 0 0 RC
10.0 ML
2 LW
N
1.5 -0.5 M
1.5 -1.605 0.605 -2.5 -0.5 -2.5 C
-1.605 -2.5 -2.5 -1.605 -2.5 -0.5 C
-2.5 0.605 -1.605 1.5 -0.5 1.5 C
0.605 1.5 1.5 0.605 1.5 -0.5 C
S
GR
GS
[1 0 0 1 134.36363 70.16772] CT
0.8 0 0 RC
N
/f-750413395{1.5 -0.5 M
1.5 -1.605 0.605 -2.5 -0.5 -2.5 C
-1.605 -2.5 -2.5 -1.605 -2.5 -0.5 C
-2.5 0.605 -1.605 1.5 -0.5 1.5 C
0.605 1.5 1.5 0.605 1.5 -0.5 C}def
f-750413395
f
GR
GS
[1 0 0 1 134.36363 70.16772] CT
0.8 0 0 RC
10.0 ML
2 LW
N
1.5 -0.5 M
1.5 -1.605 0.605 -2.5 -0.5 -2.5 C
-1.605 -2.5 -2.5 -1.605 -2.5 -0.5 C
-2.5 0.605 -1.605 1.5 -0.5 1.5 C
0.605 1.5 1.5 0.605 1.5 -0.5 C
S
GR
GS
[1 0 0 1 171.27272 44.9572] CT
0.8 0 0 RC
N
f-750413395
f
GR
GS
[1 0 0 1 171.27272 44.9572] CT
0.8 0 0 RC
10.0 ML
2 LW
N
1.5 -0.5 M
1.5 -1.605 0.605 -2.5 -0.5 -2.5 C
-1.605 -2.5 -2.5 -1.605 -2.5 -0.5 C
-2.5 0.605 -1.605 1.5 -0.5 1.5 C
0.605 1.5 1.5 0.605 1.5 -0.5 C
S
GR
GS
[1 0 0 1 263.54544 44.12633] CT
0.8 0 0 RC
N
f-750413395
f
GR
GS
[1 0 0 1 263.54544 44.12633] CT
0.8 0 0 RC
10.0 ML
2 LW
N
1.5 -0.5 M
1.5 -1.605 0.605 -2.5 -0.5 -2.5 C
-1.605 -2.5 -2.5 -1.605 -2.5 -0.5 C
-2.5 0.605 -1.605 1.5 -0.5 1.5 C
0.605 1.5 1.5 0.605 1.5 -0.5 C
S
GR
GS
1 GC
N
/f268807584{346 161.5 M
549.5 161.5 L
549.5 19.5 L
346 19.5 L
cp}def
f268807584
f
GR
GS
0.149 GC
2 setlinecap
1 LJ
0.5 LW
N
346 161.5 M
549.5 161.5 L
S
GR
GS
0.149 GC
2 setlinecap
1 LJ
0.5 LW
N
346 19.5 M
549.5 19.5 L
S
GR
GS
0.149 GC
2 setlinecap
1 LJ
0.5 LW
N
346 161.5 M
346 159.465 L
S
GR
GS
0.149 GC
2 setlinecap
1 LJ
0.5 LW
N
383 161.5 M
383 159.465 L
S
GR
GS
0.149 GC
2 setlinecap
1 LJ
0.5 LW
N
420 161.5 M
420 159.465 L
S
GR
GS
0.149 GC
2 setlinecap
1 LJ
0.5 LW
N
457 161.5 M
457 159.465 L
S
GR
GS
0.149 GC
2 setlinecap
1 LJ
0.5 LW
N
494 161.5 M
494 159.465 L
S
GR
GS
0.149 GC
2 setlinecap
1 LJ
0.5 LW
N
531 161.5 M
531 159.465 L
S
GR
GS
0.149 GC
2 setlinecap
1 LJ
0.5 LW
N
346 19.5 M
346 21.535 L
S
GR
GS
0.149 GC
2 setlinecap
1 LJ
0.5 LW
N
383 19.5 M
383 21.535 L
S
GR
GS
0.149 GC
2 setlinecap
1 LJ
0.5 LW
N
420 19.5 M
420 21.535 L
S
GR
GS
0.149 GC
2 setlinecap
1 LJ
0.5 LW
N
457 19.5 M
457 21.535 L
S
GR
GS
0.149 GC
2 setlinecap
1 LJ
0.5 LW
N
494 19.5 M
494 21.535 L
S
GR
GS
0.149 GC
2 setlinecap
1 LJ
0.5 LW
N
531 19.5 M
531 21.535 L
S
GR
GS
[1 0 0 1 346 165.89986] CT
0.149 GC
/Helvetica 12 F
GS
[1 0 0 1 0 0] CT
-3.5 12 moveto 
1 -1 scale
(0) t 
GR
GR
GS
[1 0 0 1 383 165.89986] CT
0.149 GC
/Helvetica 12 F
GS
[1 0 0 1 0 0] CT
-7 12 moveto 
1 -1 scale
(20) t 
GR
GR
GS
[1 0 0 1 420 165.89986] CT
0.149 GC
/Helvetica 12 F
GS
[1 0 0 1 0 0] CT
-7 12 moveto 
1 -1 scale
(40) t 
GR
GR
GS
[1 0 0 1 457 165.89986] CT
0.149 GC
/Helvetica 12 F
GS
[1 0 0 1 0 0] CT
-7 12 moveto 
1 -1 scale
(60) t 
GR
GR
GS
[1 0 0 1 494 165.89986] CT
0.149 GC
/Helvetica 12 F
GS
[1 0 0 1 0 0] CT
-7 12 moveto 
1 -1 scale
(80) t 
GR
GR
GS
[1 0 0 1 531 165.89986] CT
0.149 GC
/Helvetica 12 F
GS
[1 0 0 1 0 0] CT
-10.5 12 moveto 
1 -1 scale
(100) t 
GR
GR
GS
[1 0 0 1 447.75009 181.39993] CT
0.149 GC
/Helvetica 13.2 F
GS
[1 0 0 1 0 0] CT
-37 13 moveto 
1 -1 scale
(#dimensions) t 
GR
GR
GS
0.149 GC
2 setlinecap
1 LJ
0.5 LW
N
346 161.5 M
346 19.5 L
S
GR
GS
0.149 GC
2 setlinecap
1 LJ
0.5 LW
N
549.5 161.5 M
549.5 19.5 L
S
GR
GS
0.149 GC
2 setlinecap
1 LJ
0.5 LW
N
346 161.5 M
348.035 161.5 L
S
GR
GS
0.149 GC
2 setlinecap
1 LJ
0.5 LW
N
346 126 M
348.035 126 L
S
GR
GS
0.149 GC
2 setlinecap
1 LJ
0.5 LW
N
346 90.5 M
348.035 90.5 L
S
GR
GS
0.149 GC
2 setlinecap
1 LJ
0.5 LW
N
346 55 M
348.035 55 L
S
GR
GS
0.149 GC
2 setlinecap
1 LJ
0.5 LW
N
346 19.5 M
348.035 19.5 L
S
GR
GS
0.149 GC
2 setlinecap
1 LJ
0.5 LW
N
549.5 161.5 M
547.465 161.5 L
S
GR
GS
0.149 GC
2 setlinecap
1 LJ
0.5 LW
N
549.5 126 M
547.465 126 L
S
GR
GS
0.149 GC
2 setlinecap
1 LJ
0.5 LW
N
549.5 90.5 M
547.465 90.5 L
S
GR
GS
0.149 GC
2 setlinecap
1 LJ
0.5 LW
N
549.5 55 M
547.465 55 L
S
GR
GS
0.149 GC
2 setlinecap
1 LJ
0.5 LW
N
549.5 19.5 M
547.465 19.5 L
S
GR
GS
[1 0 0 1 341.60001 161.49992] CT
0.149 GC
/Helvetica 12 F
GS
[1 0 0 1 0 0] CT
-24 4.5 moveto 
1 -1 scale
(0.79) t 
GR
GR
GS
[1 0 0 1 341.60001 125.99995] CT
0.149 GC
/Helvetica 12 F
GS
[1 0 0 1 0 0] CT
-17 4.5 moveto 
1 -1 scale
(0.8) t 
GR
GR
GS
[1 0 0 1 341.60001 90.49999] CT
0.149 GC
/Helvetica 12 F
GS
[1 0 0 1 0 0] CT
-24 4.5 moveto 
1 -1 scale
(0.81) t 
GR
GR
GS
[1 0 0 1 341.60001 55.00003] CT
0.149 GC
/Helvetica 12 F
GS
[1 0 0 1 0 0] CT
-24 4.5 moveto 
1 -1 scale
(0.82) t 
GR
GR
GS
[1 0 0 1 341.60001 19.50006] CT
0.149 GC
/Helvetica 12 F
GS
[1 0 0 1 0 0] CT
-24 4.5 moveto 
1 -1 scale
(0.83) t 
GR
GR
GS
[0 -1 1 0 315.10001 90.49999] CT
0.149 GC
/Helvetica 13.2 F
GS
[1 0 0 1 0 0] CT
-14 -3 moveto 
1 -1 scale
(AUC) t 
GR
GR
GS
[1 0 0 1 447.75043 17.85003] CT
/Helvetica-Bold 13.2 F
GS
[1 0 0 1 0 0] CT
-61 -3 moveto 
1 -1 scale
(Diffusion prediction) t 
GR
GR
GS
0.8 0 0 RC
1 LJ
2 LW
N
364.5 148.474 M
401.5 76.958 L
438.5 48.348 L
531 49.626 L
S
GR
GS
[1 0 0 1 364.5 148.47447] CT
0.8 0 0 RC
N
f-750413395
f
GR
GS
[1 0 0 1 364.5 148.47447] CT
0.8 0 0 RC
10.0 ML
2 LW
N
1.5 -0.5 M
1.5 -1.605 0.605 -2.5 -0.5 -2.5 C
-1.605 -2.5 -2.5 -1.605 -2.5 -0.5 C
-2.5 0.605 -1.605 1.5 -0.5 1.5 C
0.605 1.5 1.5 0.605 1.5 -0.5 C
S
GR
GS
[1 0 0 1 401.5 76.95824] CT
0.8 0 0 RC
N
f-750413395
f
GR
GS
[1 0 0 1 401.5 76.95824] CT
0.8 0 0 RC
10.0 ML
2 LW
N
1.5 -0.5 M
1.5 -1.605 0.605 -2.5 -0.5 -2.5 C
-1.605 -2.5 -2.5 -1.605 -2.5 -0.5 C
-2.5 0.605 -1.605 1.5 -0.5 1.5 C
0.605 1.5 1.5 0.605 1.5 -0.5 C
S
GR
GS
[1 0 0 1 438.5 48.34785] CT
0.8 0 0 RC
N
f-750413395
f
GR
GS
[1 0 0 1 438.5 48.34785] CT
0.8 0 0 RC
10.0 ML
2 LW
N
1.5 -0.5 M
1.5 -1.605 0.605 -2.5 -0.5 -2.5 C
-1.605 -2.5 -2.5 -1.605 -2.5 -0.5 C
-2.5 0.605 -1.605 1.5 -0.5 1.5 C
0.605 1.5 1.5 0.605 1.5 -0.5 C
S
GR
GS
[1 0 0 1 531 49.6259] CT
0.8 0 0 RC
N
f-750413395
f
GR
GS
[1 0 0 1 531 49.6259] CT
0.8 0 0 RC
10.0 ML
2 LW
N
1.5 -0.5 M
1.5 -1.605 0.605 -2.5 -0.5 -2.5 C
-1.605 -2.5 -2.5 -1.605 -2.5 -0.5 C
-2.5 0.605 -1.605 1.5 -0.5 1.5 C
0.605 1.5 1.5 0.605 1.5 -0.5 C
S
GR
%%Trailer
%%Pages: 1
%%EOF
