%!PS-Adobe-3.0 EPSF-3.0
%%Creator: (MATLAB, The Mathworks, Inc. Version 9.1.0.441655 \(R2016b\). Operating System: Mac OS X)
%%Title: /Users/zhangyuan/ijcai17-submission/memetracker.eps
%%CreationDate: 2017-02-15T19:20:31
%%Pages: (atend)
%%BoundingBox: 0 0 511 342
%%LanguageLevel: 3
%%EndComments
%%BeginProlog
%%BeginResource: procset (Apache XML Graphics Std ProcSet) 1.2 0
%%Version: 1.2 0
%%Copyright: (Copyright 2001-2003,2010 The Apache Software Foundation. License terms: http://www.apache.org/licenses/LICENSE-2.0)
/bd{bind def}bind def
/ld{load def}bd
/GR/grestore ld
/M/moveto ld
/LJ/setlinejoin ld
/C/curveto ld
/f/fill ld
/LW/setlinewidth ld
/GC/setgray ld
/t/show ld
/N/newpath ld
/CT/concat ld
/cp/closepath ld
/S/stroke ld
/L/lineto ld
/CC/setcmykcolor ld
/A/ashow ld
/GS/gsave ld
/RC/setrgbcolor ld
/RM/rmoveto ld
/ML/setmiterlimit ld
/re {4 2 roll M
1 index 0 rlineto
0 exch rlineto
neg 0 rlineto
cp } bd
/_ctm matrix def
/_tm matrix def
/BT { _ctm currentmatrix pop matrix _tm copy pop 0 0 moveto } bd
/ET { _ctm setmatrix } bd
/iTm { _ctm setmatrix _tm concat } bd
/Tm { _tm astore pop iTm 0 0 moveto } bd
/ux 0.0 def
/uy 0.0 def
/F {
  /Tp exch def
  /Tf exch def
  Tf findfont Tp scalefont setfont
  /cf Tf def  /cs Tp def
} bd
/ULS {currentpoint /uy exch def /ux exch def} bd
/ULE {
  /Tcx currentpoint pop def
  gsave
  newpath
  cf findfont cs scalefont dup
  /FontMatrix get 0 get /Ts exch def /FontInfo get dup
  /UnderlinePosition get Ts mul /To exch def
  /UnderlineThickness get Ts mul /Tt exch def
  ux uy To add moveto  Tcx uy To add lineto
  Tt setlinewidth stroke
  grestore
} bd
/OLE {
  /Tcx currentpoint pop def
  gsave
  newpath
  cf findfont cs scalefont dup
  /FontMatrix get 0 get /Ts exch def /FontInfo get dup
  /UnderlinePosition get Ts mul /To exch def
  /UnderlineThickness get Ts mul /Tt exch def
  ux uy To add cs add moveto Tcx uy To add cs add lineto
  Tt setlinewidth stroke
  grestore
} bd
/SOE {
  /Tcx currentpoint pop def
  gsave
  newpath
  cf findfont cs scalefont dup
  /FontMatrix get 0 get /Ts exch def /FontInfo get dup
  /UnderlinePosition get Ts mul /To exch def
  /UnderlineThickness get Ts mul /Tt exch def
  ux uy To add cs 10 mul 26 idiv add moveto Tcx uy To add cs 10 mul 26 idiv add lineto
  Tt setlinewidth stroke
  grestore
} bd
/QT {
/Y22 exch store
/X22 exch store
/Y21 exch store
/X21 exch store
currentpoint
/Y21 load 2 mul add 3 div exch
/X21 load 2 mul add 3 div exch
/X21 load 2 mul /X22 load add 3 div
/Y21 load 2 mul /Y22 load add 3 div
/X22 load /Y22 load curveto
} bd
/SSPD {
dup length /d exch dict def
{
/v exch def
/k exch def
currentpagedevice k known {
/cpdv currentpagedevice k get def
v cpdv ne {
/upd false def
/nullv v type /nulltype eq def
/nullcpdv cpdv type /nulltype eq def
nullv nullcpdv or
{
/upd true def
} {
/sametype v type cpdv type eq def
sametype {
v type /arraytype eq {
/vlen v length def
/cpdvlen cpdv length def
vlen cpdvlen eq {
0 1 vlen 1 sub {
/i exch def
/obj v i get def
/cpdobj cpdv i get def
obj cpdobj ne {
/upd true def
exit
} if
} for
} {
/upd true def
} ifelse
} {
v type /dicttype eq {
v {
/dv exch def
/dk exch def
/cpddv cpdv dk get def
dv cpddv ne {
/upd true def
exit
} if
} forall
} {
/upd true def
} ifelse
} ifelse
} if
} ifelse
upd true eq {
d k v put
} if
} if
} if
} forall
d length 0 gt {
d setpagedevice
} if
} bd
/RE { % /NewFontName [NewEncodingArray] /FontName RE -
  findfont dup length dict begin
  {
    1 index /FID ne
    {def} {pop pop} ifelse
  } forall
  /Encoding exch def
  /FontName 1 index def
  currentdict definefont pop
  end
} bind def
%%EndResource
%%BeginResource: procset (Apache XML Graphics EPS ProcSet) 1.0 0
%%Version: 1.0 0
%%Copyright: (Copyright 2002-2003 The Apache Software Foundation. License terms: http://www.apache.org/licenses/LICENSE-2.0)
/BeginEPSF { %def
/b4_Inc_state save def         % Save state for cleanup
/dict_count countdictstack def % Count objects on dict stack
/op_count count 1 sub def      % Count objects on operand stack
userdict begin                 % Push userdict on dict stack
/showpage { } def              % Redefine showpage, { } = null proc
0 setgray 0 setlinecap         % Prepare graphics state
1 setlinewidth 0 setlinejoin
10 setmiterlimit [ ] 0 setdash newpath
/languagelevel where           % If level not equal to 1 then
{pop languagelevel             % set strokeadjust and
1 ne                           % overprint to their defaults.
{false setstrokeadjust false setoverprint
} if
} if
} bd
/EndEPSF { %def
count op_count sub {pop} repeat            % Clean up stacks
countdictstack dict_count sub {end} repeat
b4_Inc_state restore
} bd
%%EndResource
%FOPBeginFontDict
%%IncludeResource: font Courier-Bold
%%IncludeResource: font Helvetica
%%IncludeResource: font Courier-BoldOblique
%%IncludeResource: font Courier-Oblique
%%IncludeResource: font Times-Roman
%%IncludeResource: font Helvetica-BoldOblique
%%IncludeResource: font Helvetica-Bold
%%IncludeResource: font Helvetica-Oblique
%%IncludeResource: font Times-BoldItalic
%%IncludeResource: font Courier
%%IncludeResource: font Times-Italic
%%IncludeResource: font Times-Bold
%%IncludeResource: font Symbol
%%IncludeResource: font ZapfDingbats
%FOPEndFontDict
%%BeginResource: encoding WinAnsiEncoding
/WinAnsiEncoding [
/.notdef /.notdef /.notdef /.notdef /.notdef
/.notdef /.notdef /.notdef /.notdef /.notdef
/.notdef /.notdef /.notdef /.notdef /.notdef
/.notdef /.notdef /.notdef /.notdef /.notdef
/.notdef /.notdef /.notdef /.notdef /.notdef
/.notdef /.notdef /.notdef /.notdef /.notdef
/.notdef /.notdef /space /exclam /quotedbl
/numbersign /dollar /percent /ampersand /quotesingle
/parenleft /parenright /asterisk /plus /comma
/hyphen /period /slash /zero /one
/two /three /four /five /six
/seven /eight /nine /colon /semicolon
/less /equal /greater /question /at
/A /B /C /D /E
/F /G /H /I /J
/K /L /M /N /O
/P /Q /R /S /T
/U /V /W /X /Y
/Z /bracketleft /backslash /bracketright /asciicircum
/underscore /quoteleft /a /b /c
/d /e /f /g /h
/i /j /k /l /m
/n /o /p /q /r
/s /t /u /v /w
/x /y /z /braceleft /bar
/braceright /asciitilde /bullet /Euro /bullet
/quotesinglbase /florin /quotedblbase /ellipsis /dagger
/daggerdbl /circumflex /perthousand /Scaron /guilsinglleft
/OE /bullet /Zcaron /bullet /bullet
/quoteleft /quoteright /quotedblleft /quotedblright /bullet
/endash /emdash /asciitilde /trademark /scaron
/guilsinglright /oe /bullet /zcaron /Ydieresis
/space /exclamdown /cent /sterling /currency
/yen /brokenbar /section /dieresis /copyright
/ordfeminine /guillemotleft /logicalnot /sfthyphen /registered
/macron /degree /plusminus /twosuperior /threesuperior
/acute /mu /paragraph /middot /cedilla
/onesuperior /ordmasculine /guillemotright /onequarter /onehalf
/threequarters /questiondown /Agrave /Aacute /Acircumflex
/Atilde /Adieresis /Aring /AE /Ccedilla
/Egrave /Eacute /Ecircumflex /Edieresis /Igrave
/Iacute /Icircumflex /Idieresis /Eth /Ntilde
/Ograve /Oacute /Ocircumflex /Otilde /Odieresis
/multiply /Oslash /Ugrave /Uacute /Ucircumflex
/Udieresis /Yacute /Thorn /germandbls /agrave
/aacute /acircumflex /atilde /adieresis /aring
/ae /ccedilla /egrave /eacute /ecircumflex
/edieresis /igrave /iacute /icircumflex /idieresis
/eth /ntilde /ograve /oacute /ocircumflex
/otilde /odieresis /divide /oslash /ugrave
/uacute /ucircumflex /udieresis /yacute /thorn
/ydieresis
] def
%%EndResource
%FOPBeginFontReencode
/Courier-Bold findfont
dup length dict begin
  {1 index /FID ne {def} {pop pop} ifelse} forall
  /Encoding WinAnsiEncoding def
  currentdict
end
/Courier-Bold exch definefont pop
/Helvetica findfont
dup length dict begin
  {1 index /FID ne {def} {pop pop} ifelse} forall
  /Encoding WinAnsiEncoding def
  currentdict
end
/Helvetica exch definefont pop
/Courier-BoldOblique findfont
dup length dict begin
  {1 index /FID ne {def} {pop pop} ifelse} forall
  /Encoding WinAnsiEncoding def
  currentdict
end
/Courier-BoldOblique exch definefont pop
/Courier-Oblique findfont
dup length dict begin
  {1 index /FID ne {def} {pop pop} ifelse} forall
  /Encoding WinAnsiEncoding def
  currentdict
end
/Courier-Oblique exch definefont pop
/Times-Roman findfont
dup length dict begin
  {1 index /FID ne {def} {pop pop} ifelse} forall
  /Encoding WinAnsiEncoding def
  currentdict
end
/Times-Roman exch definefont pop
/Helvetica-BoldOblique findfont
dup length dict begin
  {1 index /FID ne {def} {pop pop} ifelse} forall
  /Encoding WinAnsiEncoding def
  currentdict
end
/Helvetica-BoldOblique exch definefont pop
/Helvetica-Bold findfont
dup length dict begin
  {1 index /FID ne {def} {pop pop} ifelse} forall
  /Encoding WinAnsiEncoding def
  currentdict
end
/Helvetica-Bold exch definefont pop
/Helvetica-Oblique findfont
dup length dict begin
  {1 index /FID ne {def} {pop pop} ifelse} forall
  /Encoding WinAnsiEncoding def
  currentdict
end
/Helvetica-Oblique exch definefont pop
/Times-BoldItalic findfont
dup length dict begin
  {1 index /FID ne {def} {pop pop} ifelse} forall
  /Encoding WinAnsiEncoding def
  currentdict
end
/Times-BoldItalic exch definefont pop
/Courier findfont
dup length dict begin
  {1 index /FID ne {def} {pop pop} ifelse} forall
  /Encoding WinAnsiEncoding def
  currentdict
end
/Courier exch definefont pop
/Times-Italic findfont
dup length dict begin
  {1 index /FID ne {def} {pop pop} ifelse} forall
  /Encoding WinAnsiEncoding def
  currentdict
end
/Times-Italic exch definefont pop
/Times-Bold findfont
dup length dict begin
  {1 index /FID ne {def} {pop pop} ifelse} forall
  /Encoding WinAnsiEncoding def
  currentdict
end
/Times-Bold exch definefont pop
%FOPEndFontReencode
%%EndProlog
%%Page: 1 1
%%PageBoundingBox: 0 0 511 342
%%BeginPageSetup
[1 0 0 -1 0 342] CT
%%EndPageSetup
GS
1 GC
N
0 0 511 342 re
f
GR
GS
1 GC
N
0 0 511 342 re
f
GR
GS
1 GC
N
2 342 M
505.5 342 L
505.5 2 L
2 2 L
cp
f
GR
GS
0.973 GC
2 setlinecap
1 LJ
0.5 LW
N
2 342 M
505.5 342 L
S
GR
GS
0.973 GC
2 setlinecap
1 LJ
0.5 LW
N
9.746 342 M
9.746 336.965 L
S
GR
GS
0.973 GC
2 setlinecap
1 LJ
0.5 LW
N
66.92 342 M
66.92 336.965 L
S
GR
GS
0.973 GC
2 setlinecap
1 LJ
0.5 LW
N
124.094 342 M
124.094 336.965 L
S
GR
GS
0.973 GC
2 setlinecap
1 LJ
0.5 LW
N
181.269 342 M
181.269 336.965 L
S
GR
GS
0.973 GC
2 setlinecap
1 LJ
0.5 LW
N
238.443 342 M
238.443 336.965 L
S
GR
GS
0.973 GC
2 setlinecap
1 LJ
0.5 LW
N
295.617 342 M
295.617 336.965 L
S
GR
GS
0.973 GC
2 setlinecap
1 LJ
0.5 LW
N
352.791 342 M
352.791 336.965 L
S
GR
GS
0.973 GC
2 setlinecap
1 LJ
0.5 LW
N
409.966 342 M
409.966 336.965 L
S
GR
GS
0.973 GC
2 setlinecap
1 LJ
0.5 LW
N
467.14 342 M
467.14 336.965 L
S
GR
GS
0.973 GC
2 setlinecap
1 LJ
0.5 LW
N
2 342 M
2 2 L
S
GR
GS
0.973 GC
2 setlinecap
1 LJ
0.5 LW
N
2 337.839 M
7.035 337.839 L
S
GR
GS
0.973 GC
2 setlinecap
1 LJ
0.5 LW
N
2 306.593 M
7.035 306.593 L
S
GR
GS
0.973 GC
2 setlinecap
1 LJ
0.5 LW
N
2 275.348 M
7.035 275.348 L
S
GR
GS
0.973 GC
2 setlinecap
1 LJ
0.5 LW
N
2 244.103 M
7.035 244.103 L
S
GR
GS
0.973 GC
2 setlinecap
1 LJ
0.5 LW
N
2 212.857 M
7.035 212.857 L
S
GR
GS
0.973 GC
2 setlinecap
1 LJ
0.5 LW
N
2 181.612 M
7.035 181.612 L
S
GR
GS
0.973 GC
2 setlinecap
1 LJ
0.5 LW
N
2 150.366 M
7.035 150.366 L
S
GR
GS
0.973 GC
2 setlinecap
1 LJ
0.5 LW
N
2 119.121 M
7.035 119.121 L
S
GR
GS
0.973 GC
2 setlinecap
1 LJ
0.5 LW
N
2 87.876 M
7.035 87.876 L
S
GR
GS
0.973 GC
2 setlinecap
1 LJ
0.5 LW
N
2 56.63 M
7.035 56.63 L
S
GR
GS
0.973 GC
2 setlinecap
1 LJ
0.5 LW
N
2 25.385 M
7.035 25.385 L
S
GR
GS
[1 0 0 1 221.95799 182.33144] CT
0.984 0.804 0.176 RC
N
2.239 -0.5 M
2.239 -2.012 1.012 -3.239 -0.5 -3.239 C
-2.012 -3.239 -3.239 -2.012 -3.239 -0.5 C
-3.239 1.012 -2.012 2.239 -0.5 2.239 C
1.012 2.239 2.239 1.012 2.239 -0.5 C
f
GR
GS
[1 0 0 1 124.0116 173.16853] CT
0.569 0.745 0.447 RC
N
/f577491941{2.239 -0.5 M
2.239 -2.012 1.012 -3.239 -0.5 -3.239 C
-2.012 -3.239 -3.239 -2.012 -3.239 -0.5 C
-3.239 1.012 -2.012 2.239 -0.5 2.239 C
1.012 2.239 2.239 1.012 2.239 -0.5 C}def
f577491941
f
GR
GS
[1 0 0 1 179.47424 121.28857] CT
0.216 0.722 0.616 RC
N
f577491941
f
GR
GS
[1 0 0 1 206.94821 223.91765] CT
0.984 0.804 0.176 RC
N
f577491941
f
GR
GS
[1 0 0 1 208.87128 229.54181] CT
0.984 0.804 0.176 RC
N
f577491941
f
GR
GS
[1 0 0 1 240.02055 122.69902] CT
0.216 0.722 0.616 RC
N
f577491941
f
GR
GS
[1 0 0 1 162.6843 182.7338] CT
0.569 0.745 0.447 RC
N
f577491941
f
GR
GS
[1 0 0 1 187.65862 187.41785] CT
0.984 0.804 0.176 RC
N
f577491941
f
GR
GS
[1 0 0 1 182.20018 192.61952] CT
0.984 0.804 0.176 RC
N
f577491941
f
GR
GS
[1 0 0 1 276.51996 120.6638] CT
0.216 0.722 0.616 RC
N
f577491941
f
GR
GS
[1 0 0 1 124.58554 176.61681] CT
0.569 0.745 0.447 RC
N
f577491941
f
GR
GS
[1 0 0 1 178.91086 237.81877] CT
0.984 0.804 0.176 RC
N
f577491941
f
GR
GS
[1 0 0 1 212.31197 152.16603] CT
0.984 0.804 0.176 RC
N
f577491941
f
GR
GS
[1 0 0 1 243.6151 119.71782] CT
0.216 0.722 0.616 RC
N
f577491941
f
GR
GS
[1 0 0 1 207.18652 213.66786] CT
0.984 0.804 0.176 RC
N
f577491941
f
GR
GS
[1 0 0 1 242.95273 126.14566] CT
0.216 0.722 0.616 RC
N
f577491941
f
GR
GS
[1 0 0 1 211.69754 229.84865] CT
0.984 0.804 0.176 RC
N
f577491941
f
GR
GS
[1 0 0 1 205.74458 229.10854] CT
0.984 0.804 0.176 RC
N
f577491941
f
GR
GS
[1 0 0 1 195.77031 224.35178] CT
0.984 0.804 0.176 RC
N
f577491941
f
GR
GS
[1 0 0 1 206.30702 240.425] CT
0.984 0.804 0.176 RC
N
f577491941
f
GR
GS
[1 0 0 1 183.63344 136.53459] CT
0.984 0.804 0.176 RC
N
f577491941
f
GR
GS
[1 0 0 1 244.89905 207.69765] CT
0.984 0.804 0.176 RC
N
f577491941
f
GR
GS
[1 0 0 1 149.77275 115.63992] CT
0.216 0.722 0.616 RC
N
f577491941
f
GR
GS
[1 0 0 1 209.50734 237.7912] CT
0.984 0.804 0.176 RC
N
f577491941
f
GR
GS
[1 0 0 1 173.57321 210.85982] CT
0.984 0.804 0.176 RC
N
f577491941
f
GR
GS
[1 0 0 1 197.81624 124.97403] CT
0.216 0.722 0.616 RC
N
f577491941
f
GR
GS
[1 0 0 1 194.31483 132.59993] CT
0.216 0.722 0.616 RC
N
f577491941
f
GR
GS
[1 0 0 1 217.22227 253.75172] CT
0.984 0.804 0.176 RC
N
f577491941
f
GR
GS
[1 0 0 1 224.56059 182.59853] CT
0.984 0.804 0.176 RC
N
f577491941
f
GR
GS
[1 0 0 1 201.98167 236.36497] CT
0.984 0.804 0.176 RC
N
f577491941
f
GR
GS
[1 0 0 1 215.41278 184.97639] CT
0.984 0.804 0.176 RC
N
f577491941
f
GR
GS
[1 0 0 1 184.93265 214.45636] CT
0.984 0.804 0.176 RC
N
f577491941
f
GR
GS
[1 0 0 1 217.66757 229.12672] CT
0.984 0.804 0.176 RC
N
f577491941
f
GR
GS
[1 0 0 1 203.06287 223.88164] CT
0.984 0.804 0.176 RC
N
f577491941
f
GR
GS
[1 0 0 1 462.70959 139.77498] CT
0.02 0.651 0.776 RC
N
f577491941
f
GR
GS
[1 0 0 1 225.18791 189.77927] CT
0.984 0.804 0.176 RC
N
f577491941
f
GR
GS
[1 0 0 1 219.90149 225.53493] CT
0.984 0.804 0.176 RC
N
f577491941
f
GR
GS
[1 0 0 1 188.38058 216.14142] CT
0.984 0.804 0.176 RC
N
f577491941
f
GR
GS
[1 0 0 1 222.99707 138.19417] CT
0.216 0.722 0.616 RC
N
f577491941
f
GR
GS
[1 0 0 1 200.26379 233.43672] CT
0.984 0.804 0.176 RC
N
f577491941
f
GR
GS
[1 0 0 1 220.90407 239.44687] CT
0.984 0.804 0.176 RC
N
f577491941
f
GR
GS
[1 0 0 1 194.60637 222.37216] CT
0.984 0.804 0.176 RC
N
f577491941
f
GR
GS
[1 0 0 1 243.29927 210.15616] CT
0.984 0.804 0.176 RC
N
f577491941
f
GR
GS
[1 0 0 1 196.5862 132.13545] CT
0.216 0.722 0.616 RC
N
f577491941
f
GR
GS
[1 0 0 1 173.23891 180.61777] CT
0.984 0.804 0.176 RC
N
f577491941
f
GR
GS
[1 0 0 1 167.03156 211.68791] CT
0.984 0.804 0.176 RC
N
f577491941
f
GR
GS
[1 0 0 1 187.57188 239.49838] CT
0.984 0.804 0.176 RC
N
f577491941
f
GR
GS
[1 0 0 1 205.68794 124.04995] CT
0.216 0.722 0.616 RC
N
f577491941
f
GR
GS
[1 0 0 1 210.74791 212.52408] CT
0.984 0.804 0.176 RC
N
f577491941
f
GR
GS
[1 0 0 1 198.06108 229.09669] CT
0.984 0.804 0.176 RC
N
f577491941
f
GR
GS
[1 0 0 1 212.42197 237.15031] CT
0.984 0.804 0.176 RC
N
f577491941
f
GR
GS
[1 0 0 1 175.78735 125.07352] CT
0.216 0.722 0.616 RC
N
f577491941
f
GR
GS
[1 0 0 1 236.1288 243.05885] CT
0.984 0.804 0.176 RC
N
f577491941
f
GR
GS
[1 0 0 1 212.41724 237.21748] CT
0.984 0.804 0.176 RC
N
f577491941
f
GR
GS
[1 0 0 1 186.96397 241.57169] CT
0.984 0.804 0.176 RC
N
f577491941
f
GR
GS
[1 0 0 1 216.34816 227.21985] CT
0.984 0.804 0.176 RC
N
f577491941
f
GR
GS
[1 0 0 1 252.98361 201.87718] CT
0.984 0.804 0.176 RC
N
f577491941
f
GR
GS
[1 0 0 1 171.99709 211.71603] CT
0.984 0.804 0.176 RC
N
f577491941
f
GR
GS
[1 0 0 1 243.87103 123.47007] CT
0.216 0.722 0.616 RC
N
f577491941
f
GR
GS
[1 0 0 1 198.26877 126.77705] CT
0.216 0.722 0.616 RC
N
f577491941
f
GR
GS
[1 0 0 1 196.94536 216.84743] CT
0.984 0.804 0.176 RC
N
f577491941
f
GR
GS
[1 0 0 1 125.95341 174.86404] CT
0.984 0.804 0.176 RC
N
f577491941
f
GR
GS
[1 0 0 1 188.02802 220.75749] CT
0.984 0.804 0.176 RC
N
f577491941
f
GR
GS
[1 0 0 1 230.68132 189.06894] CT
0.984 0.804 0.176 RC
N
f577491941
f
GR
GS
[1 0 0 1 207.88994 219.18814] CT
0.984 0.804 0.176 RC
N
f577491941
f
GR
GS
[1 0 0 1 209.81767 147.18657] CT
0.216 0.722 0.616 RC
N
f577491941
f
GR
GS
[1 0 0 1 178.59795 214.42656] CT
0.984 0.804 0.176 RC
N
f577491941
f
GR
GS
[1 0 0 1 221.21207 239.62329] CT
0.984 0.804 0.176 RC
N
f577491941
f
GR
GS
[1 0 0 1 258.68698 120.8417] CT
0.216 0.722 0.616 RC
N
f577491941
f
GR
GS
[1 0 0 1 189.76405 212.11363] CT
0.984 0.804 0.176 RC
N
f577491941
f
GR
GS
[1 0 0 1 215.03571 245.6573] CT
0.984 0.804 0.176 RC
N
f577491941
f
GR
GS
[1 0 0 1 219.1432 254.08446] CT
0.984 0.804 0.176 RC
N
f577491941
f
GR
GS
[1 0 0 1 229.44919 79.25496] CT
0.216 0.722 0.616 RC
N
f577491941
f
GR
GS
[1 0 0 1 154.88155 253.55653] CT
0.984 0.804 0.176 RC
N
f577491941
f
GR
GS
[1 0 0 1 199.06752 132.29002] CT
0.216 0.722 0.616 RC
N
f577491941
f
GR
GS
[1 0 0 1 81.41605 122.56613] CT
0.078 0.518 0.827 RC
N
f577491941
f
GR
GS
[1 0 0 1 238.3979 204.9455] CT
0.984 0.804 0.176 RC
N
f577491941
f
GR
GS
[1 0 0 1 148.0033 116.06528] CT
0.216 0.722 0.616 RC
N
f577491941
f
GR
GS
[1 0 0 1 162.99136 256.32999] CT
0.984 0.804 0.176 RC
N
f577491941
f
GR
GS
[1 0 0 1 142.57182 116.60703] CT
0.216 0.722 0.616 RC
N
f577491941
f
GR
GS
[1 0 0 1 224.87589 250.24338] CT
0.984 0.804 0.176 RC
N
f577491941
f
GR
GS
[1 0 0 1 227.97449 251.29019] CT
0.984 0.804 0.176 RC
N
f577491941
f
GR
GS
[1 0 0 1 208.72382 150.60478] CT
0.216 0.722 0.616 RC
N
f577491941
f
GR
GS
[1 0 0 1 246.42688 124.83884] CT
0.216 0.722 0.616 RC
N
f577491941
f
GR
GS
[1 0 0 1 186.31902 237.85683] CT
0.984 0.804 0.176 RC
N
f577491941
f
GR
GS
[1 0 0 1 233.48868 252.36752] CT
0.984 0.804 0.176 RC
N
f577491941
f
GR
GS
[1 0 0 1 237.20218 210.44919] CT
0.984 0.804 0.176 RC
N
f577491941
f
GR
GS
[1 0 0 1 227.871 236.14087] CT
0.984 0.804 0.176 RC
N
f577491941
f
GR
GS
[1 0 0 1 290.36166 62.38363] CT
0.008 0.384 0.878 RC
N
f577491941
f
GR
GS
[1 0 0 1 193.90216 203.19255] CT
0.984 0.804 0.176 RC
N
f577491941
f
GR
GS
[1 0 0 1 213.31604 130.90158] CT
0.216 0.722 0.616 RC
N
f577491941
f
GR
GS
[1 0 0 1 189.7567 130.02284] CT
0.216 0.722 0.616 RC
N
f577491941
f
GR
GS
[1 0 0 1 226.03322 264.83475] CT
0.208 0.165 0.525 RC
N
f577491941
f
GR
GS
[1 0 0 1 185.43831 125.93343] CT
0.216 0.722 0.616 RC
N
f577491941
f
GR
GS
[1 0 0 1 212.78397 248.51004] CT
0.984 0.804 0.176 RC
N
f577491941
f
GR
GS
[1 0 0 1 159.08954 185.74167] CT
0.569 0.745 0.447 RC
N
f577491941
f
GR
GS
[1 0 0 1 197.74634 126.15355] CT
0.216 0.722 0.616 RC
N
f577491941
f
GR
GS
[1 0 0 1 248.33102 123.37872] CT
0.216 0.722 0.616 RC
N
f577491941
f
GR
GS
[1 0 0 1 321.55194 34.42474] CT
0.008 0.384 0.878 RC
N
f577491941
f
GR
GS
[1 0 0 1 142.92053 102.25244] CT
0.216 0.722 0.616 RC
N
f577491941
f
GR
GS
[1 0 0 1 210.59706 187.82805] CT
0.984 0.804 0.176 RC
N
f577491941
f
GR
GS
[1 0 0 1 231.24406 194.4763] CT
0.984 0.804 0.176 RC
N
f577491941
f
GR
GS
[1 0 0 1 181.5836 120.51235] CT
0.216 0.722 0.616 RC
N
f577491941
f
GR
GS
[1 0 0 1 239.44147 255.41127] CT
0.984 0.804 0.176 RC
N
f577491941
f
GR
GS
[1 0 0 1 238.75185 234.60912] CT
0.984 0.804 0.176 RC
N
f577491941
f
GR
GS
[1 0 0 1 246.27364 210.48169] CT
0.984 0.804 0.176 RC
N
f577491941
f
GR
GS
[1 0 0 1 164.50392 247.19524] CT
0.984 0.804 0.176 RC
N
f577491941
f
GR
GS
[1 0 0 1 119.10207 148.15619] CT
0.569 0.745 0.447 RC
N
f577491941
f
GR
GS
[1 0 0 1 205.37325 246.63733] CT
0.984 0.804 0.176 RC
N
f577491941
f
GR
GS
[1 0 0 1 212.16643 248.1478] CT
0.984 0.804 0.176 RC
N
f577491941
f
GR
GS
[1 0 0 1 179.00815 251.21428] CT
0.984 0.804 0.176 RC
N
f577491941
f
GR
GS
[1 0 0 1 220.85492 249.04631] CT
0.984 0.804 0.176 RC
N
f577491941
f
GR
GS
[1 0 0 1 234.82603 263.14313] CT
0.984 0.804 0.176 RC
N
f577491941
f
GR
GS
[1 0 0 1 284.37277 115.31522] CT
0.216 0.722 0.616 RC
N
f577491941
f
GR
GS
[1 0 0 1 283.86887 114.22666] CT
0.216 0.722 0.616 RC
N
f577491941
f
GR
GS
[1 0 0 1 326.35587 43.53902] CT
0.008 0.384 0.878 RC
N
f577491941
f
GR
GS
[1 0 0 1 341.71182 51.99134] CT
0.008 0.384 0.878 RC
N
f577491941
f
GR
GS
[1 0 0 1 348.21808 148.65465] CT
0.973 0.98 0.051 RC
N
f577491941
f
GR
GS
[1 0 0 1 283.33148 114.9276] CT
0.216 0.722 0.616 RC
N
f577491941
f
GR
GS
[1 0 0 1 181.3795 200.42281] CT
0.569 0.745 0.447 RC
N
f577491941
f
GR
GS
[1 0 0 1 283.72897 114.91087] CT
0.216 0.722 0.616 RC
N
f577491941
f
GR
GS
[1 0 0 1 207.19832 253.72932] CT
0.984 0.804 0.176 RC
N
f577491941
f
GR
GS
[1 0 0 1 202.57257 177.84096] CT
0.984 0.804 0.176 RC
N
f577491941
f
GR
GS
[1 0 0 1 179.32539 243.6877] CT
0.984 0.804 0.176 RC
N
f577491941
f
GR
GS
[1 0 0 1 227.40846 234.69124] CT
0.984 0.804 0.176 RC
N
f577491941
f
GR
GS
[1 0 0 1 227.48817 247.50586] CT
0.984 0.804 0.176 RC
N
f577491941
f
GR
GS
[1 0 0 1 207.1147 145.57185] CT
0.216 0.722 0.616 RC
N
f577491941
f
GR
GS
[1 0 0 1 177.93921 117.61997] CT
0.216 0.722 0.616 RC
N
f577491941
f
GR
GS
[1 0 0 1 223.88281 130.34537] CT
0.216 0.722 0.616 RC
N
f577491941
f
GR
GS
[1 0 0 1 171.76511 226.5537] CT
0.984 0.804 0.176 RC
N
f577491941
f
GR
GS
[1 0 0 1 281.89432 113.29453] CT
0.216 0.722 0.616 RC
N
f577491941
f
GR
GS
[1 0 0 1 184.68988 123.11595] CT
0.216 0.722 0.616 RC
N
f577491941
f
GR
GS
[1 0 0 1 287.48477 113.25938] CT
0.216 0.722 0.616 RC
N
f577491941
f
GR
GS
[1 0 0 1 202.46326 134.26874] CT
0.216 0.722 0.616 RC
N
f577491941
f
GR
GS
[1 0 0 1 148.02464 213.75668] CT
0.984 0.804 0.176 RC
N
f577491941
f
GR
GS
[1 0 0 1 262.41574 195.99966] CT
0.984 0.804 0.176 RC
N
f577491941
f
GR
GS
[1 0 0 1 215.27097 256.6817] CT
0.984 0.804 0.176 RC
N
f577491941
f
GR
GS
[1 0 0 1 200.95325 242.17805] CT
0.984 0.804 0.176 RC
N
f577491941
f
GR
GS
[1 0 0 1 231.28792 273.7186] CT
0.208 0.165 0.525 RC
N
f577491941
f
GR
GS
[1 0 0 1 256.18881 122.61204] CT
0.216 0.722 0.616 RC
N
f577491941
f
GR
GS
[1 0 0 1 120.4129 195.46722] CT
0.569 0.745 0.447 RC
N
f577491941
f
GR
GS
[1 0 0 1 79.61898 121.81427] CT
0.078 0.518 0.827 RC
N
f577491941
f
GR
GS
[1 0 0 1 201.10303 250.35828] CT
0.984 0.804 0.176 RC
N
f577491941
f
GR
GS
[1 0 0 1 231.72426 184.24365] CT
0.984 0.804 0.176 RC
N
f577491941
f
GR
GS
[1 0 0 1 261.13107 179.12555] CT
0.984 0.804 0.176 RC
N
f577491941
f
GR
GS
[1 0 0 1 202.72369 125.93356] CT
0.216 0.722 0.616 RC
N
f577491941
f
GR
GS
[1 0 0 1 227.01697 172.66299] CT
0.216 0.722 0.616 RC
N
f577491941
f
GR
GS
[1 0 0 1 185.00729 223.4458] CT
0.984 0.804 0.176 RC
N
f577491941
f
GR
GS
[1 0 0 1 232.49091 230.06876] CT
0.984 0.804 0.176 RC
N
f577491941
f
GR
GS
[1 0 0 1 252.72517 110.08121] CT
0.216 0.722 0.616 RC
N
f577491941
f
GR
GS
[1 0 0 1 343.66711 54.93344] CT
0.008 0.384 0.878 RC
N
f577491941
f
GR
GS
[1 0 0 1 209.78018 219.5894] CT
0.984 0.804 0.176 RC
N
f577491941
f
GR
GS
[1 0 0 1 248.13676 209.29474] CT
0.984 0.804 0.176 RC
N
f577491941
f
GR
GS
[1 0 0 1 135.76669 208.00397] CT
0.569 0.745 0.447 RC
N
f577491941
f
GR
GS
[1 0 0 1 64.39816 145.95612] CT
0.078 0.518 0.827 RC
N
f577491941
f
GR
GS
[1 0 0 1 251.70071 120.74098] CT
0.216 0.722 0.616 RC
N
f577491941
f
GR
GS
[1 0 0 1 290.58774 62.32157] CT
0.008 0.384 0.878 RC
N
f577491941
f
GR
GS
[1 0 0 1 192.60597 128.58809] CT
0.216 0.722 0.616 RC
N
f577491941
f
GR
GS
[1 0 0 1 73.47278 124.40034] CT
0.078 0.518 0.827 RC
N
f577491941
f
GR
GS
[1 0 0 1 243.40454 125.46248] CT
0.216 0.722 0.616 RC
N
f577491941
f
GR
GS
[1 0 0 1 176.21227 253.9445] CT
0.984 0.804 0.176 RC
N
f577491941
f
GR
GS
[1 0 0 1 282.08051 161.50661] CT
0.216 0.722 0.616 RC
N
f577491941
f
GR
GS
[1 0 0 1 126.90393 192.62154] CT
0.569 0.745 0.447 RC
N
f577491941
f
GR
GS
[1 0 0 1 209.25932 140.9117] CT
0.216 0.722 0.616 RC
N
f577491941
f
GR
GS
[1 0 0 1 293.01263 112.81835] CT
0.216 0.722 0.616 RC
N
f577491941
f
GR
GS
[1 0 0 1 462.48767 137.54933] CT
0.02 0.651 0.776 RC
N
f577491941
f
GR
GS
[1 0 0 1 332.07874 28.01264] CT
0.008 0.384 0.878 RC
N
f577491941
f
GR
GS
[1 0 0 1 318.12921 27.09968] CT
0.008 0.384 0.878 RC
N
f577491941
f
GR
GS
[1 0 0 1 334.29755 30.94282] CT
0.008 0.384 0.878 RC
N
f577491941
f
GR
GS
[1 0 0 1 198.73645 141.62546] CT
0.216 0.722 0.616 RC
N
f577491941
f
GR
GS
[1 0 0 1 332.61963 28.7265] CT
0.008 0.384 0.878 RC
N
f577491941
f
GR
GS
[1 0 0 1 334.43738 33.43735] CT
0.008 0.384 0.878 RC
N
f577491941
f
GR
GS
[1 0 0 1 221.36374 230.06377] CT
0.984 0.804 0.176 RC
N
f577491941
f
GR
GS
[1 0 0 1 326.00055 45.05396] CT
0.008 0.384 0.878 RC
N
f577491941
f
GR
GS
[1 0 0 1 346.41989 27.77292] CT
0.008 0.384 0.878 RC
N
f577491941
f
GR
GS
[1 0 0 1 221.78487 228.97087] CT
0.984 0.804 0.176 RC
N
f577491941
f
GR
GS
[1 0 0 1 234.15501 258.26727] CT
0.984 0.804 0.176 RC
N
f577491941
f
GR
GS
[1 0 0 1 172.76845 216.34441] CT
0.984 0.804 0.176 RC
N
f577491941
f
GR
GS
[1 0 0 1 199.88997 245.90016] CT
0.984 0.804 0.176 RC
N
f577491941
f
GR
GS
[1 0 0 1 324.70535 38.95899] CT
0.008 0.384 0.878 RC
N
f577491941
f
GR
GS
[1 0 0 1 210.99301 167.38785] CT
0.216 0.722 0.616 RC
N
f577491941
f
GR
GS
[1 0 0 1 235.10852 256.55817] CT
0.984 0.804 0.176 RC
N
f577491941
f
GR
GS
[1 0 0 1 217.21748 200.26511] CT
0.984 0.804 0.176 RC
N
f577491941
f
GR
GS
[1 0 0 1 260.4343 190.81061] CT
0.984 0.804 0.176 RC
N
f577491941
f
GR
GS
[1 0 0 1 129.93381 204.76173] CT
0.569 0.745 0.447 RC
N
f577491941
f
GR
GS
[1 0 0 1 162.96838 206.52243] CT
0.984 0.804 0.176 RC
N
f577491941
f
GR
GS
[1 0 0 1 192.43465 252.19135] CT
0.984 0.804 0.176 RC
N
f577491941
f
GR
GS
[1 0 0 1 283.33847 114.30547] CT
0.216 0.722 0.616 RC
N
f577491941
f
GR
GS
[1 0 0 1 262.90652 119.49257] CT
0.216 0.722 0.616 RC
N
f577491941
f
GR
GS
[1 0 0 1 374.7655 192.81052] CT
0.984 0.804 0.176 RC
N
f577491941
f
GR
GS
[1 0 0 1 162.18932 174.29198] CT
0.569 0.745 0.447 RC
N
f577491941
f
GR
GS
[1 0 0 1 341.28891 181.9339] CT
0.984 0.804 0.176 RC
N
f577491941
f
GR
GS
[1 0 0 1 347.32785 180.06879] CT
0.984 0.804 0.176 RC
N
f577491941
f
GR
GS
[1 0 0 1 152.89349 191.56987] CT
0.569 0.745 0.447 RC
N
f577491941
f
GR
GS
[1 0 0 1 249.32802 261.23309] CT
0.208 0.165 0.525 RC
N
f577491941
f
GR
GS
[1 0 0 1 53.91909 131.08002] CT
0.078 0.518 0.827 RC
N
f577491941
f
GR
GS
[1 0 0 1 165.03427 251.25452] CT
0.984 0.804 0.176 RC
N
f577491941
f
GR
GS
[1 0 0 1 174.36136 120.53882] CT
0.216 0.722 0.616 RC
N
f577491941
f
GR
GS
[1 0 0 1 352.29279 179.951] CT
0.973 0.98 0.051 RC
N
f577491941
f
GR
GS
[1 0 0 1 453.09033 183.6272] CT
0.847 0.729 0.333 RC
N
f577491941
f
GR
GS
[1 0 0 1 279.09744 175.61266] CT
0.984 0.804 0.176 RC
N
f577491941
f
GR
GS
[1 0 0 1 188.34187 112.60801] CT
0.216 0.722 0.616 RC
N
f577491941
f
GR
GS
[1 0 0 1 51.82452 141.31909] CT
0.078 0.518 0.827 RC
N
f577491941
f
GR
GS
[1 0 0 1 141.42529 102.93137] CT
0.216 0.722 0.616 RC
N
f577491941
f
GR
GS
[1 0 0 1 75.75301 147.20993] CT
0.984 0.804 0.176 RC
N
f577491941
f
GR
GS
[1 0 0 1 145.04781 252.59941] CT
0.984 0.804 0.176 RC
N
f577491941
f
GR
GS
[1 0 0 1 165.6387 252.98651] CT
0.984 0.804 0.176 RC
N
f577491941
f
GR
GS
[1 0 0 1 240.62666 243.46126] CT
0.984 0.804 0.176 RC
N
f577491941
f
GR
GS
[1 0 0 1 326.66815 32.14504] CT
0.008 0.384 0.878 RC
N
f577491941
f
GR
GS
[1 0 0 1 138.31491 197.1871] CT
0.569 0.745 0.447 RC
N
f577491941
f
GR
GS
[1 0 0 1 184.51334 116.69804] CT
0.216 0.722 0.616 RC
N
f577491941
f
GR
GS
[1 0 0 1 220.10652 277.56274] CT
0.208 0.165 0.525 RC
N
f577491941
f
GR
GS
[1 0 0 1 217.76051 146.50616] CT
0.216 0.722 0.616 RC
N
f577491941
f
GR
GS
[1 0 0 1 350.84183 257.10815] CT
0.208 0.165 0.525 RC
N
f577491941
f
GR
GS
[1 0 0 1 317.86105 244.7256] CT
0.984 0.804 0.176 RC
N
f577491941
f
GR
GS
[1 0 0 1 76.05498 114.77042] CT
0.078 0.518 0.827 RC
N
f577491941
f
GR
GS
[1 0 0 1 294.34055 113.20413] CT
0.216 0.722 0.616 RC
N
f577491941
f
GR
GS
[1 0 0 1 320.65359 22.90897] CT
0.008 0.384 0.878 RC
N
f577491941
f
GR
GS
[1 0 0 1 350.29913 159.14743] CT
0.973 0.98 0.051 RC
N
f577491941
f
GR
GS
[1 0 0 1 218.42021 214.32144] CT
0.984 0.804 0.176 RC
N
f577491941
f
GR
GS
[1 0 0 1 201.97734 255.64949] CT
0.984 0.804 0.176 RC
N
f577491941
f
GR
GS
[1 0 0 1 290.0376 62.36293] CT
0.008 0.384 0.878 RC
N
f577491941
f
GR
GS
[1 0 0 1 463.42389 139.03403] CT
0.02 0.651 0.776 RC
N
f577491941
f
GR
GS
[1 0 0 1 68.50719 146.06607] CT
0.078 0.518 0.827 RC
N
f577491941
f
GR
GS
[1 0 0 1 189.65642 248.38052] CT
0.984 0.804 0.176 RC
N
f577491941
f
GR
GS
[1 0 0 1 324.51608 24.48134] CT
0.008 0.384 0.878 RC
N
f577491941
f
GR
GS
[1 0 0 1 216.4491 257.55295] CT
0.984 0.804 0.176 RC
N
f577491941
f
GR
GS
[1 0 0 1 246.7218 270.06128] CT
0.208 0.165 0.525 RC
N
f577491941
f
GR
GS
[1 0 0 1 266.33731 107.25771] CT
0.216 0.722 0.616 RC
N
f577491941
f
GR
GS
[1 0 0 1 157.30672 155.76851] CT
0.569 0.745 0.447 RC
N
f577491941
f
GR
GS
[1 0 0 1 227.66647 272.87714] CT
0.208 0.165 0.525 RC
N
f577491941
f
GR
GS
[1 0 0 1 84.4055 115.5988] CT
0.078 0.518 0.827 RC
N
f577491941
f
GR
GS
[1 0 0 1 315.23355 243.98233] CT
0.984 0.804 0.176 RC
N
f577491941
f
GR
GS
[1 0 0 1 318.72504 22.12955] CT
0.008 0.384 0.878 RC
N
f577491941
f
GR
GS
[1 0 0 1 342.38898 253.6366] CT
0.208 0.165 0.525 RC
N
f577491941
f
GR
GS
[1 0 0 1 238.82309 266.45035] CT
0.208 0.165 0.525 RC
N
f577491941
f
GR
GS
[1 0 0 1 116.17681 196.13927] CT
0.569 0.745 0.447 RC
N
f577491941
f
GR
GS
[1 0 0 1 344.63629 54.66797] CT
0.008 0.384 0.878 RC
N
f577491941
f
GR
GS
[1 0 0 1 329.85812 44.1722] CT
0.008 0.384 0.878 RC
N
f577491941
f
GR
GS
[1 0 0 1 144.94107 251.73198] CT
0.984 0.804 0.176 RC
N
f577491941
f
GR
GS
[1 0 0 1 460.71313 138.94949] CT
0.02 0.651 0.776 RC
N
f577491941
f
GR
GS
[1 0 0 1 342.14377 254.99307] CT
0.208 0.165 0.525 RC
N
f577491941
f
GR
GS
[1 0 0 1 343.1394 254.80931] CT
0.208 0.165 0.525 RC
N
f577491941
f
GR
GS
[1 0 0 1 267.17328 261.73734] CT
0.208 0.165 0.525 RC
N
f577491941
f
GR
GS
[1 0 0 1 269.32635 199.90833] CT
0.984 0.804 0.176 RC
N
f577491941
f
GR
GS
[1 0 0 1 343.07843 255.18996] CT
0.208 0.165 0.525 RC
N
f577491941
f
GR
GS
[1 0 0 1 315.99905 39.53054] CT
0.008 0.384 0.878 RC
N
f577491941
f
GR
GS
[1 0 0 1 268.16183 287.71658] CT
0.208 0.165 0.525 RC
N
f577491941
f
GR
GS
[1 0 0 1 344.51465 254.42397] CT
0.208 0.165 0.525 RC
N
f577491941
f
GR
GS
[1 0 0 1 342.08191 255.37442] CT
0.208 0.165 0.525 RC
N
f577491941
f
GR
GS
[1 0 0 1 361.00934 255.13972] CT
0.208 0.165 0.525 RC
N
f577491941
f
GR
GS
[1 0 0 1 339.89557 254.86458] CT
0.208 0.165 0.525 RC
N
f577491941
f
GR
GS
[1 0 0 1 312.33273 22.51482] CT
0.008 0.384 0.878 RC
N
f577491941
f
GR
GS
[1 0 0 1 183.1991 114.77423] CT
0.216 0.722 0.616 RC
N
f577491941
f
GR
GS
[1 0 0 1 361.78741 255.77003] CT
0.208 0.165 0.525 RC
N
f577491941
f
GR
GS
[1 0 0 1 253.31274 267.39102] CT
0.208 0.165 0.525 RC
N
f577491941
f
GR
GS
[1 0 0 1 260.42871 275.32361] CT
0.208 0.165 0.525 RC
N
f577491941
f
GR
GS
[1 0 0 1 218.11647 176.96492] CT
0.984 0.804 0.176 RC
N
f577491941
f
GR
GS
[1 0 0 1 350.01666 52.21368] CT
0.008 0.384 0.878 RC
N
f577491941
f
GR
GS
[1 0 0 1 226.43565 257.47354] CT
0.208 0.165 0.525 RC
N
f577491941
f
GR
GS
[1 0 0 1 366.88837 172.21861] CT
0.973 0.98 0.051 RC
N
f577491941
f
GR
GS
[1 0 0 1 84.68696 237.14508] CT
0.569 0.745 0.447 RC
N
f577491941
f
GR
GS
[1 0 0 1 210.71498 261.86053] CT
0.984 0.804 0.176 RC
N
f577491941
f
GR
GS
[1 0 0 1 141.66055 98.56876] CT
0.216 0.722 0.616 RC
N
f577491941
f
GR
GS
[1 0 0 1 213.65953 272.16907] CT
0.208 0.165 0.525 RC
N
f577491941
f
GR
GS
[1 0 0 1 312.77213 244.15141] CT
0.984 0.804 0.176 RC
N
f577491941
f
GR
GS
[1 0 0 1 325.97427 22.97699] CT
0.008 0.384 0.878 RC
N
f577491941
f
GR
GS
[1 0 0 1 237.05164 260.98508] CT
0.208 0.165 0.525 RC
N
f577491941
f
GR
GS
[1 0 0 1 180.3224 259.27222] CT
0.984 0.804 0.176 RC
N
f577491941
f
GR
GS
[1 0 0 1 320.81964 26.44572] CT
0.008 0.384 0.878 RC
N
f577491941
f
GR
GS
[1 0 0 1 254.83228 214.34218] CT
0.984 0.804 0.176 RC
N
f577491941
f
GR
GS
[1 0 0 1 98.3524 224.89682] CT
0.569 0.745 0.447 RC
N
f577491941
f
GR
GS
[1 0 0 1 286.52524 108.88099] CT
0.216 0.722 0.616 RC
N
f577491941
f
GR
GS
[1 0 0 1 120.8876 206.72177] CT
0.569 0.745 0.447 RC
N
f577491941
f
GR
GS
[1 0 0 1 233.62061 256.4852] CT
0.208 0.165 0.525 RC
N
f577491941
f
GR
GS
[1 0 0 1 138.20363 196.09212] CT
0.569 0.745 0.447 RC
N
f577491941
f
GR
GS
[1 0 0 1 144.16635 111.51489] CT
0.216 0.722 0.616 RC
N
f577491941
f
GR
GS
[1 0 0 1 143.48747 100.81991] CT
0.216 0.722 0.616 RC
N
f577491941
f
GR
GS
[1 0 0 1 335.60693 152.72067] CT
0.973 0.98 0.051 RC
N
f577491941
f
GR
GS
[1 0 0 1 317.14639 22.46927] CT
0.008 0.384 0.878 RC
N
f577491941
f
GR
GS
[1 0 0 1 198.81216 111.54932] CT
0.216 0.722 0.616 RC
N
f577491941
f
GR
GS
[1 0 0 1 267.9516 117.80179] CT
0.216 0.722 0.616 RC
N
f577491941
f
GR
GS
[1 0 0 1 242.0029 283.12085] CT
0.208 0.165 0.525 RC
N
f577491941
f
GR
GS
[1 0 0 1 284.82605 154.49704] CT
0.216 0.722 0.616 RC
N
f577491941
f
GR
GS
[1 0 0 1 309.54187 29.67858] CT
0.008 0.384 0.878 RC
N
f577491941
f
GR
GS
[1 0 0 1 240.39093 185.32048] CT
0.984 0.804 0.176 RC
N
f577491941
f
GR
GS
[1 0 0 1 146.45549 101.74688] CT
0.216 0.722 0.616 RC
N
f577491941
f
GR
GS
[1 0 0 1 313.9855 221.83244] CT
0.208 0.165 0.525 RC
N
f577491941
f
GR
GS
[1 0 0 1 276.64871 177.29597] CT
0.984 0.804 0.176 RC
N
f577491941
f
GR
GS
[1 0 0 1 183.62451 263.52728] CT
0.208 0.165 0.525 RC
N
f577491941
f
GR
GS
[1 0 0 1 181.54988 204.66403] CT
0.984 0.804 0.176 RC
N
f577491941
f
GR
GS
[1 0 0 1 349.40103 151.53476] CT
0.973 0.98 0.051 RC
N
f577491941
f
GR
GS
[1 0 0 1 135.19633 90.95285] CT
0.216 0.722 0.616 RC
N
f577491941
f
GR
GS
[1 0 0 1 298.05438 108.12662] CT
0.216 0.722 0.616 RC
N
f577491941
f
GR
GS
[1 0 0 1 135.09059 209.19702] CT
0.569 0.745 0.447 RC
N
f577491941
f
GR
GS
[1 0 0 1 322.30276 32.91709] CT
0.008 0.384 0.878 RC
N
f577491941
f
GR
GS
[1 0 0 1 314.39145 30.72318] CT
0.008 0.384 0.878 RC
N
f577491941
f
GR
GS
[1 0 0 1 316.09085 20.31755] CT
0.008 0.384 0.878 RC
N
f577491941
f
GR
GS
[1 0 0 1 107.63793 145.25731] CT
0.078 0.518 0.827 RC
N
f577491941
f
GR
GS
[1 0 0 1 324.90262 42.63251] CT
0.008 0.384 0.878 RC
N
f577491941
f
GR
GS
[1 0 0 1 253.51997 259.96527] CT
0.208 0.165 0.525 RC
N
f577491941
f
GR
GS
[1 0 0 1 464.99744 137.49017] CT
0.02 0.651 0.776 RC
N
f577491941
f
GR
GS
[1 0 0 1 144.90334 252.70436] CT
0.984 0.804 0.176 RC
N
f577491941
f
GR
GS
[1 0 0 1 88.46864 184.10429] CT
0.569 0.745 0.447 RC
N
f577491941
f
GR
GS
[1 0 0 1 255.98616 201.52769] CT
0.984 0.804 0.176 RC
N
f577491941
f
GR
GS
[1 0 0 1 242.65996 198.26932] CT
0.984 0.804 0.176 RC
N
f577491941
f
GR
GS
[1 0 0 1 259.25958 269.48663] CT
0.208 0.165 0.525 RC
N
f577491941
f
GR
GS
[1 0 0 1 166.65109 196.52786] CT
0.569 0.745 0.447 RC
N
f577491941
f
GR
GS
[1 0 0 1 273.06039 281.50177] CT
0.208 0.165 0.525 RC
N
f577491941
f
GR
GS
[1 0 0 1 322.58969 33.37634] CT
0.008 0.384 0.878 RC
N
f577491941
f
GR
GS
[1 0 0 1 278.63928 123.30092] CT
0.216 0.722 0.616 RC
N
f577491941
f
GR
GS
[1 0 0 1 123.07886 197.9912] CT
0.569 0.745 0.447 RC
N
f577491941
f
GR
GS
[1 0 0 1 352.51501 253.84645] CT
0.208 0.165 0.525 RC
N
f577491941
f
GR
GS
[1 0 0 1 155.94006 263.77808] CT
0.984 0.804 0.176 RC
N
f577491941
f
GR
GS
[1 0 0 1 347.39917 58.61541] CT
0.008 0.384 0.878 RC
N
f577491941
f
GR
GS
[1 0 0 1 177.24319 193.85201] CT
0.569 0.745 0.447 RC
N
f577491941
f
GR
GS
[1 0 0 1 77.58818 214.11665] CT
0.569 0.745 0.447 RC
N
f577491941
f
GR
GS
[1 0 0 1 243.56999 284.55847] CT
0.208 0.165 0.525 RC
N
f577491941
f
GR
GS
[1 0 0 1 158.47044 259.07095] CT
0.984 0.804 0.176 RC
N
f577491941
f
GR
GS
[1 0 0 1 115.79868 183.76727] CT
0.569 0.745 0.447 RC
N
f577491941
f
GR
GS
[1 0 0 1 454.49759 184.12195] CT
0.847 0.729 0.333 RC
N
f577491941
f
GR
GS
[1 0 0 1 296.42221 291.48172] CT
0.208 0.165 0.525 RC
N
f577491941
f
GR
GS
[1 0 0 1 461.38757 139.93336] CT
0.02 0.651 0.776 RC
N
f577491941
f
GR
GS
[1 0 0 1 42.63781 126.09224] CT
0.078 0.518 0.827 RC
N
f577491941
f
GR
GS
[1 0 0 1 108.49027 183.45453] CT
0.569 0.745 0.447 RC
N
f577491941
f
GR
GS
[1 0 0 1 73.01727 140.7292] CT
0.078 0.518 0.827 RC
N
f577491941
f
GR
GS
[1 0 0 1 246.59528 286.69672] CT
0.208 0.165 0.525 RC
N
f577491941
f
GR
GS
[1 0 0 1 317.27191 20.73555] CT
0.008 0.384 0.878 RC
N
f577491941
f
GR
GS
[1 0 0 1 213.39078 280.88422] CT
0.208 0.165 0.525 RC
N
f577491941
f
GR
GS
[1 0 0 1 141.71872 200.22693] CT
0.569 0.745 0.447 RC
N
f577491941
f
GR
GS
[1 0 0 1 274.41803 152.42561] CT
0.216 0.722 0.616 RC
N
f577491941
f
GR
GS
[1 0 0 1 270.78519 294.71103] CT
0.208 0.165 0.525 RC
N
f577491941
f
GR
GS
[1 0 0 1 276.93301 103.59916] CT
0.216 0.722 0.616 RC
N
f577491941
f
GR
GS
[1 0 0 1 266.00339 102.23894] CT
0.216 0.722 0.616 RC
N
f577491941
f
GR
GS
[1 0 0 1 345.67453 185.90984] CT
0.984 0.804 0.176 RC
N
f577491941
f
GR
GS
[1 0 0 1 141.29974 100.5146] CT
0.216 0.722 0.616 RC
N
f577491941
f
GR
GS
[1 0 0 1 351.62622 162.33702] CT
0.973 0.98 0.051 RC
N
f577491941
f
GR
GS
[1 0 0 1 279.68329 156.44638] CT
0.216 0.722 0.616 RC
N
f577491941
f
GR
GS
[1 0 0 1 65.0426 196.49062] CT
0.569 0.745 0.447 RC
N
f577491941
f
GR
GS
[1 0 0 1 241.87596 275.26038] CT
0.208 0.165 0.525 RC
N
f577491941
f
GR
GS
[1 0 0 1 296.65906 117.64165] CT
0.216 0.722 0.616 RC
N
f577491941
f
GR
GS
[1 0 0 1 265.70795 155.52319] CT
0.973 0.98 0.051 RC
N
f577491941
f
GR
GS
[1 0 0 1 350.91028 163.129] CT
0.973 0.98 0.051 RC
N
f577491941
f
GR
GS
[1 0 0 1 220.78728 126.09622] CT
0.216 0.722 0.616 RC
N
f577491941
f
GR
GS
[1 0 0 1 293.35654 271.52484] CT
0.208 0.165 0.525 RC
N
f577491941
f
GR
GS
[1 0 0 1 231.71469 286.64523] CT
0.208 0.165 0.525 RC
N
f577491941
f
GR
GS
[1 0 0 1 463.0556 139.59529] CT
0.02 0.651 0.776 RC
N
f577491941
f
GR
GS
[1 0 0 1 361.62839 40.5684] CT
0.008 0.384 0.878 RC
N
f577491941
f
GR
GS
[1 0 0 1 266.02069 257.63745] CT
0.984 0.804 0.176 RC
N
f577491941
f
GR
GS
[1 0 0 1 126.26749 198.05513] CT
0.569 0.745 0.447 RC
N
f577491941
f
GR
GS
[1 0 0 1 168.3938 116.41908] CT
0.216 0.722 0.616 RC
N
f577491941
f
GR
GS
[1 0 0 1 261.08838 113.03157] CT
0.216 0.722 0.616 RC
N
f577491941
f
GR
GS
[1 0 0 1 461.63541 186.95778] CT
0.847 0.729 0.333 RC
N
f577491941
f
GR
GS
[1 0 0 1 211.12833 139.96193] CT
0.216 0.722 0.616 RC
N
f577491941
f
GR
GS
[1 0 0 1 461.85654 141.44315] CT
0.02 0.651 0.776 RC
N
f577491941
f
GR
GS
[1 0 0 1 347.45319 255.85258] CT
0.208 0.165 0.525 RC
N
f577491941
f
GR
GS
[1 0 0 1 255.89949 251.68887] CT
0.208 0.165 0.525 RC
N
f577491941
f
GR
GS
[1 0 0 1 255.94141 235.19511] CT
0.208 0.165 0.525 RC
N
f577491941
f
GR
GS
[1 0 0 1 335.11649 45.67754] CT
0.008 0.384 0.878 RC
N
f577491941
f
GR
GS
[1 0 0 1 256.25726 146.30072] CT
0.216 0.722 0.616 RC
N
f577491941
f
GR
GS
[1 0 0 1 187.23659 193.04356] CT
0.984 0.804 0.176 RC
N
f577491941
f
GR
GS
[1 0 0 1 126.82598 196.90012] CT
0.569 0.745 0.447 RC
N
f577491941
f
GR
GS
[1 0 0 1 229.69264 278.4324] CT
0.208 0.165 0.525 RC
N
f577491941
f
GR
GS
[1 0 0 1 241.47563 185.6441] CT
0.984 0.804 0.176 RC
N
f577491941
f
GR
GS
[1 0 0 1 303.8775 177.23778] CT
0.973 0.98 0.051 RC
N
f577491941
f
GR
GS
[1 0 0 1 298.42081 240.88206] CT
0.984 0.804 0.176 RC
N
f577491941
f
GR
GS
[1 0 0 1 67.7951 152.75015] CT
0.078 0.518 0.827 RC
N
f577491941
f
GR
GS
[1 0 0 1 289.66299 62.20298] CT
0.008 0.384 0.878 RC
N
f577491941
f
GR
GS
[1 0 0 1 304.10333 25.88811] CT
0.008 0.384 0.878 RC
N
f577491941
f
GR
GS
[1 0 0 1 245.64134 238.88838] CT
0.984 0.804 0.176 RC
N
f577491941
f
GR
GS
[1 0 0 1 273.67081 158.96831] CT
0.216 0.722 0.616 RC
N
f577491941
f
GR
GS
[1 0 0 1 278.48004 261.03909] CT
0.208 0.165 0.525 RC
N
f577491941
f
GR
GS
[1 0 0 1 332.86386 36.2744] CT
0.008 0.384 0.878 RC
N
f577491941
f
GR
GS
[1 0 0 1 243.69615 248.05357] CT
0.984 0.804 0.176 RC
N
f577491941
f
GR
GS
[1 0 0 1 289.39804 62.2693] CT
0.008 0.384 0.878 RC
N
f577491941
f
GR
GS
[1 0 0 1 140.87436 98.06818] CT
0.216 0.722 0.616 RC
N
f577491941
f
GR
GS
[1 0 0 1 206.29964 176.2674] CT
0.216 0.722 0.616 RC
N
f577491941
f
GR
GS
[1 0 0 1 458.94122 188.48647] CT
0.847 0.729 0.333 RC
N
f577491941
f
GR
GS
[1 0 0 1 199.64093 256.97116] CT
0.984 0.804 0.176 RC
N
f577491941
f
GR
GS
[1 0 0 1 102.02288 180.68716] CT
0.569 0.745 0.447 RC
N
f577491941
f
GR
GS
[1 0 0 1 336.85165 29.6693] CT
0.008 0.384 0.878 RC
N
f577491941
f
GR
GS
[1 0 0 1 459.09082 136.59142] CT
0.02 0.651 0.776 RC
N
f577491941
f
GR
GS
[1 0 0 1 269.53091 242.65604] CT
0.984 0.804 0.176 RC
N
f577491941
f
GR
GS
[1 0 0 1 451.63412 184.04245] CT
0.847 0.729 0.333 RC
N
f577491941
f
GR
GS
[1 0 0 1 218.22507 99.48695] CT
0.216 0.722 0.616 RC
N
f577491941
f
GR
GS
[1 0 0 1 260.98398 277.46634] CT
0.208 0.165 0.525 RC
N
f577491941
f
GR
GS
[1 0 0 1 247.60287 112.28219] CT
0.216 0.722 0.616 RC
N
f577491941
f
GR
GS
[1 0 0 1 359.04782 34.78494] CT
0.008 0.384 0.878 RC
N
f577491941
f
GR
GS
[1 0 0 1 232.8149 238.61858] CT
0.208 0.165 0.525 RC
N
f577491941
f
GR
GS
[1 0 0 1 255.03801 214.8264] CT
0.984 0.804 0.176 RC
N
f577491941
f
GR
GS
[1 0 0 1 120.13341 208.98943] CT
0.569 0.745 0.447 RC
N
f577491941
f
GR
GS
[1 0 0 1 296.37662 111.03] CT
0.216 0.722 0.616 RC
N
f577491941
f
GR
GS
[1 0 0 1 194.94595 106.11543] CT
0.216 0.722 0.616 RC
N
f577491941
f
GR
GS
[1 0 0 1 245.26604 248.69226] CT
0.208 0.165 0.525 RC
N
f577491941
f
GR
GS
[1 0 0 1 459.28931 185.27914] CT
0.847 0.729 0.333 RC
N
f577491941
f
GR
GS
[1 0 0 1 136.88297 148.86858] CT
0.569 0.745 0.447 RC
N
f577491941
f
GR
GS
[1 0 0 1 219.74712 148.9314] CT
0.216 0.722 0.616 RC
N
f577491941
f
GR
GS
[1 0 0 1 244.2341 188.41216] CT
0.984 0.804 0.176 RC
N
f577491941
f
GR
GS
[1 0 0 1 253.93092 284.66153] CT
0.208 0.165 0.525 RC
N
f577491941
f
GR
GS
[1 0 0 1 158.34174 184.02032] CT
0.569 0.745 0.447 RC
N
f577491941
f
GR
GS
[1 0 0 1 106.89043 190.91539] CT
0.569 0.745 0.447 RC
N
f577491941
f
GR
GS
[1 0 0 1 357.94913 39.38955] CT
0.008 0.384 0.878 RC
N
f577491941
f
GR
GS
[1 0 0 1 169.98657 119.5367] CT
0.216 0.722 0.616 RC
N
f577491941
f
GR
GS
[1 0 0 1 107.75791 182.33252] CT
0.569 0.745 0.447 RC
N
f577491941
f
GR
GS
[1 0 0 1 276.73615 289.86182] CT
0.208 0.165 0.525 RC
N
f577491941
f
GR
GS
[1 0 0 1 275.51001 214.88985] CT
0.984 0.804 0.176 RC
N
f577491941
f
GR
GS
[1 0 0 1 272.28427 105.3968] CT
0.216 0.722 0.616 RC
N
f577491941
f
GR
GS
[1 0 0 1 50.94416 126.67025] CT
0.078 0.518 0.827 RC
N
f577491941
f
GR
GS
[1 0 0 1 246.99503 256.88959] CT
0.208 0.165 0.525 RC
N
f577491941
f
GR
GS
[1 0 0 1 366.43799 47.10085] CT
0.008 0.384 0.878 RC
N
f577491941
f
GR
GS
[1 0 0 1 307.36575 105.5467] CT
0.216 0.722 0.616 RC
N
f577491941
f
GR
GS
[1 0 0 1 269.95291 276.57114] CT
0.208 0.165 0.525 RC
N
f577491941
f
GR
GS
[1 0 0 1 339.06735 269.29767] CT
0.208 0.165 0.525 RC
N
f577491941
f
GR
GS
[1 0 0 1 306.24826 105.61909] CT
0.216 0.722 0.616 RC
N
f577491941
f
GR
GS
[1 0 0 1 462.72421 139.42805] CT
0.02 0.651 0.776 RC
N
f577491941
f
GR
GS
[1 0 0 1 241.16241 223.15775] CT
0.984 0.804 0.176 RC
N
f577491941
f
GR
GS
[1 0 0 1 111.39809 216.57825] CT
0.569 0.745 0.447 RC
N
f577491941
f
GR
GS
[1 0 0 1 302.88934 163.69928] CT
0.973 0.98 0.051 RC
N
f577491941
f
GR
GS
[1 0 0 1 459.20407 135.73454] CT
0.02 0.651 0.776 RC
N
f577491941
f
GR
GS
[1 0 0 1 280.03363 226.58931] CT
0.208 0.165 0.525 RC
N
f577491941
f
GR
GS
[1 0 0 1 230.51912 289.39478] CT
0.208 0.165 0.525 RC
N
f577491941
f
GR
GS
[1 0 0 1 453.32385 185.10388] CT
0.847 0.729 0.333 RC
N
f577491941
f
GR
GS
[1 0 0 1 206.80229 156.44298] CT
0.216 0.722 0.616 RC
N
f577491941
f
GR
GS
[1 0 0 1 281.01086 162.31781] CT
0.984 0.804 0.176 RC
N
f577491941
f
GR
GS
[1 0 0 1 199.60226 157.65207] CT
0.984 0.804 0.176 RC
N
f577491941
f
GR
GS
[1 0 0 1 230.16678 124.52563] CT
0.216 0.722 0.616 RC
N
f577491941
f
GR
GS
[1 0 0 1 465.54626 134.98831] CT
0.02 0.651 0.776 RC
N
f577491941
f
GR
GS
[1 0 0 1 271.93048 109.3468] CT
0.216 0.722 0.616 RC
N
f577491941
f
GR
GS
[1 0 0 1 264.8093 284.82675] CT
0.208 0.165 0.525 RC
N
f577491941
f
GR
GS
[1 0 0 1 347.87308 66.95294] CT
0.008 0.384 0.878 RC
N
f577491941
f
GR
GS
[1 0 0 1 206.03078 105.01163] CT
0.216 0.722 0.616 RC
N
f577491941
f
GR
GS
[1 0 0 1 233.71457 242.68152] CT
0.984 0.804 0.176 RC
N
f577491941
f
GR
GS
[1 0 0 1 208.44984 107.29285] CT
0.216 0.722 0.616 RC
N
f577491941
f
GR
GS
[1 0 0 1 271.88666 158.82201] CT
0.569 0.745 0.447 RC
N
f577491941
f
GR
GS
[1 0 0 1 369.49686 171.28717] CT
0.973 0.98 0.051 RC
N
f577491941
f
GR
GS
[1 0 0 1 161.36978 127.76968] CT
0.216 0.722 0.616 RC
N
f577491941
f
GR
GS
[1 0 0 1 222.98723 190.78836] CT
0.984 0.804 0.176 RC
N
f577491941
f
GR
GS
[1 0 0 1 220.42723 193.67506] CT
0.984 0.804 0.176 RC
N
f577491941
f
GR
GS
[1 0 0 1 185.50294 103.1729] CT
0.216 0.722 0.616 RC
N
f577491941
f
GR
GS
[1 0 0 1 304.97311 31.78775] CT
0.008 0.384 0.878 RC
N
f577491941
f
GR
GS
[1 0 0 1 7.33897 239.30173] CT
0.569 0.745 0.447 RC
N
f577491941
f
GR
GS
[1 0 0 1 220.30711 263.79538] CT
0.208 0.165 0.525 RC
N
f577491941
f
GR
GS
[1 0 0 1 189.8448 231.67497] CT
0.984 0.804 0.176 RC
N
f577491941
f
GR
GS
[1 0 0 1 462.69778 185.46198] CT
0.847 0.729 0.333 RC
N
f577491941
f
GR
GS
[1 0 0 1 78.95036 127.18349] CT
0.078 0.518 0.827 RC
N
f577491941
f
GR
GS
[1 0 0 1 186.55878 108.95817] CT
0.216 0.722 0.616 RC
N
f577491941
f
GR
GS
[1 0 0 1 180.57512 110.1249] CT
0.216 0.722 0.616 RC
N
f577491941
f
GR
GS
[1 0 0 1 312.89951 21.82052] CT
0.008 0.384 0.878 RC
N
f577491941
f
GR
GS
[1 0 0 1 251.69246 272.93359] CT
0.208 0.165 0.525 RC
N
f577491941
f
GR
GS
[1 0 0 1 308.44131 105.50562] CT
0.216 0.722 0.616 RC
N
f577491941
f
GR
GS
[1 0 0 1 459.87405 184.35048] CT
0.847 0.729 0.333 RC
N
f577491941
f
GR
GS
[1 0 0 1 295.53958 109.66375] CT
0.216 0.722 0.616 RC
N
f577491941
f
GR
GS
[1 0 0 1 297.79889 109.39841] CT
0.216 0.722 0.616 RC
N
f577491941
f
GR
GS
[1 0 0 1 253.61243 290.58771] CT
0.208 0.165 0.525 RC
N
f577491941
f
GR
GS
[1 0 0 1 228.85071 142.8461] CT
0.216 0.722 0.616 RC
N
f577491941
f
GR
GS
[1 0 0 1 121.54134 198.60329] CT
0.569 0.745 0.447 RC
N
f577491941
f
GR
GS
[1 0 0 1 289.01538 106.54279] CT
0.216 0.722 0.616 RC
N
f577491941
f
GR
GS
[1 0 0 1 316.06802 281.5918] CT
0.208 0.165 0.525 RC
N
f577491941
f
GR
GS
[1 0 0 1 218.76553 147.50461] CT
0.216 0.722 0.616 RC
N
f577491941
f
GR
GS
[1 0 0 1 184.54454 186.2634] CT
0.569 0.745 0.447 RC
N
f577491941
f
GR
GS
[1 0 0 1 98.47195 198.29413] CT
0.569 0.745 0.447 RC
N
f577491941
f
GR
GS
[1 0 0 1 255.30504 296.56369] CT
0.208 0.165 0.525 RC
N
f577491941
f
GR
GS
[1 0 0 1 148.63307 247.34464] CT
0.984 0.804 0.176 RC
N
f577491941
f
GR
GS
[1 0 0 1 345.84842 156.81511] CT
0.973 0.98 0.051 RC
N
f577491941
f
GR
GS
[1 0 0 1 169.89276 157.19321] CT
0.216 0.722 0.616 RC
N
f577491941
f
GR
GS
[1 0 0 1 156.36047 180.51048] CT
0.569 0.745 0.447 RC
N
f577491941
f
GR
GS
[1 0 0 1 293.34903 286.13254] CT
0.208 0.165 0.525 RC
N
f577491941
f
GR
GS
[1 0 0 1 364.60239 130.91908] CT
0.973 0.98 0.051 RC
N
f577491941
f
GR
GS
[1 0 0 1 201.58815 293.5506] CT
0.208 0.165 0.525 RC
N
f577491941
f
GR
GS
[1 0 0 1 141.40321 99.15223] CT
0.216 0.722 0.616 RC
N
f577491941
f
GR
GS
[1 0 0 1 301.47513 200.21521] CT
0.569 0.745 0.447 RC
N
f577491941
f
GR
GS
[1 0 0 1 354.85226 53.69714] CT
0.008 0.384 0.878 RC
N
f577491941
f
GR
GS
[1 0 0 1 315.97021 266.73828] CT
0.208 0.165 0.525 RC
N
f577491941
f
GR
GS
[1 0 0 1 312.76514 291.29623] CT
0.208 0.165 0.525 RC
N
f577491941
f
GR
GS
[1 0 0 1 320.80481 247.06148] CT
0.208 0.165 0.525 RC
N
f577491941
f
GR
GS
[1 0 0 1 306.01453 26.64957] CT
0.008 0.384 0.878 RC
N
f577491941
f
GR
GS
[1 0 0 1 349.85767 64.7713] CT
0.008 0.384 0.878 RC
N
f577491941
f
GR
GS
[1 0 0 1 368.96173 171.00504] CT
0.973 0.98 0.051 RC
N
f577491941
f
GR
GS
[1 0 0 1 463.41251 134.20853] CT
0.02 0.651 0.776 RC
N
f577491941
f
GR
GS
[1 0 0 1 203.7545 95.85523] CT
0.216 0.722 0.616 RC
N
f577491941
f
GR
GS
[1 0 0 1 61.14446 133.59761] CT
0.078 0.518 0.827 RC
N
f577491941
f
GR
GS
[1 0 0 1 62.74223 114.50654] CT
0.078 0.518 0.827 RC
N
f577491941
f
GR
GS
[1 0 0 1 135.63933 244.92497] CT
0.984 0.804 0.176 RC
N
f577491941
f
GR
GS
[1 0 0 1 345.94257 52.02469] CT
0.008 0.384 0.878 RC
N
f577491941
f
GR
GS
[1 0 0 1 121.91135 203.22809] CT
0.569 0.745 0.447 RC
N
f577491941
f
GR
GS
[1 0 0 1 50.50127 131.72679] CT
0.078 0.518 0.827 RC
N
f577491941
f
GR
GS
[1 0 0 1 268.87289 317.10175] CT
0.208 0.165 0.525 RC
N
f577491941
f
GR
GS
[1 0 0 1 162.46768 156.27126] CT
0.569 0.745 0.447 RC
N
f577491941
f
GR
GS
[1 0 0 1 202.94379 188.9624] CT
0.569 0.745 0.447 RC
N
f577491941
f
GR
GS
[1 0 0 1 292.2045 31.91101] CT
0.008 0.384 0.878 RC
N
f577491941
f
GR
GS
[1 0 0 1 327.17679 24.85537] CT
0.008 0.384 0.878 RC
N
f577491941
f
GR
GS
[1 0 0 1 251.94321 86.70504] CT
0.216 0.722 0.616 RC
N
f577491941
f
GR
GS
[1 0 0 1 267.5174 307.45117] CT
0.208 0.165 0.525 RC
N
f577491941
f
GR
GS
[1 0 0 1 55.99456 124.17831] CT
0.078 0.518 0.827 RC
N
f577491941
f
GR
GS
[1 0 0 1 205.37973 176.24408] CT
0.984 0.804 0.176 RC
N
f577491941
f
GR
GS
[1 0 0 1 325.00427 245.24387] CT
0.208 0.165 0.525 RC
N
f577491941
f
GR
GS
[1 0 0 1 181.94627 285.396] CT
0.208 0.165 0.525 RC
N
f577491941
f
GR
GS
[1 0 0 1 244.12061 265.6619] CT
0.208 0.165 0.525 RC
N
f577491941
f
GR
GS
[1 0 0 1 230.0515 306.90482] CT
0.208 0.165 0.525 RC
N
f577491941
f
GR
GS
[1 0 0 1 280.66412 289.52542] CT
0.208 0.165 0.525 RC
N
f577491941
f
GR
GS
[1 0 0 1 158.61223 269.51971] CT
0.208 0.165 0.525 RC
N
f577491941
f
GR
GS
[1 0 0 1 301.30475 282.12161] CT
0.208 0.165 0.525 RC
N
f577491941
f
GR
GS
[1 0 0 1 463.05795 183.62842] CT
0.847 0.729 0.333 RC
N
f577491941
f
GR
GS
[1 0 0 1 240.35127 276.47876] CT
0.208 0.165 0.525 RC
N
f577491941
f
GR
GS
[1 0 0 1 164.71989 153.86784] CT
0.216 0.722 0.616 RC
N
f577491941
f
GR
GS
[1 0 0 1 253.93221 296.99008] CT
0.208 0.165 0.525 RC
N
f577491941
f
GR
GS
[1 0 0 1 143.52075 258.07953] CT
0.984 0.804 0.176 RC
N
f577491941
f
GR
GS
[1 0 0 1 62.90742 141.07257] CT
0.078 0.518 0.827 RC
N
f577491941
f
GR
GS
[1 0 0 1 334.09589 157.58826] CT
0.973 0.98 0.051 RC
N
f577491941
f
GR
GS
[1 0 0 1 256.76428 135.51485] CT
0.216 0.722 0.616 RC
N
f577491941
f
GR
GS
[1 0 0 1 369.28799 172.49097] CT
0.973 0.98 0.051 RC
N
f577491941
f
GR
GS
[1 0 0 1 247.36855 300.1088] CT
0.208 0.165 0.525 RC
N
f577491941
f
GR
GS
[1 0 0 1 256.69568 313.81284] CT
0.208 0.165 0.525 RC
N
f577491941
f
GR
GS
[1 0 0 1 348.2326 56.21497] CT
0.008 0.384 0.878 RC
N
f577491941
f
GR
GS
[1 0 0 1 173.80843 108.19158] CT
0.216 0.722 0.616 RC
N
f577491941
f
GR
GS
[1 0 0 1 346.54251 57.98389] CT
0.008 0.384 0.878 RC
N
f577491941
f
GR
GS
[1 0 0 1 348.93723 63.75133] CT
0.008 0.384 0.878 RC
N
f577491941
f
GR
GS
[1 0 0 1 98.51918 196.17746] CT
0.569 0.745 0.447 RC
N
f577491941
f
GR
GS
[1 0 0 1 192.91844 139.46729] CT
0.216 0.722 0.616 RC
N
f577491941
f
GR
GS
[1 0 0 1 260.68433 302.08682] CT
0.208 0.165 0.525 RC
N
f577491941
f
GR
GS
[1 0 0 1 201.48427 100.44576] CT
0.216 0.722 0.616 RC
N
f577491941
f
GR
GS
[1 0 0 1 69.98624 114.1747] CT
0.078 0.518 0.827 RC
N
f577491941
f
GR
GS
[1 0 0 1 279.28375 315.67667] CT
0.208 0.165 0.525 RC
N
f577491941
f
GR
GS
[1 0 0 1 207.64885 264.56833] CT
0.208 0.165 0.525 RC
N
f577491941
f
GR
GS
[1 0 0 1 359.3924 138.75244] CT
0.973 0.98 0.051 RC
N
f577491941
f
GR
GS
[1 0 0 1 277.60245 270.55075] CT
0.208 0.165 0.525 RC
N
f577491941
f
GR
GS
[1 0 0 1 229.12991 141.12018] CT
0.216 0.722 0.616 RC
N
f577491941
f
GR
GS
[1 0 0 1 347.16351 67.53225] CT
0.008 0.384 0.878 RC
N
f577491941
f
GR
GS
[1 0 0 1 183.77711 107.96706] CT
0.216 0.722 0.616 RC
N
f577491941
f
GR
GS
[1 0 0 1 308.08395 294.46078] CT
0.208 0.165 0.525 RC
N
f577491941
f
GR
GS
[1 0 0 1 201.97318 118.34023] CT
0.216 0.722 0.616 RC
N
f577491941
f
GR
GS
[1 0 0 1 55.18239 123.32432] CT
0.078 0.518 0.827 RC
N
f577491941
f
GR
GS
[1 0 0 1 48.84108 130.37169] CT
0.078 0.518 0.827 RC
N
f577491941
f
GR
GS
[1 0 0 1 335.18494 47.8505] CT
0.008 0.384 0.878 RC
N
f577491941
f
GR
GS
[1 0 0 1 222.95087 215.28612] CT
0.984 0.804 0.176 RC
N
f577491941
f
GR
GS
[1 0 0 1 67.78493 188.46262] CT
0.569 0.745 0.447 RC
N
f577491941
f
GR
GS
[1 0 0 1 208.15942 102.9296] CT
0.216 0.722 0.616 RC
N
f577491941
f
GR
GS
[1 0 0 1 311.33841 268.61856] CT
0.208 0.165 0.525 RC
N
f577491941
f
GR
GS
[1 0 0 1 337.90891 33.48767] CT
0.008 0.384 0.878 RC
N
f577491941
f
GR
GS
[1 0 0 1 256.76477 304.828] CT
0.208 0.165 0.525 RC
N
f577491941
f
GR
GS
[1 0 0 1 289.78302 262.24692] CT
0.208 0.165 0.525 RC
N
f577491941
f
GR
GS
[1 0 0 1 272.59616 295.8815] CT
0.208 0.165 0.525 RC
N
f577491941
f
GR
GS
[1 0 0 1 260.04193 242.45679] CT
0.208 0.165 0.525 RC
N
f577491941
f
GR
GS
[1 0 0 1 193.45523 270.60175] CT
0.208 0.165 0.525 RC
N
f577491941
f
GR
GS
[1 0 0 1 221.17209 295.17719] CT
0.208 0.165 0.525 RC
N
f577491941
f
GR
GS
[1 0 0 1 279.48541 217.54959] CT
0.984 0.804 0.176 RC
N
f577491941
f
GR
GS
[1 0 0 1 308.78125 106.33087] CT
0.216 0.722 0.616 RC
N
f577491941
f
GR
GS
[1 0 0 1 261.01541 107.66068] CT
0.216 0.722 0.616 RC
N
f577491941
f
GR
GS
[1 0 0 1 273.72769 287.98746] CT
0.208 0.165 0.525 RC
N
f577491941
f
GR
GS
[1 0 0 1 307.14069 303.65756] CT
0.208 0.165 0.525 RC
N
f577491941
f
GR
GS
[1 0 0 1 310.66364 24.77929] CT
0.008 0.384 0.878 RC
N
f577491941
f
GR
GS
[1 0 0 1 278.51849 105.79571] CT
0.216 0.722 0.616 RC
N
f577491941
f
GR
GS
[1 0 0 1 183.65443 287.21808] CT
0.208 0.165 0.525 RC
N
f577491941
f
GR
GS
[1 0 0 1 142.51923 91.20991] CT
0.216 0.722 0.616 RC
N
f577491941
f
GR
GS
[1 0 0 1 463.38733 186.8786] CT
0.847 0.729 0.333 RC
N
f577491941
f
GR
GS
[1 0 0 1 353.03928 60.115] CT
0.008 0.384 0.878 RC
N
f577491941
f
GR
GS
[1 0 0 1 291.19482 106.93187] CT
0.216 0.722 0.616 RC
N
f577491941
f
GR
GS
[1 0 0 1 131.11877 238.09955] CT
0.569 0.745 0.447 RC
N
f577491941
f
GR
GS
[1 0 0 1 351.74164 45.63307] CT
0.008 0.384 0.878 RC
N
f577491941
f
GR
GS
[1 0 0 1 106.15504 189.76767] CT
0.569 0.745 0.447 RC
N
f577491941
f
GR
GS
[1 0 0 1 204.00508 109.01231] CT
0.216 0.722 0.616 RC
N
f577491941
f
GR
GS
[1 0 0 1 373.96463 173.25369] CT
0.973 0.98 0.051 RC
N
f577491941
f
GR
GS
[1 0 0 1 90.99261 113.62379] CT
0.078 0.518 0.827 RC
N
f577491941
f
GR
GS
[1 0 0 1 124.29467 210.94695] CT
0.569 0.745 0.447 RC
N
f577491941
f
GR
GS
[1 0 0 1 107.79456 202.28191] CT
0.569 0.745 0.447 RC
N
f577491941
f
GR
GS
[1 0 0 1 282.81537 62.43747] CT
0.008 0.384 0.878 RC
N
f577491941
f
GR
GS
[1 0 0 1 80.9893 121.27665] CT
0.078 0.518 0.827 RC
N
f577491941
f
GR
GS
[1 0 0 1 238.81473 287.84656] CT
0.208 0.165 0.525 RC
N
f577491941
f
GR
GS
[1 0 0 1 462.86563 189.6264] CT
0.847 0.729 0.333 RC
N
f577491941
f
GR
GS
[1 0 0 1 193.15077 301.91238] CT
0.208 0.165 0.525 RC
N
f577491941
f
GR
GS
[1 0 0 1 301.15274 19.22676] CT
0.008 0.384 0.878 RC
N
f577491941
f
GR
GS
[1 0 0 1 64.56444 123.33469] CT
0.078 0.518 0.827 RC
N
f577491941
f
GR
GS
[1 0 0 1 127.88818 208.90355] CT
0.569 0.745 0.447 RC
N
f577491941
f
GR
GS
[1 0 0 1 90.98276 205.63126] CT
0.569 0.745 0.447 RC
N
f577491941
f
GR
GS
[1 0 0 1 275.34344 286.49643] CT
0.208 0.165 0.525 RC
N
f577491941
f
GR
GS
[1 0 0 1 261.13092 323.35419] CT
0.208 0.165 0.525 RC
N
f577491941
f
GR
GS
[1 0 0 1 157.31764 183.40094] CT
0.569 0.745 0.447 RC
N
f577491941
f
GR
GS
[1 0 0 1 78.97065 159.58545] CT
0.569 0.745 0.447 RC
N
f577491941
f
GR
GS
[1 0 0 1 117.26192 148.0806] CT
0.569 0.745 0.447 RC
N
f577491941
f
GR
GS
[1 0 0 1 139.98268 224.6528] CT
0.208 0.165 0.525 RC
N
f577491941
f
GR
GS
[1 0 0 1 322.69916 251.67569] CT
0.208 0.165 0.525 RC
N
f577491941
f
GR
GS
[1 0 0 1 90.96246 231.11099] CT
0.569 0.745 0.447 RC
N
f577491941
f
GR
GS
[1 0 0 1 261.8403 228.43172] CT
0.208 0.165 0.525 RC
N
f577491941
f
GR
GS
[1 0 0 1 347.86685 32.49394] CT
0.008 0.384 0.878 RC
N
f577491941
f
GR
GS
[1 0 0 1 218.51613 302.36688] CT
0.208 0.165 0.525 RC
N
f577491941
f
GR
GS
[1 0 0 1 280.08157 215.867] CT
0.208 0.165 0.525 RC
N
f577491941
f
GR
GS
[1 0 0 1 89.10619 111.79134] CT
0.216 0.722 0.616 RC
N
f577491941
f
GR
GS
[1 0 0 1 191.81799 290.22888] CT
0.208 0.165 0.525 RC
N
f577491941
f
GR
GS
[1 0 0 1 108.10722 184.15443] CT
0.569 0.745 0.447 RC
N
f577491941
f
GR
GS
[1 0 0 1 255.9276 253.66559] CT
0.208 0.165 0.525 RC
N
f577491941
f
GR
GS
[1 0 0 1 304.22156 26.09832] CT
0.008 0.384 0.878 RC
N
f577491941
f
GR
GS
[1 0 0 1 169.31693 113.31573] CT
0.216 0.722 0.616 RC
N
f577491941
f
GR
GS
[1 0 0 1 52.41489 122.05274] CT
0.078 0.518 0.827 RC
N
f577491941
f
GR
GS
[1 0 0 1 48.1025 128.59879] CT
0.078 0.518 0.827 RC
N
f577491941
f
GR
GS
[1 0 0 1 117.69772 189.69092] CT
0.569 0.745 0.447 RC
N
f577491941
f
GR
GS
[1 0 0 1 329.72397 156.19849] CT
0.984 0.804 0.176 RC
N
f577491941
f
GR
GS
[1 0 0 1 140.49547 256.0112] CT
0.984 0.804 0.176 RC
N
f577491941
f
GR
GS
[1 0 0 1 379.86835 151.66458] CT
0.973 0.98 0.051 RC
N
f577491941
f
GR
GS
[1 0 0 1 246.3038 289.43362] CT
0.208 0.165 0.525 RC
N
f577491941
f
GR
GS
[1 0 0 1 145.83925 91.1482] CT
0.216 0.722 0.616 RC
N
f577491941
f
GR
GS
[1 0 0 1 228.1649 270.01324] CT
0.208 0.165 0.525 RC
N
f577491941
f
GR
GS
[1 0 0 1 349.86664 278.40198] CT
0.208 0.165 0.525 RC
N
f577491941
f
GR
GS
[1 0 0 1 276.11288 166.43484] CT
0.984 0.804 0.176 RC
N
f577491941
f
GR
GS
[1 0 0 1 257.24936 217.07076] CT
0.208 0.165 0.525 RC
N
f577491941
f
GR
GS
[1 0 0 1 139.58096 280.32004] CT
0.208 0.165 0.525 RC
N
f577491941
f
GR
GS
[1 0 0 1 48.89571 114.12213] CT
0.078 0.518 0.827 RC
N
f577491941
f
GR
GS
[1 0 0 1 196.32869 160.60916] CT
0.569 0.745 0.447 RC
N
f577491941
f
GR
GS
[1 0 0 1 339.74139 38.36361] CT
0.008 0.384 0.878 RC
N
f577491941
f
GR
GS
[1 0 0 1 165.0096 270.08694] CT
0.208 0.165 0.525 RC
N
f577491941
f
GR
GS
[1 0 0 1 307.44287 311.37332] CT
0.208 0.165 0.525 RC
N
f577491941
f
GR
GS
[1 0 0 1 331.52533 164.05344] CT
0.973 0.98 0.051 RC
N
f577491941
f
GR
GS
[1 0 0 1 287.2543 309.43237] CT
0.208 0.165 0.525 RC
N
f577491941
f
GR
GS
[1 0 0 1 361.76599 160.34236] CT
0.973 0.98 0.051 RC
N
f577491941
f
GR
GS
[1 0 0 1 285.09293 286.26331] CT
0.208 0.165 0.525 RC
N
f577491941
f
GR
GS
[1 0 0 1 257.80301 284.07101] CT
0.208 0.165 0.525 RC
N
f577491941
f
GR
GS
[1 0 0 1 325.18564 234.04703] CT
0.208 0.165 0.525 RC
N
f577491941
f
GR
GS
[1 0 0 1 460.33551 183.16905] CT
0.847 0.729 0.333 RC
N
f577491941
f
GR
GS
[1 0 0 1 330.51083 19.62298] CT
0.008 0.384 0.878 RC
N
f577491941
f
GR
GS
[1 0 0 1 82.27112 197.96136] CT
0.569 0.745 0.447 RC
N
f577491941
f
GR
GS
[1 0 0 1 453.1496 187.84032] CT
0.847 0.729 0.333 RC
N
f577491941
f
GR
GS
[1 0 0 1 21.89976 242.10161] CT
0.216 0.722 0.616 RC
N
f577491941
f
GR
GS
[1 0 0 1 357.02219 54.53362] CT
0.008 0.384 0.878 RC
N
f577491941
f
GR
GS
[1 0 0 1 249.79239 188.18921] CT
0.984 0.804 0.176 RC
N
f577491941
f
GR
GS
[1 0 0 1 348.12714 65.74767] CT
0.008 0.384 0.878 RC
N
f577491941
f
GR
GS
[1 0 0 1 466.7417 189.92645] CT
0.847 0.729 0.333 RC
N
f577491941
f
GR
GS
[1 0 0 1 313.31873 27.65919] CT
0.008 0.384 0.878 RC
N
f577491941
f
GR
GS
[1 0 0 1 162.13425 127.27904] CT
0.216 0.722 0.616 RC
N
f577491941
f
GR
GS
[1 0 0 1 324.2655 291.53903] CT
0.208 0.165 0.525 RC
N
f577491941
f
GR
GS
[1 0 0 1 358.95016 160.62001] CT
0.973 0.98 0.051 RC
N
f577491941
f
GR
GS
[1 0 0 1 367.63388 171.67453] CT
0.973 0.98 0.051 RC
N
f577491941
f
GR
GS
[1 0 0 1 82.47249 201.76794] CT
0.569 0.745 0.447 RC
N
f577491941
f
GR
GS
[1 0 0 1 306.07678 300.3093] CT
0.208 0.165 0.525 RC
N
f577491941
f
GR
GS
[1 0 0 1 466.33337 191.39868] CT
0.847 0.729 0.333 RC
N
f577491941
f
GR
GS
[1 0 0 1 84.00827 115.02841] CT
0.078 0.518 0.827 RC
N
f577491941
f
GR
GS
[1 0 0 1 257.16122 165.29716] CT
0.973 0.98 0.051 RC
N
f577491941
f
GR
GS
[1 0 0 1 152.68077 264.92377] CT
0.984 0.804 0.176 RC
N
f577491941
f
GR
GS
[1 0 0 1 71.19277 255.6282] CT
0.569 0.745 0.447 RC
N
f577491941
f
GR
GS
[1 0 0 1 306.35809 305.8121] CT
0.208 0.165 0.525 RC
N
f577491941
f
GR
GS
[1 0 0 1 347.1665 57.03035] CT
0.008 0.384 0.878 RC
N
f577491941
f
GR
GS
[1 0 0 1 324.34137 250.79414] CT
0.208 0.165 0.525 RC
N
f577491941
f
GR
GS
[1 0 0 1 288.56894 303.87231] CT
0.208 0.165 0.525 RC
N
f577491941
f
GR
GS
[1 0 0 1 62.12671 137.16724] CT
0.078 0.518 0.827 RC
N
f577491941
f
GR
GS
[1 0 0 1 258.96664 135.45241] CT
0.216 0.722 0.616 RC
N
f577491941
f
GR
GS
[1 0 0 1 70.00014 156.12971] CT
0.078 0.518 0.827 RC
N
f577491941
f
GR
GS
[1 0 0 1 251.95743 194.73404] CT
0.984 0.804 0.176 RC
N
f577491941
f
GR
GS
[1 0 0 1 77.38217 168.16479] CT
0.569 0.745 0.447 RC
N
f577491941
f
GR
GS
[1 0 0 1 301.00037 104.83392] CT
0.216 0.722 0.616 RC
N
f577491941
f
GR
GS
[1 0 0 1 340.43994 141.41478] CT
0.973 0.98 0.051 RC
N
f577491941
f
GR
GS
[1 0 0 1 282.24377 300.06937] CT
0.208 0.165 0.525 RC
N
f577491941
f
GR
GS
[1 0 0 1 456.9722 187.57584] CT
0.847 0.729 0.333 RC
N
f577491941
f
GR
GS
[1 0 0 1 139.09561 94.23623] CT
0.216 0.722 0.616 RC
N
f577491941
f
GR
GS
[1 0 0 1 354.21365 40.93878] CT
0.008 0.384 0.878 RC
N
f577491941
f
GR
GS
[1 0 0 1 371.23181 51.0517] CT
0.008 0.384 0.878 RC
N
f577491941
f
GR
GS
[1 0 0 1 275.14255 288.03458] CT
0.208 0.165 0.525 RC
N
f577491941
f
GR
GS
[1 0 0 1 254.62302 103.3786] CT
0.216 0.722 0.616 RC
N
f577491941
f
GR
GS
[1 0 0 1 331.40292 267.3894] CT
0.208 0.165 0.525 RC
N
f577491941
f
GR
GS
[1 0 0 1 289.33536 104.98686] CT
0.216 0.722 0.616 RC
N
f577491941
f
GR
GS
[1 0 0 1 31.15984 131.04025] CT
0.078 0.518 0.827 RC
N
f577491941
f
GR
GS
[1 0 0 1 357.49652 50.71478] CT
0.008 0.384 0.878 RC
N
f577491941
f
GR
GS
[1 0 0 1 78.29932 203.02428] CT
0.569 0.745 0.447 RC
N
f577491941
f
GR
GS
[1 0 0 1 287.92935 275.44144] CT
0.208 0.165 0.525 RC
N
f577491941
f
GR
GS
[1 0 0 1 202.01715 290.0296] CT
0.208 0.165 0.525 RC
N
f577491941
f
GR
GS
[1 0 0 1 376.3403 41.78972] CT
0.008 0.384 0.878 RC
N
f577491941
f
GR
GS
[1 0 0 1 376.95206 41.05847] CT
0.008 0.384 0.878 RC
N
f577491941
f
GR
GS
[1 0 0 1 55.27052 129.15082] CT
0.078 0.518 0.827 RC
N
f577491941
f
GR
GS
[1 0 0 1 460.18521 190.1792] CT
0.847 0.729 0.333 RC
N
f577491941
f
GR
GS
[1 0 0 1 296.93307 245.52211] CT
0.208 0.165 0.525 RC
N
f577491941
f
GR
GS
[1 0 0 1 311.21106 257.32767] CT
0.208 0.165 0.525 RC
N
f577491941
f
GR
GS
[1 0 0 1 230.93155 293.45346] CT
0.208 0.165 0.525 RC
N
f577491941
f
GR
GS
[1 0 0 1 285.17743 301.03998] CT
0.208 0.165 0.525 RC
N
f577491941
f
GR
GS
[1 0 0 1 236.80629 142.37988] CT
0.216 0.722 0.616 RC
N
f577491941
f
GR
GS
[1 0 0 1 145.63916 171.83563] CT
0.569 0.745 0.447 RC
N
f577491941
f
GR
GS
[1 0 0 1 466.79562 188.26396] CT
0.847 0.729 0.333 RC
N
f577491941
f
GR
GS
[1 0 0 1 168.16531 154.91074] CT
0.216 0.722 0.616 RC
N
f577491941
f
GR
GS
[1 0 0 1 266.95612 93.57884] CT
0.078 0.518 0.827 RC
N
f577491941
f
GR
GS
[1 0 0 1 318.80792 15.51386] CT
0.008 0.384 0.878 RC
N
f577491941
f
GR
GS
[1 0 0 1 131.79294 204.95877] CT
0.569 0.745 0.447 RC
N
f577491941
f
GR
GS
[1 0 0 1 296.78531 290.50104] CT
0.208 0.165 0.525 RC
N
f577491941
f
GR
GS
[1 0 0 1 185.47423 103.76649] CT
0.216 0.722 0.616 RC
N
f577491941
f
GR
GS
[1 0 0 1 230.72302 150.73877] CT
0.216 0.722 0.616 RC
N
f577491941
f
GR
GS
[1 0 0 1 453.504 185.98334] CT
0.847 0.729 0.333 RC
N
f577491941
f
GR
GS
[1 0 0 1 213.26358 286.2843] CT
0.208 0.165 0.525 RC
N
f577491941
f
GR
GS
[1 0 0 1 281.24478 218.28897] CT
0.208 0.165 0.525 RC
N
f577491941
f
GR
GS
[1 0 0 1 352.61234 160.34621] CT
0.973 0.98 0.051 RC
N
f577491941
f
GR
GS
[1 0 0 1 75.4821 152.07278] CT
0.078 0.518 0.827 RC
N
f577491941
f
GR
GS
[1 0 0 1 344.64774 42.9502] CT
0.008 0.384 0.878 RC
N
f577491941
f
GR
GS
[1 0 0 1 273.98056 213.5619] CT
0.208 0.165 0.525 RC
N
f577491941
f
GR
GS
[1 0 0 1 162.37338 291.86459] CT
0.208 0.165 0.525 RC
N
f577491941
f
GR
GS
[1 0 0 1 257.93127 101.10667] CT
0.216 0.722 0.616 RC
N
f577491941
f
GR
GS
[1 0 0 1 247.19849 298.94772] CT
0.208 0.165 0.525 RC
N
f577491941
f
GR
GS
[1 0 0 1 93.98826 193.15411] CT
0.569 0.745 0.447 RC
N
f577491941
f
GR
GS
[1 0 0 1 465.78699 136.55356] CT
0.02 0.651 0.776 RC
N
f577491941
f
GR
GS
[1 0 0 1 126.86566 154.57813] CT
0.078 0.518 0.827 RC
N
f577491941
f
GR
GS
[1 0 0 1 351.11996 59.55912] CT
0.008 0.384 0.878 RC
N
f577491941
f
GR
GS
[1 0 0 1 137.78641 92.4052] CT
0.216 0.722 0.616 RC
N
f577491941
f
GR
GS
[1 0 0 1 188.50381 176.48578] CT
0.984 0.804 0.176 RC
N
f577491941
f
GR
GS
[1 0 0 1 271.04205 266.47198] CT
0.208 0.165 0.525 RC
N
f577491941
f
GR
GS
[1 0 0 1 240.12558 266.58932] CT
0.208 0.165 0.525 RC
N
f577491941
f
GR
GS
[1 0 0 1 369.23376 133.18694] CT
0.973 0.98 0.051 RC
N
f577491941
f
GR
GS
[1 0 0 1 252.37959 307.95038] CT
0.208 0.165 0.525 RC
N
f577491941
f
GR
GS
[1 0 0 1 236.10928 149.70602] CT
0.216 0.722 0.616 RC
N
f577491941
f
GR
GS
[1 0 0 1 180.4996 146.08247] CT
0.216 0.722 0.616 RC
N
f577491941
f
GR
GS
[1 0 0 1 94.10002 208.90593] CT
0.569 0.745 0.447 RC
N
f577491941
f
GR
GS
[1 0 0 1 151.29909 259.10352] CT
0.984 0.804 0.176 RC
N
f577491941
f
GR
GS
[1 0 0 1 287.10001 301.45056] CT
0.208 0.165 0.525 RC
N
f577491941
f
GR
GS
[1 0 0 1 280.53891 62.53675] CT
0.008 0.384 0.878 RC
N
f577491941
f
GR
GS
[1 0 0 1 175.51158 276.14618] CT
0.208 0.165 0.525 RC
N
f577491941
f
GR
GS
[1 0 0 1 309.49988 289.56961] CT
0.208 0.165 0.525 RC
N
f577491941
f
GR
GS
[1 0 0 1 290.81458 122.00987] CT
0.216 0.722 0.616 RC
N
f577491941
f
GR
GS
[1 0 0 1 200.82956 278.66467] CT
0.208 0.165 0.525 RC
N
f577491941
f
GR
GS
[1 0 0 1 250.74112 244.68965] CT
0.984 0.804 0.176 RC
N
f577491941
f
GR
GS
[1 0 0 1 297.00668 116.1415] CT
0.216 0.722 0.616 RC
N
f577491941
f
GR
GS
[1 0 0 1 375.31186 174.20601] CT
0.973 0.98 0.051 RC
N
f577491941
f
GR
GS
[1 0 0 1 368.21149 170.6895] CT
0.973 0.98 0.051 RC
N
f577491941
f
GR
GS
[1 0 0 1 331.69119 75.48664] CT
0.216 0.722 0.616 RC
N
f577491941
f
GR
GS
[1 0 0 1 307.97336 104.82626] CT
0.216 0.722 0.616 RC
N
f577491941
f
GR
GS
[1 0 0 1 63.62177 113.90762] CT
0.078 0.518 0.827 RC
N
f577491941
f
GR
GS
[1 0 0 1 327.9072 51.72313] CT
0.008 0.384 0.878 RC
N
f577491941
f
GR
GS
[1 0 0 1 358.86096 33.03772] CT
0.008 0.384 0.878 RC
N
f577491941
f
GR
GS
[1 0 0 1 97.0767 194.59546] CT
0.569 0.745 0.447 RC
N
f577491941
f
GR
GS
[1 0 0 1 226.29546 313.69461] CT
0.208 0.165 0.525 RC
N
f577491941
f
GR
GS
[1 0 0 1 281.54883 218.66524] CT
0.208 0.165 0.525 RC
N
f577491941
f
GR
GS
[1 0 0 1 37.61271 120.44013] CT
0.078 0.518 0.827 RC
N
f577491941
f
GR
GS
[1 0 0 1 260.8251 103.92232] CT
0.216 0.722 0.616 RC
N
f577491941
f
GR
GS
[1 0 0 1 46.41284 128.752] CT
0.078 0.518 0.827 RC
N
f577491941
f
GR
GS
[1 0 0 1 367.42728 217.08742] CT
0.984 0.804 0.176 RC
N
f577491941
f
GR
GS
[1 0 0 1 288.05017 101.14359] CT
0.216 0.722 0.616 RC
N
f577491941
f
GR
GS
[1 0 0 1 306.315 177.44586] CT
0.984 0.804 0.176 RC
N
f577491941
f
GR
GS
[1 0 0 1 461.16925 134.81129] CT
0.02 0.651 0.776 RC
N
f577491941
f
GR
GS
[1 0 0 1 222.24255 161.25304] CT
0.569 0.745 0.447 RC
N
f577491941
f
GR
GS
[1 0 0 1 187.43262 292.29364] CT
0.208 0.165 0.525 RC
N
f577491941
f
GR
GS
[1 0 0 1 135.83661 253.03468] CT
0.984 0.804 0.176 RC
N
f577491941
f
GR
GS
[1 0 0 1 350.64304 134.49496] CT
0.973 0.98 0.051 RC
N
f577491941
f
GR
GS
[1 0 0 1 372.8605 40.61002] CT
0.008 0.384 0.878 RC
N
f577491941
f
GR
GS
[1 0 0 1 233.40239 296.44928] CT
0.208 0.165 0.525 RC
N
f577491941
f
GR
GS
[1 0 0 1 92.26893 178.80096] CT
0.569 0.745 0.447 RC
N
f577491941
f
GR
GS
[1 0 0 1 154.29924 265.21936] CT
0.984 0.804 0.176 RC
N
f577491941
f
GR
GS
[1 0 0 1 267.26517 145.47894] CT
0.216 0.722 0.616 RC
N
f577491941
f
GR
GS
[1 0 0 1 72.52676 297.29022] CT
0.208 0.165 0.525 RC
N
f577491941
f
GR
GS
[1 0 0 1 76.62912 143.4937] CT
0.078 0.518 0.827 RC
N
f577491941
f
GR
GS
[1 0 0 1 149.54019 194.71309] CT
0.569 0.745 0.447 RC
N
f577491941
f
GR
GS
[1 0 0 1 342.77832 141.65401] CT
0.973 0.98 0.051 RC
N
f577491941
f
GR
GS
[1 0 0 1 135.71829 185.3773] CT
0.569 0.745 0.447 RC
N
f577491941
f
GR
GS
[1 0 0 1 53.36712 135.23618] CT
0.078 0.518 0.827 RC
N
f577491941
f
GR
GS
[1 0 0 1 470.13406 190.29018] CT
0.847 0.729 0.333 RC
N
f577491941
f
GR
GS
[1 0 0 1 332.3905 282.11981] CT
0.208 0.165 0.525 RC
N
f577491941
f
GR
GS
[1 0 0 1 120.23727 169.52837] CT
0.078 0.518 0.827 RC
N
f577491941
f
GR
GS
[1 0 0 1 271.34357 311.2525] CT
0.208 0.165 0.525 RC
N
f577491941
f
GR
GS
[1 0 0 1 135.34329 102.51423] CT
0.984 0.804 0.176 RC
N
f577491941
f
GR
GS
[1 0 0 1 29.34141 242.13934] CT
0.569 0.745 0.447 RC
N
f577491941
f
GR
GS
[1 0 0 1 313.44312 315.38464] CT
0.208 0.165 0.525 RC
N
f577491941
f
GR
GS
[1 0 0 1 289.38309 62.23202] CT
0.008 0.384 0.878 RC
N
f577491941
f
GR
GS
[1 0 0 1 462.02814 132.65636] CT
0.02 0.651 0.776 RC
N
f577491941
f
GR
GS
[1 0 0 1 250.0316 150.7861] CT
0.216 0.722 0.616 RC
N
f577491941
f
GR
GS
[1 0 0 1 164.90086 279.05701] CT
0.208 0.165 0.525 RC
N
f577491941
f
GR
GS
[1 0 0 1 143.20488 183.44144] CT
0.569 0.745 0.447 RC
N
f577491941
f
GR
GS
[1 0 0 1 266.82413 103.47811] CT
0.216 0.722 0.616 RC
N
f577491941
f
GR
GS
[1 0 0 1 39.17993 128.20218] CT
0.078 0.518 0.827 RC
N
f577491941
f
GR
GS
[1 0 0 1 239.65132 146.66197] CT
0.216 0.722 0.616 RC
N
f577491941
f
GR
GS
[1 0 0 1 103.15533 111.56416] CT
0.078 0.518 0.827 RC
N
f577491941
f
GR
GS
[1 0 0 1 342.29407 19.93055] CT
0.008 0.384 0.878 RC
N
f577491941
f
GR
GS
[1 0 0 1 267.81784 234.65887] CT
0.208 0.165 0.525 RC
N
f577491941
f
GR
GS
[1 0 0 1 133.95313 257.47147] CT
0.984 0.804 0.176 RC
N
f577491941
f
GR
GS
[1 0 0 1 241.13443 178.26981] CT
0.984 0.804 0.176 RC
N
f577491941
f
GR
GS
[1 0 0 1 244.36464 104.17271] CT
0.216 0.722 0.616 RC
N
f577491941
f
GR
GS
[1 0 0 1 230.29625 150.14244] CT
0.216 0.722 0.616 RC
N
f577491941
f
GR
GS
[1 0 0 1 290.71136 325.87912] CT
0.208 0.165 0.525 RC
N
f577491941
f
GR
GS
[1 0 0 1 108.02739 164.81352] CT
0.078 0.518 0.827 RC
N
f577491941
f
GR
GS
[1 0 0 1 64.71236 111.00834] CT
0.078 0.518 0.827 RC
N
f577491941
f
GR
GS
[1 0 0 1 149.80678 88.14249] CT
0.216 0.722 0.616 RC
N
f577491941
f
GR
GS
[1 0 0 1 269.55203 157.75819] CT
0.569 0.745 0.447 RC
N
f577491941
f
GR
GS
[1 0 0 1 314.05164 220.26938] CT
0.984 0.804 0.176 RC
N
f577491941
f
GR
GS
[1 0 0 1 171.23529 137.98883] CT
0.569 0.745 0.447 RC
N
f577491941
f
GR
GS
[1 0 0 1 153.06169 88.88981] CT
0.216 0.722 0.616 RC
N
f577491941
f
GR
GS
[1 0 0 1 306.25403 311.75842] CT
0.208 0.165 0.525 RC
N
f577491941
f
GR
GS
[1 0 0 1 190.711 267.41013] CT
0.208 0.165 0.525 RC
N
f577491941
f
GR
GS
[1 0 0 1 203.2312 109.75701] CT
0.216 0.722 0.616 RC
N
f577491941
f
GR
GS
[1 0 0 1 231.71013 296.34256] CT
0.208 0.165 0.525 RC
N
f577491941
f
GR
GS
[1 0 0 1 239.51669 223.65569] CT
0.984 0.804 0.176 RC
N
f577491941
f
GR
GS
[1 0 0 1 86.37158 203.66493] CT
0.569 0.745 0.447 RC
N
f577491941
f
GR
GS
[1 0 0 1 227.3741 300.11545] CT
0.208 0.165 0.525 RC
N
f577491941
f
GR
GS
[1 0 0 1 275.06711 200.09795] CT
0.984 0.804 0.176 RC
N
f577491941
f
GR
GS
[1 0 0 1 280.24658 100.58208] CT
0.216 0.722 0.616 RC
N
f577491941
f
GR
GS
[1 0 0 1 221.58847 160.55373] CT
0.569 0.745 0.447 RC
N
f577491941
f
GR
GS
[1 0 0 1 348.55392 250.34427] CT
0.208 0.165 0.525 RC
N
f577491941
f
GR
GS
[1 0 0 1 278.74283 279.8761] CT
0.208 0.165 0.525 RC
N
f577491941
f
GR
GS
[1 0 0 1 308.39841 37.7384] CT
0.008 0.384 0.878 RC
N
f577491941
f
GR
GS
[1 0 0 1 126.75159 155.50198] CT
0.569 0.745 0.447 RC
N
f577491941
f
GR
GS
[1 0 0 1 179.44542 108.40321] CT
0.216 0.722 0.616 RC
N
f577491941
f
GR
GS
[1 0 0 1 76.60835 118.95605] CT
0.078 0.518 0.827 RC
N
f577491941
f
GR
GS
[1 0 0 1 342.23135 247.38673] CT
0.208 0.165 0.525 RC
N
f577491941
f
GR
GS
[1 0 0 1 197.51938 147.92241] CT
0.216 0.722 0.616 RC
N
f577491941
f
GR
GS
[1 0 0 1 214.99124 287.15152] CT
0.208 0.165 0.525 RC
N
f577491941
f
GR
GS
[1 0 0 1 138.30284 91.74802] CT
0.216 0.722 0.616 RC
N
f577491941
f
GR
GS
[1 0 0 1 464.68518 134.88892] CT
0.02 0.651 0.776 RC
N
f577491941
f
GR
GS
[1 0 0 1 71.9884 134.95895] CT
0.078 0.518 0.827 RC
N
f577491941
f
GR
GS
[1 0 0 1 85.25038 202.68211] CT
0.569 0.745 0.447 RC
N
f577491941
f
GR
GS
[1 0 0 1 267.87698 301.97235] CT
0.208 0.165 0.525 RC
N
f577491941
f
GR
GS
[1 0 0 1 263.6366 310.32654] CT
0.208 0.165 0.525 RC
N
f577491941
f
GR
GS
[1 0 0 1 211.88849 272.63113] CT
0.208 0.165 0.525 RC
N
f577491941
f
GR
GS
[1 0 0 1 251.94676 304.14871] CT
0.208 0.165 0.525 RC
N
f577491941
f
GR
GS
[1 0 0 1 70.34874 114.2131] CT
0.078 0.518 0.827 RC
N
f577491941
f
GR
GS
[1 0 0 1 137.12225 92.14081] CT
0.216 0.722 0.616 RC
N
f577491941
f
GR
GS
[1 0 0 1 291.26224 311.35529] CT
0.208 0.165 0.525 RC
N
f577491941
f
GR
GS
[1 0 0 1 47.14387 124.53457] CT
0.078 0.518 0.827 RC
N
f577491941
f
GR
GS
[1 0 0 1 358.6124 127.74669] CT
0.973 0.98 0.051 RC
N
f577491941
f
GR
GS
[1 0 0 1 354.69662 59.19177] CT
0.008 0.384 0.878 RC
N
f577491941
f
GR
GS
[1 0 0 1 279.48315 157.02927] CT
0.216 0.722 0.616 RC
N
f577491941
f
GR
GS
[1 0 0 1 154.86736 244.83994] CT
0.984 0.804 0.176 RC
N
f577491941
f
GR
GS
[1 0 0 1 332.81985 24.95145] CT
0.008 0.384 0.878 RC
N
f577491941
f
GR
GS
[1 0 0 1 47.60339 205.40018] CT
0.973 0.98 0.051 RC
N
f577491941
f
GR
GS
[1 0 0 1 295.18298 25.0708] CT
0.008 0.384 0.878 RC
N
f577491941
f
GR
GS
[1 0 0 1 185.38927 183.6627] CT
0.216 0.722 0.616 RC
N
f577491941
f
GR
GS
[1 0 0 1 141.62668 257.1983] CT
0.984 0.804 0.176 RC
N
f577491941
f
GR
GS
[1 0 0 1 189.77739 168.14336] CT
0.984 0.804 0.176 RC
N
f577491941
f
GR
GS
[1 0 0 1 163.78242 291.59778] CT
0.208 0.165 0.525 RC
N
f577491941
f
GR
GS
[1 0 0 1 331.82712 265.09326] CT
0.208 0.165 0.525 RC
N
f577491941
f
GR
GS
[1 0 0 1 48.50337 125.23941] CT
0.078 0.518 0.827 RC
N
f577491941
f
GR
GS
[1 0 0 1 87.39459 143.58746] CT
0.078 0.518 0.827 RC
N
f577491941
f
GR
GS
[1 0 0 1 307.0271 104.65321] CT
0.216 0.722 0.616 RC
N
f577491941
f
GR
GS
[1 0 0 1 136.55243 252.7513] CT
0.984 0.804 0.176 RC
N
f577491941
f
GR
GS
[1 0 0 1 353.13913 150.18903] CT
0.973 0.98 0.051 RC
N
f577491941
f
GR
GS
[1 0 0 1 91.48444 224.3436] CT
0.569 0.745 0.447 RC
N
f577491941
f
GR
GS
[1 0 0 1 138.30995 182.85962] CT
0.569 0.745 0.447 RC
N
f577491941
f
GR
GS
[1 0 0 1 171.20578 265.81537] CT
0.208 0.165 0.525 RC
N
f577491941
f
GR
GS
[1 0 0 1 160.14044 160.20535] CT
0.569 0.745 0.447 RC
N
f577491941
f
GR
GS
[1 0 0 1 289.25726 62.23606] CT
0.008 0.384 0.878 RC
N
f577491941
f
GR
GS
[1 0 0 1 292.12552 293.6286] CT
0.208 0.165 0.525 RC
N
f577491941
f
GR
GS
[1 0 0 1 34.14898 131.12856] CT
0.078 0.518 0.827 RC
N
f577491941
f
GR
GS
[1 0 0 1 365.22357 158.90088] CT
0.973 0.98 0.051 RC
N
f577491941
f
GR
GS
[1 0 0 1 43.43617 126.20023] CT
0.078 0.518 0.827 RC
N
f577491941
f
GR
GS
[1 0 0 1 321.70163 302.81134] CT
0.208 0.165 0.525 RC
N
f577491941
f
GR
GS
[1 0 0 1 266.67856 262.90289] CT
0.208 0.165 0.525 RC
N
f577491941
f
GR
GS
[1 0 0 1 264.67621 294.319] CT
0.208 0.165 0.525 RC
N
f577491941
f
GR
GS
[1 0 0 1 108.01391 131.40097] CT
0.078 0.518 0.827 RC
N
f577491941
f
GR
GS
[1 0 0 1 211.88812 211.66553] CT
0.984 0.804 0.176 RC
N
f577491941
f
GR
GS
[1 0 0 1 88.09436 137.20457] CT
0.078 0.518 0.827 RC
N
f577491941
f
GR
GS
[1 0 0 1 90.16225 205.94415] CT
0.569 0.745 0.447 RC
N
f577491941
f
GR
GS
[1 0 0 1 462.89194 131.77878] CT
0.02 0.651 0.776 RC
N
f577491941
f
GR
GS
[1 0 0 1 9.29769 238.60988] CT
0.569 0.745 0.447 RC
N
f577491941
f
GR
GS
[1 0 0 1 46.91227 133.56616] CT
0.078 0.518 0.827 RC
N
f577491941
f
GR
GS
[1 0 0 1 372.64746 51.44088] CT
0.008 0.384 0.878 RC
N
f577491941
f
GR
GS
[1 0 0 1 285.39035 151.39766] CT
0.973 0.98 0.051 RC
N
f577491941
f
GR
GS
[1 0 0 1 60.98075 113.388] CT
0.078 0.518 0.827 RC
N
f577491941
f
GR
GS
[1 0 0 1 458.88583 133.9565] CT
0.02 0.651 0.776 RC
N
f577491941
f
GR
GS
[1 0 0 1 223.94037 100.70554] CT
0.216 0.722 0.616 RC
N
f577491941
f
GR
GS
[1 0 0 1 248.96098 128.92772] CT
0.569 0.745 0.447 RC
N
f577491941
f
GR
GS
[1 0 0 1 349.35721 66.30296] CT
0.008 0.384 0.878 RC
N
f577491941
f
GR
GS
[1 0 0 1 294.80362 31.2094] CT
0.008 0.384 0.878 RC
N
f577491941
f
GR
GS
[1 0 0 1 352.02835 162.04378] CT
0.973 0.98 0.051 RC
N
f577491941
f
GR
GS
[1 0 0 1 319.89157 169.67033] CT
0.973 0.98 0.051 RC
N
f577491941
f
GR
GS
[1 0 0 1 290.86725 154.62187] CT
0.216 0.722 0.616 RC
N
f577491941
f
GR
GS
[1 0 0 1 281.36148 177.5634] CT
0.973 0.98 0.051 RC
N
f577491941
f
GR
GS
[1 0 0 1 267.2323 250.82704] CT
0.208 0.165 0.525 RC
N
f577491941
f
GR
GS
[1 0 0 1 65.95691 123.70959] CT
0.078 0.518 0.827 RC
N
f577491941
f
GR
GS
[1 0 0 1 164.29436 157.5182] CT
0.569 0.745 0.447 RC
N
f577491941
f
GR
GS
[1 0 0 1 295.44299 271.89282] CT
0.208 0.165 0.525 RC
N
f577491941
f
GR
GS
[1 0 0 1 236.399 142.08572] CT
0.216 0.722 0.616 RC
N
f577491941
f
GR
GS
[1 0 0 1 283.69803 97.86945] CT
0.216 0.722 0.616 RC
N
f577491941
f
GR
GS
[1 0 0 1 32.59291 128.77025] CT
0.078 0.518 0.827 RC
N
f577491941
f
GR
GS
[1 0 0 1 81.993 195.39597] CT
0.569 0.745 0.447 RC
N
f577491941
f
GR
GS
[1 0 0 1 323.18671 260.88138] CT
0.208 0.165 0.525 RC
N
f577491941
f
GR
GS
[1 0 0 1 313.63821 194.08557] CT
0.984 0.804 0.176 RC
N
f577491941
f
GR
GS
[1 0 0 1 466.60156 185.6602] CT
0.847 0.729 0.333 RC
N
f577491941
f
GR
GS
[1 0 0 1 286.56305 281.07492] CT
0.208 0.165 0.525 RC
N
f577491941
f
GR
GS
[1 0 0 1 256.30359 249.94569] CT
0.984 0.804 0.176 RC
N
f577491941
f
GR
GS
[1 0 0 1 114.51649 229.97836] CT
0.569 0.745 0.447 RC
N
f577491941
f
GR
GS
[1 0 0 1 307.67462 257.97473] CT
0.208 0.165 0.525 RC
N
f577491941
f
GR
GS
[1 0 0 1 156.75433 156.58064] CT
0.216 0.722 0.616 RC
N
f577491941
f
GR
GS
[1 0 0 1 354.56085 145.03258] CT
0.973 0.98 0.051 RC
N
f577491941
f
GR
GS
[1 0 0 1 87.37123 236.15997] CT
0.569 0.745 0.447 RC
N
f577491941
f
GR
GS
[1 0 0 1 133.47182 99.0967] CT
0.216 0.722 0.616 RC
N
f577491941
f
GR
GS
[1 0 0 1 466.0097 191.42209] CT
0.847 0.729 0.333 RC
N
f577491941
f
GR
GS
[1 0 0 1 353.28967 246.29271] CT
0.208 0.165 0.525 RC
N
f577491941
f
GR
GS
[1 0 0 1 178.02103 298.64313] CT
0.208 0.165 0.525 RC
N
f577491941
f
GR
GS
[1 0 0 1 196.92033 277.51407] CT
0.208 0.165 0.525 RC
N
f577491941
f
GR
GS
[1 0 0 1 276.17831 303.27454] CT
0.208 0.165 0.525 RC
N
f577491941
f
GR
GS
[1 0 0 1 234.09581 298.76202] CT
0.208 0.165 0.525 RC
N
f577491941
f
GR
GS
[1 0 0 1 295.3631 153.08006] CT
0.973 0.98 0.051 RC
N
f577491941
f
GR
GS
[1 0 0 1 252.11398 263.27136] CT
0.208 0.165 0.525 RC
N
f577491941
f
GR
GS
[1 0 0 1 218.96193 303.87228] CT
0.208 0.165 0.525 RC
N
f577491941
f
GR
GS
[1 0 0 1 278.03268 199.56543] CT
0.984 0.804 0.176 RC
N
f577491941
f
GR
GS
[1 0 0 1 324.80353 17.87296] CT
0.008 0.384 0.878 RC
N
f577491941
f
GR
GS
[1 0 0 1 136.47499 223.11534] CT
0.569 0.745 0.447 RC
N
f577491941
f
GR
GS
[1 0 0 1 256.91946 200.18204] CT
0.208 0.165 0.525 RC
N
f577491941
f
GR
GS
[1 0 0 1 82.58233 227.96375] CT
0.569 0.745 0.447 RC
N
f577491941
f
GR
GS
[1 0 0 1 466.90598 187.73555] CT
0.847 0.729 0.333 RC
N
f577491941
f
GR
GS
[1 0 0 1 77.07819 213.34056] CT
0.569 0.745 0.447 RC
N
f577491941
f
GR
GS
[1 0 0 1 465.37082 134.11627] CT
0.02 0.651 0.776 RC
N
f577491941
f
GR
GS
[1 0 0 1 144.35374 265.80139] CT
0.984 0.804 0.176 RC
N
f577491941
f
GR
GS
[1 0 0 1 243.53882 308.38837] CT
0.208 0.165 0.525 RC
N
f577491941
f
GR
GS
[1 0 0 1 305.66364 20.47828] CT
0.008 0.384 0.878 RC
N
f577491941
f
GR
GS
[1 0 0 1 242.96231 231.72147] CT
0.208 0.165 0.525 RC
N
f577491941
f
GR
GS
[1 0 0 1 287.16251 323.52707] CT
0.208 0.165 0.525 RC
N
f577491941
f
GR
GS
[1 0 0 1 154.28114 199.51718] CT
0.569 0.745 0.447 RC
N
f577491941
f
GR
GS
[1 0 0 1 151.5088 258.54007] CT
0.984 0.804 0.176 RC
N
f577491941
f
GR
GS
[1 0 0 1 458.01065 137.35078] CT
0.02 0.651 0.776 RC
N
f577491941
f
GR
GS
[1 0 0 1 240.15599 311.85837] CT
0.208 0.165 0.525 RC
N
f577491941
f
GR
GS
[1 0 0 1 313.79443 282.54919] CT
0.208 0.165 0.525 RC
N
f577491941
f
GR
GS
[1 0 0 1 172.85432 163.77191] CT
0.569 0.745 0.447 RC
N
f577491941
f
GR
GS
[1 0 0 1 83.69166 138.70464] CT
0.078 0.518 0.827 RC
N
f577491941
f
GR
GS
[1 0 0 1 220.2236 294.50827] CT
0.208 0.165 0.525 RC
N
f577491941
f
GR
GS
[1 0 0 1 291.67194 283.18448] CT
0.208 0.165 0.525 RC
N
f577491941
f
GR
GS
[1 0 0 1 376.79904 174.59056] CT
0.973 0.98 0.051 RC
N
f577491941
f
GR
GS
[1 0 0 1 274.45224 275.41104] CT
0.208 0.165 0.525 RC
N
f577491941
f
GR
GS
[1 0 0 1 155.99315 269.62109] CT
0.208 0.165 0.525 RC
N
f577491941
f
GR
GS
[1 0 0 1 194.89479 98.29289] CT
0.216 0.722 0.616 RC
N
f577491941
f
GR
GS
[1 0 0 1 302.28271 275.42758] CT
0.208 0.165 0.525 RC
N
f577491941
f
GR
GS
[1 0 0 1 458.189 191.06096] CT
0.847 0.729 0.333 RC
N
f577491941
f
GR
GS
[1 0 0 1 140.96216 146.78825] CT
0.216 0.722 0.616 RC
N
f577491941
f
GR
GS
[1 0 0 1 234.31847 109.0524] CT
0.216 0.722 0.616 RC
N
f577491941
f
GR
GS
[1 0 0 1 363.92462 162.57979] CT
0.973 0.98 0.051 RC
N
f577491941
f
GR
GS
[1 0 0 1 468.24884 190.5663] CT
0.847 0.729 0.333 RC
N
f577491941
f
GR
GS
[1 0 0 1 341.69461 295.13715] CT
0.208 0.165 0.525 RC
N
f577491941
f
GR
GS
[1 0 0 1 254.01564 278.67712] CT
0.208 0.165 0.525 RC
N
f577491941
f
GR
GS
[1 0 0 1 370.51791 173.11905] CT
0.973 0.98 0.051 RC
N
f577491941
f
GR
GS
[1 0 0 1 204.2252 304.32077] CT
0.208 0.165 0.525 RC
N
f577491941
f
GR
GS
[1 0 0 1 76.97824 240.11099] CT
0.569 0.745 0.447 RC
N
f577491941
f
GR
GS
[1 0 0 1 137.37659 187.40797] CT
0.569 0.745 0.447 RC
N
f577491941
f
GR
GS
[1 0 0 1 91.73717 153.16896] CT
0.078 0.518 0.827 RC
N
f577491941
f
GR
GS
[1 0 0 1 241.69377 306.42316] CT
0.208 0.165 0.525 RC
N
f577491941
f
GR
GS
[1 0 0 1 353.76163 48.15018] CT
0.008 0.384 0.878 RC
N
f577491941
f
GR
GS
[1 0 0 1 137.60321 165.30299] CT
0.569 0.745 0.447 RC
N
f577491941
f
GR
GS
[1 0 0 1 229.20528 279.8013] CT
0.208 0.165 0.525 RC
N
f577491941
f
GR
GS
[1 0 0 1 465.60092 196.87456] CT
0.847 0.729 0.333 RC
N
f577491941
f
GR
GS
[1 0 0 1 335.02957 282.05695] CT
0.208 0.165 0.525 RC
N
f577491941
f
GR
GS
[1 0 0 1 210.04286 299.72589] CT
0.208 0.165 0.525 RC
N
f577491941
f
GR
GS
[1 0 0 1 243.99971 294.59766] CT
0.208 0.165 0.525 RC
N
f577491941
f
GR
GS
[1 0 0 1 233.1306 136.83806] CT
0.216 0.722 0.616 RC
N
f577491941
f
GR
GS
[1 0 0 1 366.08176 253.8793] CT
0.208 0.165 0.525 RC
N
f577491941
f
GR
GS
[1 0 0 1 382.94058 151.32246] CT
0.973 0.98 0.051 RC
N
f577491941
f
GR
GS
[1 0 0 1 462.52548 131.88684] CT
0.02 0.651 0.776 RC
N
f577491941
f
GR
GS
[1 0 0 1 109.65897 210.43045] CT
0.569 0.745 0.447 RC
N
f577491941
f
GR
GS
[1 0 0 1 347.44409 67.61996] CT
0.008 0.384 0.878 RC
N
f577491941
f
GR
GS
[1 0 0 1 348.25473 31.25379] CT
0.008 0.384 0.878 RC
N
f577491941
f
GR
GS
[1 0 0 1 150.45828 87.88509] CT
0.216 0.722 0.616 RC
N
f577491941
f
GR
GS
[1 0 0 1 227.36894 306.52707] CT
0.208 0.165 0.525 RC
N
f577491941
f
GR
GS
[1 0 0 1 210.98933 113.86411] CT
0.216 0.722 0.616 RC
N
f577491941
f
GR
GS
[1 0 0 1 462.96875 189.45682] CT
0.847 0.729 0.333 RC
N
f577491941
f
GR
GS
[1 0 0 1 343.60526 23.83324] CT
0.008 0.384 0.878 RC
N
f577491941
f
GR
GS
[1 0 0 1 282.44122 295.50327] CT
0.208 0.165 0.525 RC
N
f577491941
f
GR
GS
[1 0 0 1 103.51621 111.54706] CT
0.078 0.518 0.827 RC
N
f577491941
f
GR
GS
[1 0 0 1 291.30032 304.56259] CT
0.208 0.165 0.525 RC
N
f577491941
f
GR
GS
[1 0 0 1 98.76031 210.36703] CT
0.569 0.745 0.447 RC
N
f577491941
f
GR
GS
[1 0 0 1 217.76178 107.78094] CT
0.216 0.722 0.616 RC
N
f577491941
f
GR
GS
[1 0 0 1 338.0957 147.67256] CT
0.973 0.98 0.051 RC
N
f577491941
f
GR
GS
[1 0 0 1 351.86108 152.33649] CT
0.973 0.98 0.051 RC
N
f577491941
f
GR
GS
[1 0 0 1 217.64713 308.30457] CT
0.208 0.165 0.525 RC
N
f577491941
f
GR
GS
[1 0 0 1 284.83548 253.88214] CT
0.208 0.165 0.525 RC
N
f577491941
f
GR
GS
[1 0 0 1 129.47853 94.19116] CT
0.216 0.722 0.616 RC
N
f577491941
f
GR
GS
[1 0 0 1 75.2355 212.86845] CT
0.569 0.745 0.447 RC
N
f577491941
f
GR
GS
[1 0 0 1 195.1508 149.93222] CT
0.216 0.722 0.616 RC
N
f577491941
f
GR
GS
[1 0 0 1 240.09618 320.13336] CT
0.208 0.165 0.525 RC
N
f577491941
f
GR
GS
[1 0 0 1 315.32364 293.99838] CT
0.208 0.165 0.525 RC
N
f577491941
f
GR
GS
[1 0 0 1 111.09055 133.92148] CT
0.569 0.745 0.447 RC
N
f577491941
f
GR
GS
[1 0 0 1 280.47568 240.65807] CT
0.984 0.804 0.176 RC
N
f577491941
f
GR
GS
[1 0 0 1 317.84647 267.11743] CT
0.208 0.165 0.525 RC
N
f577491941
f
GR
GS
[1 0 0 1 98.7906 205.05554] CT
0.569 0.745 0.447 RC
N
f577491941
f
GR
GS
[1 0 0 1 360.0256 263.46625] CT
0.208 0.165 0.525 RC
N
f577491941
f
GR
GS
[1 0 0 1 42.77338 136.34196] CT
0.078 0.518 0.827 RC
N
f577491941
f
GR
GS
[1 0 0 1 54.54725 135.42552] CT
0.078 0.518 0.827 RC
N
f577491941
f
GR
GS
[1 0 0 1 462.45407 131.27745] CT
0.02 0.651 0.776 RC
N
f577491941
f
GR
GS
[1 0 0 1 281.01093 248.71567] CT
0.208 0.165 0.525 RC
N
f577491941
f
GR
GS
[1 0 0 1 248.44688 195.20958] CT
0.984 0.804 0.176 RC
N
f577491941
f
GR
GS
[1 0 0 1 61.71908 146.07396] CT
0.078 0.518 0.827 RC
N
f577491941
f
GR
GS
[1 0 0 1 163.25055 173.12601] CT
0.569 0.745 0.447 RC
N
f577491941
f
GR
GS
[1 0 0 1 88.55761 233.75302] CT
0.569 0.745 0.447 RC
N
f577491941
f
GR
GS
[1 0 0 1 348.14609 142.14499] CT
0.973 0.98 0.051 RC
N
f577491941
f
GR
GS
[1 0 0 1 375.00314 147.82343] CT
0.973 0.98 0.051 RC
N
f577491941
f
GR
GS
[1 0 0 1 354.76578 26.86283] CT
0.008 0.384 0.878 RC
N
f577491941
f
GR
GS
[1 0 0 1 365.50351 51.10129] CT
0.008 0.384 0.878 RC
N
f577491941
f
GR
GS
[1 0 0 1 296.40991 268.33102] CT
0.208 0.165 0.525 RC
N
f577491941
f
GR
GS
[1 0 0 1 312.58902 113.89054] CT
0.216 0.722 0.616 RC
N
f577491941
f
GR
GS
[1 0 0 1 167.32352 217.66333] CT
0.984 0.804 0.176 RC
N
f577491941
f
GR
GS
[1 0 0 1 219.58058 81.59174] CT
0.216 0.722 0.616 RC
N
f577491941
f
GR
GS
[1 0 0 1 260.32007 205.41121] CT
0.984 0.804 0.176 RC
N
f577491941
f
GR
GS
[1 0 0 1 376.74997 148.22858] CT
0.973 0.98 0.051 RC
N
f577491941
f
GR
GS
[1 0 0 1 147.03116 244.8748] CT
0.984 0.804 0.176 RC
N
f577491941
f
GR
GS
[1 0 0 1 316.46426 302.42886] CT
0.208 0.165 0.525 RC
N
f577491941
f
GR
GS
[1 0 0 1 49.91238 146.8076] CT
0.078 0.518 0.827 RC
N
f577491941
f
GR
GS
[1 0 0 1 349.68546 139.58578] CT
0.973 0.98 0.051 RC
N
f577491941
f
GR
GS
[1 0 0 1 358.7739 150.52902] CT
0.973 0.98 0.051 RC
N
f577491941
f
GR
GS
[1 0 0 1 239.33261 320.7077] CT
0.208 0.165 0.525 RC
N
f577491941
f
GR
GS
[1 0 0 1 375.0824 169.91818] CT
0.973 0.98 0.051 RC
N
f577491941
f
GR
GS
[1 0 0 1 176.61237 278.35443] CT
0.208 0.165 0.525 RC
N
f577491941
f
GR
GS
[1 0 0 1 292.51755 326.97006] CT
0.208 0.165 0.525 RC
N
f577491941
f
GR
GS
[1 0 0 1 153.6494 297.58786] CT
0.208 0.165 0.525 RC
N
f577491941
f
GR
GS
[1 0 0 1 236.06425 302.89853] CT
0.208 0.165 0.525 RC
N
f577491941
f
GR
GS
[1 0 0 1 278.10892 309.75571] CT
0.208 0.165 0.525 RC
N
f577491941
f
GR
GS
[1 0 0 1 43.10104 121.9659] CT
0.078 0.518 0.827 RC
N
f577491941
f
GR
GS
[1 0 0 1 361.30469 204.75536] CT
0.984 0.804 0.176 RC
N
f577491941
f
GR
GS
[1 0 0 1 368.02625 41.08529] CT
0.008 0.384 0.878 RC
N
f577491941
f
GR
GS
[1 0 0 1 202.79503 102.01428] CT
0.216 0.722 0.616 RC
N
f577491941
f
GR
GS
[1 0 0 1 350.80972 131.83276] CT
0.973 0.98 0.051 RC
N
f577491941
f
GR
GS
[1 0 0 1 36.55221 124.51502] CT
0.078 0.518 0.827 RC
N
f577491941
f
GR
GS
[1 0 0 1 130.46629 242.49883] CT
0.216 0.722 0.616 RC
N
f577491941
f
GR
GS
[1 0 0 1 327.41699 298.67297] CT
0.208 0.165 0.525 RC
N
f577491941
f
GR
GS
[1 0 0 1 173.63756 104.86045] CT
0.216 0.722 0.616 RC
N
f577491941
f
GR
GS
[1 0 0 1 308.03735 308.53122] CT
0.208 0.165 0.525 RC
N
f577491941
f
GR
GS
[1 0 0 1 359.22983 12.93242] CT
/Helvetica 14 F
GS
[1 0 0 1 0 0] CT
0 14 moveto 
1 -1 scale
(Spanish sites) t 
GR
GR
GS
[1 0 0 1 415.7807 202.77727] CT
/Helvetica 14 F
GS
[1 0 0 1 0 0] CT
0 14 moveto 
1 -1 scale
(German sites) t 
GR
GR
GS
[1 0 0 1 415.64648 111.09567] CT
/Helvetica 14 F
GS
[1 0 0 1 0 0] CT
0 14 moveto 
1 -1 scale
(French sites) t 
GR
GR
GS
[1 0 0 1 9.4868 88.68158] CT
/Helvetica 14 F
GS
[1 0 0 1 0 0] CT
0 14 moveto 
1 -1 scale
(Entertainment) t 
GR
GR
GS
[1 0 0 1 26.9363 213.1017] CT
/Helvetica 14 F
GS
[1 0 0 1 0 0] CT
0 14 moveto 
1 -1 scale
(Politics) t 
GR
GR
GS
[1 0 0 1 353.02164 162.22557] CT
/Helvetica 14 F
GS
[1 0 0 1 0 0] CT
0 14 moveto 
1 -1 scale
(Technology) t 
GR
GR
GS
[1 0 0 1 320.95044 311.85727] CT
/Helvetica 14 F
GS
[1 0 0 1 0 0] CT
0 14 moveto 
1 -1 scale
(Mainstream news) t 
GR
GR
%%Trailer
%%Pages: 1
%%EOF
