\relax 
\citation{tang2015line}
\citation{perozzi2014deepwalk}
\citation{mikolov2013distributed}
\citation{tang2015line}
\citation{grover2016node2vec}
\citation{gomez11netrate}
\citation{bourigault2014learning}
\citation{kurashima2014probabilistic}
\citation{bourigault2016representation}
\citation{Girvan2002Community}
\citation{Hu2015Community}
\citation{gomez2010inferring}
\citation{gomez11netrate}
\citation{cox2001multidimensional}
\citation{Roweis2000Nonlinear}
\citation{Zhou2013Learning}
\citation{gomez11netrate}
\citation{Du2013Scalable}
\citation{kempe2003maximizing}
\providecommand*\caption@xref[2]{\@setref\relax\@undefined{#1}}
\newlabel{fig:diffusion}{{1}{2}}
\citation{kurashima2014probabilistic}
\citation{bourigault2016representation}
\citation{10.2307/27639773}
\citation{YangTC16Multi}
\citation{Whitmore1983A}
\newlabel{graph}{{2}{3}}
\newlabel{tab}{{1}{3}}
\newlabel{modelinference}{{}{3}}
\newlabel{eq:gmm1}{{3}{3}}
\newlabel{eq:gmm2}{{4}{3}}
\newlabel{eq:comm}{{5}{3}}
\citation{Luo2011Cauchy}
\citation{mikolov2013distributed}
\newlabel{miss}{{6}{4}}
\newlabel{grad}{{8}{4}}
\newlabel{inference}{{1}{4}}
\citation{barbieri2013influence}
\citation{bourigault2014learning}
\citation{gomez11netrate}
\citation{barbieri2013influence}
\citation{PMID:18999496}
\citation{karypis1998fast}
\citation{Leskovec2009Meme}
\newlabel{fig:nmi}{{3}{5}}
\newlabel{fig:dim}{{4}{5}}
\citation{perozzi2014deepwalk}
\citation{tang2015line}
\citation{Cao2015GraRep}
\citation{grover2016node2vec}
\citation{Yang2016Revisiting}
\citation{Wang2016Community}
\newlabel{fig:vis}{{5}{6}}
\newlabel{tab:auc}{{2}{6}}
\newlabel{fig:auc_cas}{{6}{6}}
\newlabel{fig:meme}{{7}{6}}
\citation{bourigault2014learning}
\citation{kurashima2014probabilistic}
\citation{bourigault2016representation}
\citation{Zhou2013Learning}
\citation{Girvan2002Community}
\citation{papadopoulos2012community}
\citation{KozdobaM15}
\citation{Yang2016Modularity}
\citation{barbieri2013influence}
\citation{Long2015NetCodec}
\citation{guille2013information}
\citation{kempe2003maximizing}
\citation{10.2307/2778111}
\citation{gomez2010inferring}
\citation{gomez11netrate}
\citation{Du2013Scalable}
\citation{pmlr-v32-daneshmand14}
\bibstyle{aaai}
\bibdata{aaai_new}
\bibcite{barbieri2013influence}{\citeauthoryear {Barbieri, Bonchi, and Manco}{2013}}
\newlabel{tab:case}{{3}{7}}
\bibcite{bourigault2014learning}{\citeauthoryear {Bourigault \bgroup et al\unhbox \voidb@x \hbox {.}\egroup }{2014}}
\bibcite{bourigault2016representation}{\citeauthoryear {Bourigault, Lamprier, and Gallinari}{2016}}
\bibcite{Cao2015GraRep}{\citeauthoryear {Cao, Lu, and Xu}{2015}}
\bibcite{cox2001multidimensional}{\citeauthoryear {Cox and Cox}{2001}}
\bibcite{pmlr-v32-daneshmand14}{\citeauthoryear {Daneshmand \bgroup et al\unhbox \voidb@x \hbox {.}\egroup }{2014}}
\bibcite{Du2013Scalable}{\citeauthoryear {Du \bgroup et al\unhbox \voidb@x \hbox {.}\egroup }{2013}}
\bibcite{Girvan2002Community}{\citeauthoryear {Girvan and Newman}{2002}}
\bibcite{gomez11netrate}{\citeauthoryear {Gomez-Rodriguez, Balduzzi, and Sch{\"o}lkopf}{2011}}
\bibcite{gomez2010inferring}{\citeauthoryear {Gomez\nobreakspace  {}Rodriguez, Leskovec, and Krause}{2010}}
\bibcite{10.2307/2778111}{\citeauthoryear {Granovetter}{1978}}
\bibcite{grover2016node2vec}{\citeauthoryear {Grover and Leskovec}{2016}}
\bibcite{guille2013information}{\citeauthoryear {Guille \bgroup et al\unhbox \voidb@x \hbox {.}\egroup }{2013}}
\bibcite{Hu2015Community}{\citeauthoryear {Hu \bgroup et al\unhbox \voidb@x \hbox {.}\egroup }{2015}}
\bibcite{karypis1998fast}{\citeauthoryear {Karypis and Kumar}{1998}}
\bibcite{kempe2003maximizing}{\citeauthoryear {Kempe, Kleinberg, and Tardos}{2003}}
\bibcite{KozdobaM15}{\citeauthoryear {Kozdoba and Mannor}{2015}}
\bibcite{kurashima2014probabilistic}{\citeauthoryear {Kurashima \bgroup et al\unhbox \voidb@x \hbox {.}\egroup }{2014}}
\bibcite{PMID:18999496}{\citeauthoryear {Lancichinetti, Fortunato, and Radicchi}{2008}}
\bibcite{Leskovec2009Meme}{\citeauthoryear {Leskovec, Backstrom, and Kleinberg}{2009}}
\bibcite{Long2015NetCodec}{\citeauthoryear {Long \bgroup et al\unhbox \voidb@x \hbox {.}\egroup }{2015}}
\bibcite{Luo2011Cauchy}{\citeauthoryear {Luo \bgroup et al\unhbox \voidb@x \hbox {.}\egroup }{2011}}
\bibcite{mikolov2013distributed}{\citeauthoryear {Mikolov \bgroup et al\unhbox \voidb@x \hbox {.}\egroup }{2013}}
\bibcite{papadopoulos2012community}{\citeauthoryear {Papadopoulos \bgroup et al\unhbox \voidb@x \hbox {.}\egroup }{2012}}
\bibcite{perozzi2014deepwalk}{\citeauthoryear {Perozzi, Al-Rfou, and Skiena}{2014}}
\bibcite{Roweis2000Nonlinear}{\citeauthoryear {Roweis and Saul}{2000}}
\bibcite{tang2015line}{\citeauthoryear {Tang \bgroup et al\unhbox \voidb@x \hbox {.}\egroup }{2015}}
\bibcite{10.2307/27639773}{\citeauthoryear {Teh \bgroup et al\unhbox \voidb@x \hbox {.}\egroup }{2006}}
\bibcite{Wang2016Community}{\citeauthoryear {Wang \bgroup et al\unhbox \voidb@x \hbox {.}\egroup }{2017}}
\bibcite{Whitmore1983A}{\citeauthoryear {Whitmore}{1983}}
\bibcite{Yang2016Modularity}{\citeauthoryear {Yang \bgroup et al\unhbox \voidb@x \hbox {.}\egroup }{2016}}
\bibcite{Yang2016Revisiting}{\citeauthoryear {Yang, Cohen, and Salakhutdinov}{2016}}
\bibcite{YangTC16Multi}{\citeauthoryear {Yang, Tang, and Cohen}{2016}}
\bibcite{Zhou2013Learning}{\citeauthoryear {Zhou, Zha, and Song}{2013}}
