%!PS-Adobe-3.0 EPSF-3.0
%%Creator: (MATLAB, The Mathworks, Inc. Version 9.1.0.441655 \(R2016b\). Operating System: Mac OS X)
%%Title: /Users/zhangyuan/ijcai17-submission/auc_vs_cas.eps
%%CreationDate: 2017-02-15T12:23:40
%%Pages: (atend)
%%BoundingBox: 0 0 475 256
%%LanguageLevel: 3
%%EndComments
%%BeginProlog
%%BeginResource: procset (Apache XML Graphics Std ProcSet) 1.2 0
%%Version: 1.2 0
%%Copyright: (Copyright 2001-2003,2010 The Apache Software Foundation. License terms: http://www.apache.org/licenses/LICENSE-2.0)
/bd{bind def}bind def
/ld{load def}bd
/GR/grestore ld
/M/moveto ld
/LJ/setlinejoin ld
/C/curveto ld
/f/fill ld
/LW/setlinewidth ld
/GC/setgray ld
/t/show ld
/N/newpath ld
/CT/concat ld
/cp/closepath ld
/S/stroke ld
/L/lineto ld
/CC/setcmykcolor ld
/A/ashow ld
/GS/gsave ld
/RC/setrgbcolor ld
/RM/rmoveto ld
/ML/setmiterlimit ld
/re {4 2 roll M
1 index 0 rlineto
0 exch rlineto
neg 0 rlineto
cp } bd
/_ctm matrix def
/_tm matrix def
/BT { _ctm currentmatrix pop matrix _tm copy pop 0 0 moveto } bd
/ET { _ctm setmatrix } bd
/iTm { _ctm setmatrix _tm concat } bd
/Tm { _tm astore pop iTm 0 0 moveto } bd
/ux 0.0 def
/uy 0.0 def
/F {
  /Tp exch def
  /Tf exch def
  Tf findfont Tp scalefont setfont
  /cf Tf def  /cs Tp def
} bd
/ULS {currentpoint /uy exch def /ux exch def} bd
/ULE {
  /Tcx currentpoint pop def
  gsave
  newpath
  cf findfont cs scalefont dup
  /FontMatrix get 0 get /Ts exch def /FontInfo get dup
  /UnderlinePosition get Ts mul /To exch def
  /UnderlineThickness get Ts mul /Tt exch def
  ux uy To add moveto  Tcx uy To add lineto
  Tt setlinewidth stroke
  grestore
} bd
/OLE {
  /Tcx currentpoint pop def
  gsave
  newpath
  cf findfont cs scalefont dup
  /FontMatrix get 0 get /Ts exch def /FontInfo get dup
  /UnderlinePosition get Ts mul /To exch def
  /UnderlineThickness get Ts mul /Tt exch def
  ux uy To add cs add moveto Tcx uy To add cs add lineto
  Tt setlinewidth stroke
  grestore
} bd
/SOE {
  /Tcx currentpoint pop def
  gsave
  newpath
  cf findfont cs scalefont dup
  /FontMatrix get 0 get /Ts exch def /FontInfo get dup
  /UnderlinePosition get Ts mul /To exch def
  /UnderlineThickness get Ts mul /Tt exch def
  ux uy To add cs 10 mul 26 idiv add moveto Tcx uy To add cs 10 mul 26 idiv add lineto
  Tt setlinewidth stroke
  grestore
} bd
/QT {
/Y22 exch store
/X22 exch store
/Y21 exch store
/X21 exch store
currentpoint
/Y21 load 2 mul add 3 div exch
/X21 load 2 mul add 3 div exch
/X21 load 2 mul /X22 load add 3 div
/Y21 load 2 mul /Y22 load add 3 div
/X22 load /Y22 load curveto
} bd
/SSPD {
dup length /d exch dict def
{
/v exch def
/k exch def
currentpagedevice k known {
/cpdv currentpagedevice k get def
v cpdv ne {
/upd false def
/nullv v type /nulltype eq def
/nullcpdv cpdv type /nulltype eq def
nullv nullcpdv or
{
/upd true def
} {
/sametype v type cpdv type eq def
sametype {
v type /arraytype eq {
/vlen v length def
/cpdvlen cpdv length def
vlen cpdvlen eq {
0 1 vlen 1 sub {
/i exch def
/obj v i get def
/cpdobj cpdv i get def
obj cpdobj ne {
/upd true def
exit
} if
} for
} {
/upd true def
} ifelse
} {
v type /dicttype eq {
v {
/dv exch def
/dk exch def
/cpddv cpdv dk get def
dv cpddv ne {
/upd true def
exit
} if
} forall
} {
/upd true def
} ifelse
} ifelse
} if
} ifelse
upd true eq {
d k v put
} if
} if
} if
} forall
d length 0 gt {
d setpagedevice
} if
} bd
/RE { % /NewFontName [NewEncodingArray] /FontName RE -
  findfont dup length dict begin
  {
    1 index /FID ne
    {def} {pop pop} ifelse
  } forall
  /Encoding exch def
  /FontName 1 index def
  currentdict definefont pop
  end
} bind def
%%EndResource
%%BeginResource: procset (Apache XML Graphics EPS ProcSet) 1.0 0
%%Version: 1.0 0
%%Copyright: (Copyright 2002-2003 The Apache Software Foundation. License terms: http://www.apache.org/licenses/LICENSE-2.0)
/BeginEPSF { %def
/b4_Inc_state save def         % Save state for cleanup
/dict_count countdictstack def % Count objects on dict stack
/op_count count 1 sub def      % Count objects on operand stack
userdict begin                 % Push userdict on dict stack
/showpage { } def              % Redefine showpage, { } = null proc
0 setgray 0 setlinecap         % Prepare graphics state
1 setlinewidth 0 setlinejoin
10 setmiterlimit [ ] 0 setdash newpath
/languagelevel where           % If level not equal to 1 then
{pop languagelevel             % set strokeadjust and
1 ne                           % overprint to their defaults.
{false setstrokeadjust false setoverprint
} if
} if
} bd
/EndEPSF { %def
count op_count sub {pop} repeat            % Clean up stacks
countdictstack dict_count sub {end} repeat
b4_Inc_state restore
} bd
%%EndResource
%FOPBeginFontDict
%%IncludeResource: font Courier-Bold
%%IncludeResource: font Helvetica
%%IncludeResource: font Courier-BoldOblique
%%IncludeResource: font Courier-Oblique
%%IncludeResource: font Times-Roman
%%IncludeResource: font Helvetica-BoldOblique
%%IncludeResource: font Helvetica-Bold
%%IncludeResource: font Helvetica-Oblique
%%IncludeResource: font Times-BoldItalic
%%IncludeResource: font Courier
%%IncludeResource: font Times-Italic
%%IncludeResource: font Times-Bold
%%IncludeResource: font Symbol
%%IncludeResource: font ZapfDingbats
%FOPEndFontDict
%%BeginResource: encoding WinAnsiEncoding
/WinAnsiEncoding [
/.notdef /.notdef /.notdef /.notdef /.notdef
/.notdef /.notdef /.notdef /.notdef /.notdef
/.notdef /.notdef /.notdef /.notdef /.notdef
/.notdef /.notdef /.notdef /.notdef /.notdef
/.notdef /.notdef /.notdef /.notdef /.notdef
/.notdef /.notdef /.notdef /.notdef /.notdef
/.notdef /.notdef /space /exclam /quotedbl
/numbersign /dollar /percent /ampersand /quotesingle
/parenleft /parenright /asterisk /plus /comma
/hyphen /period /slash /zero /one
/two /three /four /five /six
/seven /eight /nine /colon /semicolon
/less /equal /greater /question /at
/A /B /C /D /E
/F /G /H /I /J
/K /L /M /N /O
/P /Q /R /S /T
/U /V /W /X /Y
/Z /bracketleft /backslash /bracketright /asciicircum
/underscore /quoteleft /a /b /c
/d /e /f /g /h
/i /j /k /l /m
/n /o /p /q /r
/s /t /u /v /w
/x /y /z /braceleft /bar
/braceright /asciitilde /bullet /Euro /bullet
/quotesinglbase /florin /quotedblbase /ellipsis /dagger
/daggerdbl /circumflex /perthousand /Scaron /guilsinglleft
/OE /bullet /Zcaron /bullet /bullet
/quoteleft /quoteright /quotedblleft /quotedblright /bullet
/endash /emdash /asciitilde /trademark /scaron
/guilsinglright /oe /bullet /zcaron /Ydieresis
/space /exclamdown /cent /sterling /currency
/yen /brokenbar /section /dieresis /copyright
/ordfeminine /guillemotleft /logicalnot /sfthyphen /registered
/macron /degree /plusminus /twosuperior /threesuperior
/acute /mu /paragraph /middot /cedilla
/onesuperior /ordmasculine /guillemotright /onequarter /onehalf
/threequarters /questiondown /Agrave /Aacute /Acircumflex
/Atilde /Adieresis /Aring /AE /Ccedilla
/Egrave /Eacute /Ecircumflex /Edieresis /Igrave
/Iacute /Icircumflex /Idieresis /Eth /Ntilde
/Ograve /Oacute /Ocircumflex /Otilde /Odieresis
/multiply /Oslash /Ugrave /Uacute /Ucircumflex
/Udieresis /Yacute /Thorn /germandbls /agrave
/aacute /acircumflex /atilde /adieresis /aring
/ae /ccedilla /egrave /eacute /ecircumflex
/edieresis /igrave /iacute /icircumflex /idieresis
/eth /ntilde /ograve /oacute /ocircumflex
/otilde /odieresis /divide /oslash /ugrave
/uacute /ucircumflex /udieresis /yacute /thorn
/ydieresis
] def
%%EndResource
%FOPBeginFontReencode
/Courier-Bold findfont
dup length dict begin
  {1 index /FID ne {def} {pop pop} ifelse} forall
  /Encoding WinAnsiEncoding def
  currentdict
end
/Courier-Bold exch definefont pop
/Helvetica findfont
dup length dict begin
  {1 index /FID ne {def} {pop pop} ifelse} forall
  /Encoding WinAnsiEncoding def
  currentdict
end
/Helvetica exch definefont pop
/Courier-BoldOblique findfont
dup length dict begin
  {1 index /FID ne {def} {pop pop} ifelse} forall
  /Encoding WinAnsiEncoding def
  currentdict
end
/Courier-BoldOblique exch definefont pop
/Courier-Oblique findfont
dup length dict begin
  {1 index /FID ne {def} {pop pop} ifelse} forall
  /Encoding WinAnsiEncoding def
  currentdict
end
/Courier-Oblique exch definefont pop
/Times-Roman findfont
dup length dict begin
  {1 index /FID ne {def} {pop pop} ifelse} forall
  /Encoding WinAnsiEncoding def
  currentdict
end
/Times-Roman exch definefont pop
/Helvetica-BoldOblique findfont
dup length dict begin
  {1 index /FID ne {def} {pop pop} ifelse} forall
  /Encoding WinAnsiEncoding def
  currentdict
end
/Helvetica-BoldOblique exch definefont pop
/Helvetica-Bold findfont
dup length dict begin
  {1 index /FID ne {def} {pop pop} ifelse} forall
  /Encoding WinAnsiEncoding def
  currentdict
end
/Helvetica-Bold exch definefont pop
/Helvetica-Oblique findfont
dup length dict begin
  {1 index /FID ne {def} {pop pop} ifelse} forall
  /Encoding WinAnsiEncoding def
  currentdict
end
/Helvetica-Oblique exch definefont pop
/Times-BoldItalic findfont
dup length dict begin
  {1 index /FID ne {def} {pop pop} ifelse} forall
  /Encoding WinAnsiEncoding def
  currentdict
end
/Times-BoldItalic exch definefont pop
/Courier findfont
dup length dict begin
  {1 index /FID ne {def} {pop pop} ifelse} forall
  /Encoding WinAnsiEncoding def
  currentdict
end
/Courier exch definefont pop
/Times-Italic findfont
dup length dict begin
  {1 index /FID ne {def} {pop pop} ifelse} forall
  /Encoding WinAnsiEncoding def
  currentdict
end
/Times-Italic exch definefont pop
/Times-Bold findfont
dup length dict begin
  {1 index /FID ne {def} {pop pop} ifelse} forall
  /Encoding WinAnsiEncoding def
  currentdict
end
/Times-Bold exch definefont pop
%FOPEndFontReencode
%%EndProlog
%%Page: 1 1
%%PageBoundingBox: 0 0 475 256
%%BeginPageSetup
[1 0 0 -1 0 256] CT
%%EndPageSetup
GS
1 GC
N
0 0 475 256 re
f
GR
GS
1 GC
N
0 0 475 256 re
f
GR
GS
1 GC
N
62 218.5 M
430 218.5 L
430 12.5 L
62 12.5 L
cp
f
GR
GS
0.149 GC
2 setlinecap
1 LJ
0.5 LW
N
62 218.5 M
430 218.5 L
S
GR
GS
0.149 GC
2 setlinecap
1 LJ
0.5 LW
N
62 12.5 M
430 12.5 L
S
GR
GS
0.149 GC
2 setlinecap
1 LJ
0.5 LW
N
78.727 218.5 M
78.727 214.82 L
S
GR
GS
0.149 GC
2 setlinecap
1 LJ
0.5 LW
N
162.364 218.5 M
162.364 214.82 L
S
GR
GS
0.149 GC
2 setlinecap
1 LJ
0.5 LW
N
246 218.5 M
246 214.82 L
S
GR
GS
0.149 GC
2 setlinecap
1 LJ
0.5 LW
N
329.636 218.5 M
329.636 214.82 L
S
GR
GS
0.149 GC
2 setlinecap
1 LJ
0.5 LW
N
413.273 218.5 M
413.273 214.82 L
S
GR
GS
0.149 GC
2 setlinecap
1 LJ
0.5 LW
N
78.727 12.5 M
78.727 16.18 L
S
GR
GS
0.149 GC
2 setlinecap
1 LJ
0.5 LW
N
162.364 12.5 M
162.364 16.18 L
S
GR
GS
0.149 GC
2 setlinecap
1 LJ
0.5 LW
N
246 12.5 M
246 16.18 L
S
GR
GS
0.149 GC
2 setlinecap
1 LJ
0.5 LW
N
329.636 12.5 M
329.636 16.18 L
S
GR
GS
0.149 GC
2 setlinecap
1 LJ
0.5 LW
N
413.273 12.5 M
413.273 16.18 L
S
GR
GS
[1 0 0 1 78.72727 222.90005] CT
0.149 GC
/Helvetica 12 F
GS
[1 0 0 1 0 0] CT
-13.5 12 moveto 
1 -1 scale
(1000) t 
GR
GR
GS
[1 0 0 1 162.36363 222.90005] CT
0.149 GC
/Helvetica 12 F
GS
[1 0 0 1 0 0] CT
-13.5 12 moveto 
1 -1 scale
(1500) t 
GR
GR
GS
[1 0 0 1 246 222.90005] CT
0.149 GC
/Helvetica 12 F
GS
[1 0 0 1 0 0] CT
-13.5 12 moveto 
1 -1 scale
(2000) t 
GR
GR
GS
[1 0 0 1 329.63635 222.90005] CT
0.149 GC
/Helvetica 12 F
GS
[1 0 0 1 0 0] CT
-13.5 12 moveto 
1 -1 scale
(2500) t 
GR
GR
GS
[1 0 0 1 413.27274 222.90005] CT
0.149 GC
/Helvetica 12 F
GS
[1 0 0 1 0 0] CT
-13.5 12 moveto 
1 -1 scale
(3000) t 
GR
GR
GS
[1 0 0 1 186 251] CT
0.149 GC
/Helvetica 14 F
GS
[1 0 0 1 0 0] CT
0 0 moveto 
1 -1 scale
(#training_cascades) t 
GR
GR
GS
0.149 GC
2 setlinecap
1 LJ
0.5 LW
N
62 218.5 M
62 12.5 L
S
GR
GS
0.149 GC
2 setlinecap
1 LJ
0.5 LW
N
430 218.5 M
430 12.5 L
S
GR
GS
0.149 GC
2 setlinecap
1 LJ
0.5 LW
N
62 218.5 M
65.68 218.5 L
S
GR
GS
0.149 GC
2 setlinecap
1 LJ
0.5 LW
N
62 167 M
65.68 167 L
S
GR
GS
0.149 GC
2 setlinecap
1 LJ
0.5 LW
N
62 115.5 M
65.68 115.5 L
S
GR
GS
0.149 GC
2 setlinecap
1 LJ
0.5 LW
N
62 64 M
65.68 64 L
S
GR
GS
0.149 GC
2 setlinecap
1 LJ
0.5 LW
N
62 12.5 M
65.68 12.5 L
S
GR
GS
0.149 GC
2 setlinecap
1 LJ
0.5 LW
N
430 218.5 M
426.32 218.5 L
S
GR
GS
0.149 GC
2 setlinecap
1 LJ
0.5 LW
N
430 167 M
426.32 167 L
S
GR
GS
0.149 GC
2 setlinecap
1 LJ
0.5 LW
N
430 115.5 M
426.32 115.5 L
S
GR
GS
0.149 GC
2 setlinecap
1 LJ
0.5 LW
N
430 64 M
426.32 64 L
S
GR
GS
0.149 GC
2 setlinecap
1 LJ
0.5 LW
N
430 12.5 M
426.32 12.5 L
S
GR
GS
[1 0 0 1 57.60001 218.50003] CT
0.149 GC
/Helvetica 12 F
GS
[1 0 0 1 0 0] CT
-24 4.5 moveto 
1 -1 scale
(0.77) t 
GR
GR
GS
[1 0 0 1 57.60001 166.99998] CT
0.149 GC
/Helvetica 12 F
GS
[1 0 0 1 0 0] CT
-17 4.5 moveto 
1 -1 scale
(0.8) t 
GR
GR
GS
[1 0 0 1 57.60001 115.50003] CT
0.149 GC
/Helvetica 12 F
GS
[1 0 0 1 0 0] CT
-24 4.5 moveto 
1 -1 scale
(0.83) t 
GR
GR
GS
[1 0 0 1 57.60001 63.99998] CT
0.149 GC
/Helvetica 12 F
GS
[1 0 0 1 0 0] CT
-24 4.5 moveto 
1 -1 scale
(0.86) t 
GR
GR
GS
[1 0 0 1 57.60001 12.50002] CT
0.149 GC
/Helvetica 12 F
GS
[1 0 0 1 0 0] CT
-24 4.5 moveto 
1 -1 scale
(0.89) t 
GR
GR
GS
[0 -1 1 0 30.21682 113.87046] CT
0.149 GC
/Helvetica 14 F
GS
[1 0 0 1 0 0] CT
-15 -3 moveto 
1 -1 scale
(AUC) t 
GR
GR
GS
0.247 GC
1 LJ
2 LW
N
78.727 160.683 M
162.364 147.88 L
246 83.001 L
329.636 71.824 L
413.273 61.535 L
S
GR
GS
[1 0 0 1 78.72727 160.68307] CT
0.247 GC
N
-2 -2 M
-2 2 L
2 2 L
2 -2 L
cp
f
GR
GS
[1 0 0 1 78.72727 160.68307] CT
0.247 GC
10.0 ML
2 LW
N
-2 -2 M
-2 2 L
2 2 L
2 -2 L
cp
S
GR
GS
[1 0 0 1 162.36363 147.87971] CT
0.247 GC
N
/f701565780{-2 -2 M
-2 2 L
2 2 L
2 -2 L
cp}def
f701565780
f
GR
GS
[1 0 0 1 162.36363 147.87971] CT
0.247 GC
10.0 ML
2 LW
N
-2 -2 M
-2 2 L
2 2 L
2 -2 L
cp
S
GR
GS
[1 0 0 1 246 83.00094] CT
0.247 GC
N
f701565780
f
GR
GS
[1 0 0 1 246 83.00094] CT
0.247 GC
10.0 ML
2 LW
N
-2 -2 M
-2 2 L
2 2 L
2 -2 L
cp
S
GR
GS
[1 0 0 1 329.63635 71.82449] CT
0.247 GC
N
f701565780
f
GR
GS
[1 0 0 1 329.63635 71.82449] CT
0.247 GC
10.0 ML
2 LW
N
-2 -2 M
-2 2 L
2 2 L
2 -2 L
cp
S
GR
GS
[1 0 0 1 413.27274 61.53485] CT
0.247 GC
N
f701565780
f
GR
GS
[1 0 0 1 413.27274 61.53485] CT
0.247 GC
10.0 ML
2 LW
N
-2 -2 M
-2 2 L
2 2 L
2 -2 L
cp
S
GR
GS
1 0.6 0.784 RC
1 LJ
2 LW
N
78.727 198.643 M
162.364 145.477 L
246 127.159 L
329.636 109.147 L
413.273 90.709 L
S
GR
GS
[1 0 0 1 78.72727 198.64284] CT
1 0.6 0.784 RC
N
/f598939798{0 -3.999 M
-3.463 1.999 L
3.463 1.999 L
cp}def
f598939798
f
GR
GS
[1 0 0 1 78.72727 198.64284] CT
1 0.6 0.784 RC
10.0 ML
2 LW
N
0 -3.999 M
-3.463 1.999 L
3.463 1.999 L
cp
S
GR
GS
[1 0 0 1 162.36363 145.4774] CT
1 0.6 0.784 RC
N
f598939798
f
GR
GS
[1 0 0 1 162.36363 145.4774] CT
1 0.6 0.784 RC
10.0 ML
2 LW
N
0 -3.999 M
-3.463 1.999 L
3.463 1.999 L
cp
S
GR
GS
[1 0 0 1 246 127.15893] CT
1 0.6 0.784 RC
N
f598939798
f
GR
GS
[1 0 0 1 246 127.15893] CT
1 0.6 0.784 RC
10.0 ML
2 LW
N
0 -3.999 M
-3.463 1.999 L
3.463 1.999 L
cp
S
GR
GS
[1 0 0 1 329.63635 109.14721] CT
1 0.6 0.784 RC
N
f598939798
f
GR
GS
[1 0 0 1 329.63635 109.14721] CT
1 0.6 0.784 RC
10.0 ML
2 LW
N
0 -3.999 M
-3.463 1.999 L
3.463 1.999 L
cp
S
GR
GS
[1 0 0 1 413.27274 90.70901] CT
1 0.6 0.784 RC
N
f598939798
f
GR
GS
[1 0 0 1 413.27274 90.70901] CT
1 0.6 0.784 RC
10.0 ML
2 LW
N
0 -3.999 M
-3.463 1.999 L
3.463 1.999 L
cp
S
GR
GS
0.302 0.745 0.933 RC
1 LJ
2 LW
N
78.727 74.428 M
162.364 60.855 L
246 45.893 L
329.636 40.084 L
413.273 31.294 L
S
GR
GS
[1 0 0 1 78.72727 74.42795] CT
0.302 0.745 0.933 RC
N
/f-750413395{1.5 -0.5 M
1.5 -1.605 0.605 -2.5 -0.5 -2.5 C
-1.605 -2.5 -2.5 -1.605 -2.5 -0.5 C
-2.5 0.605 -1.605 1.5 -0.5 1.5 C
0.605 1.5 1.5 0.605 1.5 -0.5 C}def
f-750413395
f
GR
GS
[1 0 0 1 78.72727 74.42795] CT
0.302 0.745 0.933 RC
10.0 ML
2 LW
N
1.5 -0.5 M
1.5 -1.605 0.605 -2.5 -0.5 -2.5 C
-1.605 -2.5 -2.5 -1.605 -2.5 -0.5 C
-2.5 0.605 -1.605 1.5 -0.5 1.5 C
0.605 1.5 1.5 0.605 1.5 -0.5 C
S
GR
GS
[1 0 0 1 162.36363 60.85462] CT
0.302 0.745 0.933 RC
N
f-750413395
f
GR
GS
[1 0 0 1 162.36363 60.85462] CT
0.302 0.745 0.933 RC
10.0 ML
2 LW
N
1.5 -0.5 M
1.5 -1.605 0.605 -2.5 -0.5 -2.5 C
-1.605 -2.5 -2.5 -1.605 -2.5 -0.5 C
-2.5 0.605 -1.605 1.5 -0.5 1.5 C
0.605 1.5 1.5 0.605 1.5 -0.5 C
S
GR
GS
[1 0 0 1 246 45.89268] CT
0.302 0.745 0.933 RC
N
f-750413395
f
GR
GS
[1 0 0 1 246 45.89268] CT
0.302 0.745 0.933 RC
10.0 ML
2 LW
N
1.5 -0.5 M
1.5 -1.605 0.605 -2.5 -0.5 -2.5 C
-1.605 -2.5 -2.5 -1.605 -2.5 -0.5 C
-2.5 0.605 -1.605 1.5 -0.5 1.5 C
0.605 1.5 1.5 0.605 1.5 -0.5 C
S
GR
GS
[1 0 0 1 329.63635 40.0838] CT
0.302 0.745 0.933 RC
N
f-750413395
f
GR
GS
[1 0 0 1 329.63635 40.0838] CT
0.302 0.745 0.933 RC
10.0 ML
2 LW
N
1.5 -0.5 M
1.5 -1.605 0.605 -2.5 -0.5 -2.5 C
-1.605 -2.5 -2.5 -1.605 -2.5 -0.5 C
-2.5 0.605 -1.605 1.5 -0.5 1.5 C
0.605 1.5 1.5 0.605 1.5 -0.5 C
S
GR
GS
[1 0 0 1 413.27274 31.2943] CT
0.302 0.745 0.933 RC
N
f-750413395
f
GR
GS
[1 0 0 1 413.27274 31.2943] CT
0.302 0.745 0.933 RC
10.0 ML
2 LW
N
1.5 -0.5 M
1.5 -1.605 0.605 -2.5 -0.5 -2.5 C
-1.605 -2.5 -2.5 -1.605 -2.5 -0.5 C
-2.5 0.605 -1.605 1.5 -0.5 1.5 C
0.605 1.5 1.5 0.605 1.5 -0.5 C
S
GR
GS
1 GC
N
/f-1946379958{133 22.5 M
133 5 L
359 5 L
359 22.5 L
cp}def
f-1946379958
f
GR
GS
[1 0 0 1 171.22676 13.5] CT
/Helvetica 10.8 F
GS
[1 0 0 1 0 0] CT
0 4 moveto 
1 -1 scale
(CDK) t 
GR
GR
GS
0.247 GC
1 LJ
2 LW
N
138.239 13.5 M
168.228 13.5 L
S
GR
GS
[1 0 0 1 153.23355 13.5] CT
0.247 GC
N
f701565780
f
GR
GS
[1 0 0 1 153.23355 13.5] CT
0.247 GC
10.0 ML
2 LW
N
-2 -2 M
-2 2 L
2 2 L
2 -2 L
cp
S
GR
GS
[1 0 0 1 234.25444 13.5] CT
/Helvetica 10.8 F
GS
[1 0 0 1 0 0] CT
0 4 moveto 
1 -1 scale
(Pipeline) t 
GR
GR
GS
1 0.6 0.784 RC
1 LJ
2 LW
N
201.267 13.5 M
231.256 13.5 L
S
GR
GS
[1 0 0 1 216.26123 13.5] CT
1 0.6 0.784 RC
N
f598939798
f
GR
GS
[1 0 0 1 216.26123 13.5] CT
1 0.6 0.784 RC
10.0 ML
2 LW
N
0 -3.999 M
-3.463 1.999 L
3.463 1.999 L
cp
S
GR
GS
[1 0 0 1 312.77628 13.5] CT
/Helvetica 10.8 F
GS
[1 0 0 1 0 0] CT
0 4 moveto 
1 -1 scale
(COSINE) t 
GR
GR
GS
0.302 0.745 0.933 RC
1 LJ
2 LW
N
279.789 13.5 M
309.777 13.5 L
S
GR
GS
[1 0 0 1 294.78305 13.5] CT
0.302 0.745 0.933 RC
N
f-750413395
f
GR
GS
[1 0 0 1 294.78305 13.5] CT
0.302 0.745 0.933 RC
10.0 ML
2 LW
N
1.5 -0.5 M
1.5 -1.605 0.605 -2.5 -0.5 -2.5 C
-1.605 -2.5 -2.5 -1.605 -2.5 -0.5 C
-2.5 0.605 -1.605 1.5 -0.5 1.5 C
0.605 1.5 1.5 0.605 1.5 -0.5 C
S
GR
GS
0.149 GC
10.0 ML
0.5 LW
N
133 22.5 M
133 5 L
359 5 L
359 22.5 L
cp
S
GR
%%Trailer
%%Pages: 1
%%EOF
