%!PS-Adobe-3.0 EPSF-3.0
%%Creator: (MATLAB, The Mathworks, Inc. Version 9.1.0.441655 \(R2016b\). Operating System: Mac OS X)
%%Title: /Users/zhangyuan/ijcai17-submission/nmi.eps
%%CreationDate: 2017-02-15T10:58:31
%%Pages: (atend)
%%BoundingBox: 0 0 695 399
%%LanguageLevel: 3
%%EndComments
%%BeginProlog
%%BeginResource: procset (Apache XML Graphics Std ProcSet) 1.2 0
%%Version: 1.2 0
%%Copyright: (Copyright 2001-2003,2010 The Apache Software Foundation. License terms: http://www.apache.org/licenses/LICENSE-2.0)
/bd{bind def}bind def
/ld{load def}bd
/GR/grestore ld
/M/moveto ld
/LJ/setlinejoin ld
/C/curveto ld
/f/fill ld
/LW/setlinewidth ld
/GC/setgray ld
/t/show ld
/N/newpath ld
/CT/concat ld
/cp/closepath ld
/S/stroke ld
/L/lineto ld
/CC/setcmykcolor ld
/A/ashow ld
/GS/gsave ld
/RC/setrgbcolor ld
/RM/rmoveto ld
/ML/setmiterlimit ld
/re {4 2 roll M
1 index 0 rlineto
0 exch rlineto
neg 0 rlineto
cp } bd
/_ctm matrix def
/_tm matrix def
/BT { _ctm currentmatrix pop matrix _tm copy pop 0 0 moveto } bd
/ET { _ctm setmatrix } bd
/iTm { _ctm setmatrix _tm concat } bd
/Tm { _tm astore pop iTm 0 0 moveto } bd
/ux 0.0 def
/uy 0.0 def
/F {
  /Tp exch def
  /Tf exch def
  Tf findfont Tp scalefont setfont
  /cf Tf def  /cs Tp def
} bd
/ULS {currentpoint /uy exch def /ux exch def} bd
/ULE {
  /Tcx currentpoint pop def
  gsave
  newpath
  cf findfont cs scalefont dup
  /FontMatrix get 0 get /Ts exch def /FontInfo get dup
  /UnderlinePosition get Ts mul /To exch def
  /UnderlineThickness get Ts mul /Tt exch def
  ux uy To add moveto  Tcx uy To add lineto
  Tt setlinewidth stroke
  grestore
} bd
/OLE {
  /Tcx currentpoint pop def
  gsave
  newpath
  cf findfont cs scalefont dup
  /FontMatrix get 0 get /Ts exch def /FontInfo get dup
  /UnderlinePosition get Ts mul /To exch def
  /UnderlineThickness get Ts mul /Tt exch def
  ux uy To add cs add moveto Tcx uy To add cs add lineto
  Tt setlinewidth stroke
  grestore
} bd
/SOE {
  /Tcx currentpoint pop def
  gsave
  newpath
  cf findfont cs scalefont dup
  /FontMatrix get 0 get /Ts exch def /FontInfo get dup
  /UnderlinePosition get Ts mul /To exch def
  /UnderlineThickness get Ts mul /Tt exch def
  ux uy To add cs 10 mul 26 idiv add moveto Tcx uy To add cs 10 mul 26 idiv add lineto
  Tt setlinewidth stroke
  grestore
} bd
/QT {
/Y22 exch store
/X22 exch store
/Y21 exch store
/X21 exch store
currentpoint
/Y21 load 2 mul add 3 div exch
/X21 load 2 mul add 3 div exch
/X21 load 2 mul /X22 load add 3 div
/Y21 load 2 mul /Y22 load add 3 div
/X22 load /Y22 load curveto
} bd
/SSPD {
dup length /d exch dict def
{
/v exch def
/k exch def
currentpagedevice k known {
/cpdv currentpagedevice k get def
v cpdv ne {
/upd false def
/nullv v type /nulltype eq def
/nullcpdv cpdv type /nulltype eq def
nullv nullcpdv or
{
/upd true def
} {
/sametype v type cpdv type eq def
sametype {
v type /arraytype eq {
/vlen v length def
/cpdvlen cpdv length def
vlen cpdvlen eq {
0 1 vlen 1 sub {
/i exch def
/obj v i get def
/cpdobj cpdv i get def
obj cpdobj ne {
/upd true def
exit
} if
} for
} {
/upd true def
} ifelse
} {
v type /dicttype eq {
v {
/dv exch def
/dk exch def
/cpddv cpdv dk get def
dv cpddv ne {
/upd true def
exit
} if
} forall
} {
/upd true def
} ifelse
} ifelse
} if
} ifelse
upd true eq {
d k v put
} if
} if
} if
} forall
d length 0 gt {
d setpagedevice
} if
} bd
/RE { % /NewFontName [NewEncodingArray] /FontName RE -
  findfont dup length dict begin
  {
    1 index /FID ne
    {def} {pop pop} ifelse
  } forall
  /Encoding exch def
  /FontName 1 index def
  currentdict definefont pop
  end
} bind def
%%EndResource
%%BeginResource: procset (Apache XML Graphics EPS ProcSet) 1.0 0
%%Version: 1.0 0
%%Copyright: (Copyright 2002-2003 The Apache Software Foundation. License terms: http://www.apache.org/licenses/LICENSE-2.0)
/BeginEPSF { %def
/b4_Inc_state save def         % Save state for cleanup
/dict_count countdictstack def % Count objects on dict stack
/op_count count 1 sub def      % Count objects on operand stack
userdict begin                 % Push userdict on dict stack
/showpage { } def              % Redefine showpage, { } = null proc
0 setgray 0 setlinecap         % Prepare graphics state
1 setlinewidth 0 setlinejoin
10 setmiterlimit [ ] 0 setdash newpath
/languagelevel where           % If level not equal to 1 then
{pop languagelevel             % set strokeadjust and
1 ne                           % overprint to their defaults.
{false setstrokeadjust false setoverprint
} if
} if
} bd
/EndEPSF { %def
count op_count sub {pop} repeat            % Clean up stacks
countdictstack dict_count sub {end} repeat
b4_Inc_state restore
} bd
%%EndResource
%FOPBeginFontDict
%%IncludeResource: font Courier-Bold
%%IncludeResource: font Helvetica
%%IncludeResource: font Courier-BoldOblique
%%IncludeResource: font Courier-Oblique
%%IncludeResource: font Times-Roman
%%IncludeResource: font Helvetica-BoldOblique
%%IncludeResource: font Helvetica-Bold
%%IncludeResource: font Helvetica-Oblique
%%IncludeResource: font Times-BoldItalic
%%IncludeResource: font Courier
%%IncludeResource: font Times-Italic
%%IncludeResource: font Times-Bold
%%IncludeResource: font Symbol
%%IncludeResource: font ZapfDingbats
%FOPEndFontDict
%%BeginResource: encoding WinAnsiEncoding
/WinAnsiEncoding [
/.notdef /.notdef /.notdef /.notdef /.notdef
/.notdef /.notdef /.notdef /.notdef /.notdef
/.notdef /.notdef /.notdef /.notdef /.notdef
/.notdef /.notdef /.notdef /.notdef /.notdef
/.notdef /.notdef /.notdef /.notdef /.notdef
/.notdef /.notdef /.notdef /.notdef /.notdef
/.notdef /.notdef /space /exclam /quotedbl
/numbersign /dollar /percent /ampersand /quotesingle
/parenleft /parenright /asterisk /plus /comma
/hyphen /period /slash /zero /one
/two /three /four /five /six
/seven /eight /nine /colon /semicolon
/less /equal /greater /question /at
/A /B /C /D /E
/F /G /H /I /J
/K /L /M /N /O
/P /Q /R /S /T
/U /V /W /X /Y
/Z /bracketleft /backslash /bracketright /asciicircum
/underscore /quoteleft /a /b /c
/d /e /f /g /h
/i /j /k /l /m
/n /o /p /q /r
/s /t /u /v /w
/x /y /z /braceleft /bar
/braceright /asciitilde /bullet /Euro /bullet
/quotesinglbase /florin /quotedblbase /ellipsis /dagger
/daggerdbl /circumflex /perthousand /Scaron /guilsinglleft
/OE /bullet /Zcaron /bullet /bullet
/quoteleft /quoteright /quotedblleft /quotedblright /bullet
/endash /emdash /asciitilde /trademark /scaron
/guilsinglright /oe /bullet /zcaron /Ydieresis
/space /exclamdown /cent /sterling /currency
/yen /brokenbar /section /dieresis /copyright
/ordfeminine /guillemotleft /logicalnot /sfthyphen /registered
/macron /degree /plusminus /twosuperior /threesuperior
/acute /mu /paragraph /middot /cedilla
/onesuperior /ordmasculine /guillemotright /onequarter /onehalf
/threequarters /questiondown /Agrave /Aacute /Acircumflex
/Atilde /Adieresis /Aring /AE /Ccedilla
/Egrave /Eacute /Ecircumflex /Edieresis /Igrave
/Iacute /Icircumflex /Idieresis /Eth /Ntilde
/Ograve /Oacute /Ocircumflex /Otilde /Odieresis
/multiply /Oslash /Ugrave /Uacute /Ucircumflex
/Udieresis /Yacute /Thorn /germandbls /agrave
/aacute /acircumflex /atilde /adieresis /aring
/ae /ccedilla /egrave /eacute /ecircumflex
/edieresis /igrave /iacute /icircumflex /idieresis
/eth /ntilde /ograve /oacute /ocircumflex
/otilde /odieresis /divide /oslash /ugrave
/uacute /ucircumflex /udieresis /yacute /thorn
/ydieresis
] def
%%EndResource
%FOPBeginFontReencode
/Courier-Bold findfont
dup length dict begin
  {1 index /FID ne {def} {pop pop} ifelse} forall
  /Encoding WinAnsiEncoding def
  currentdict
end
/Courier-Bold exch definefont pop
/Helvetica findfont
dup length dict begin
  {1 index /FID ne {def} {pop pop} ifelse} forall
  /Encoding WinAnsiEncoding def
  currentdict
end
/Helvetica exch definefont pop
/Courier-BoldOblique findfont
dup length dict begin
  {1 index /FID ne {def} {pop pop} ifelse} forall
  /Encoding WinAnsiEncoding def
  currentdict
end
/Courier-BoldOblique exch definefont pop
/Courier-Oblique findfont
dup length dict begin
  {1 index /FID ne {def} {pop pop} ifelse} forall
  /Encoding WinAnsiEncoding def
  currentdict
end
/Courier-Oblique exch definefont pop
/Times-Roman findfont
dup length dict begin
  {1 index /FID ne {def} {pop pop} ifelse} forall
  /Encoding WinAnsiEncoding def
  currentdict
end
/Times-Roman exch definefont pop
/Helvetica-BoldOblique findfont
dup length dict begin
  {1 index /FID ne {def} {pop pop} ifelse} forall
  /Encoding WinAnsiEncoding def
  currentdict
end
/Helvetica-BoldOblique exch definefont pop
/Helvetica-Bold findfont
dup length dict begin
  {1 index /FID ne {def} {pop pop} ifelse} forall
  /Encoding WinAnsiEncoding def
  currentdict
end
/Helvetica-Bold exch definefont pop
/Helvetica-Oblique findfont
dup length dict begin
  {1 index /FID ne {def} {pop pop} ifelse} forall
  /Encoding WinAnsiEncoding def
  currentdict
end
/Helvetica-Oblique exch definefont pop
/Times-BoldItalic findfont
dup length dict begin
  {1 index /FID ne {def} {pop pop} ifelse} forall
  /Encoding WinAnsiEncoding def
  currentdict
end
/Times-BoldItalic exch definefont pop
/Courier findfont
dup length dict begin
  {1 index /FID ne {def} {pop pop} ifelse} forall
  /Encoding WinAnsiEncoding def
  currentdict
end
/Courier exch definefont pop
/Times-Italic findfont
dup length dict begin
  {1 index /FID ne {def} {pop pop} ifelse} forall
  /Encoding WinAnsiEncoding def
  currentdict
end
/Times-Italic exch definefont pop
/Times-Bold findfont
dup length dict begin
  {1 index /FID ne {def} {pop pop} ifelse} forall
  /Encoding WinAnsiEncoding def
  currentdict
end
/Times-Bold exch definefont pop
%FOPEndFontReencode
%%EndProlog
%%Page: 1 1
%%PageBoundingBox: 0 0 695 399
%%BeginPageSetup
[1 0 0 -1 0 399] CT
%%EndPageSetup
GS
1 GC
N
0 0 695 399 re
f
GR
GS
1 GC
N
0 0 695 399 re
f
GR
GS
1 GC
N
90.5 355 M
629 355 L
629 30 L
90.5 30 L
cp
f
GR
GS
0.149 GC
1 LJ
0.5 LW
N
90.5 355 M
629 355 L
S
GR
GS
0.208 0.165 0.525 RC
N
105.757 355 M
120.118 355 L
120.118 111.333 L
105.757 111.333 L
cp
f
GR
GS
0.208 0.165 0.525 RC
N
240.383 355 M
254.743 355 L
254.743 152.592 L
240.383 152.592 L
cp
f
GR
GS
0.208 0.165 0.525 RC
N
375.007 355 M
389.367 355 L
389.367 187.344 L
375.007 187.344 L
cp
f
GR
GS
0.208 0.165 0.525 RC
N
509.632 355 M
523.992 355 L
523.992 231.868 L
509.632 231.868 L
cp
f
GR
GS
10.0 ML
0.5 LW
N
105.757 355 M
105.757 111.333 L
120.118 111.333 L
120.118 355 L
cp
S
GR
GS
10.0 ML
0.5 LW
N
240.383 355 M
240.383 152.592 L
254.743 152.592 L
254.743 355 L
cp
S
GR
GS
10.0 ML
0.5 LW
N
375.007 355 M
375.007 187.344 L
389.367 187.344 L
389.367 355 L
cp
S
GR
GS
10.0 ML
0.5 LW
N
509.632 355 M
509.632 231.868 L
523.992 231.868 L
523.992 355 L
cp
S
GR
GS
0.047 0.455 0.863 RC
N
123.707 355 M
138.068 355 L
138.068 121.49 L
123.707 121.49 L
cp
f
GR
GS
0.047 0.455 0.863 RC
N
258.332 355 M
272.693 355 L
272.693 159.271 L
258.332 159.271 L
cp
f
GR
GS
0.047 0.455 0.863 RC
N
392.957 355 M
407.317 355 L
407.317 217.354 L
392.957 217.354 L
cp
f
GR
GS
0.047 0.455 0.863 RC
N
527.583 355 M
541.943 355 L
541.943 250.027 L
527.583 250.027 L
cp
f
GR
GS
10.0 ML
0.5 LW
N
123.707 355 M
123.707 121.49 L
138.068 121.49 L
138.068 355 L
cp
S
GR
GS
10.0 ML
0.5 LW
N
258.332 355 M
258.332 159.271 L
272.693 159.271 L
272.693 355 L
cp
S
GR
GS
10.0 ML
0.5 LW
N
392.957 355 M
392.957 217.354 L
407.317 217.354 L
407.317 355 L
cp
S
GR
GS
10.0 ML
0.5 LW
N
527.583 355 M
527.583 250.027 L
541.943 250.027 L
541.943 355 L
cp
S
GR
GS
0.024 0.663 0.757 RC
N
141.658 355 M
156.018 355 L
156.018 72.586 L
141.658 72.586 L
cp
f
GR
GS
0.024 0.663 0.757 RC
N
276.283 355 M
290.642 355 L
290.642 120.622 L
276.283 120.622 L
cp
f
GR
GS
0.024 0.663 0.757 RC
N
410.908 355 M
425.267 355 L
425.267 157.646 L
410.908 157.646 L
cp
f
GR
GS
0.024 0.663 0.757 RC
N
545.533 355 M
559.893 355 L
559.893 209.223 L
545.533 209.223 L
cp
f
GR
GS
10.0 ML
0.5 LW
N
141.658 355 M
141.658 72.586 L
156.018 72.586 L
156.018 355 L
cp
S
GR
GS
10.0 ML
0.5 LW
N
276.283 355 M
276.283 120.622 L
290.642 120.622 L
290.642 355 L
cp
S
GR
GS
10.0 ML
0.5 LW
N
410.908 355 M
410.908 157.646 L
425.267 157.646 L
425.267 355 L
cp
S
GR
GS
10.0 ML
0.5 LW
N
545.533 355 M
545.533 209.223 L
559.893 209.223 L
559.893 355 L
cp
S
GR
GS
0.486 0.749 0.482 RC
N
159.607 355 M
173.967 355 L
173.967 96.73 L
159.607 96.73 L
cp
f
GR
GS
0.486 0.749 0.482 RC
N
294.233 355 M
308.592 355 L
308.592 112.653 L
294.233 112.653 L
cp
f
GR
GS
0.486 0.749 0.482 RC
N
428.858 355 M
443.217 355 L
443.217 146.169 L
428.858 146.169 L
cp
f
GR
GS
0.486 0.749 0.482 RC
N
563.482 355 M
577.842 355 L
577.842 184.062 L
563.482 184.062 L
cp
f
GR
GS
10.0 ML
0.5 LW
N
159.607 355 M
159.607 96.73 L
173.967 96.73 L
173.967 355 L
cp
S
GR
GS
10.0 ML
0.5 LW
N
294.233 355 M
294.233 112.653 L
308.592 112.653 L
308.592 355 L
cp
S
GR
GS
10.0 ML
0.5 LW
N
428.858 355 M
428.858 146.169 L
443.217 146.169 L
443.217 355 L
cp
S
GR
GS
10.0 ML
0.5 LW
N
563.482 355 M
563.482 184.062 L
577.842 184.062 L
577.842 355 L
cp
S
GR
GS
0.941 0.725 0.286 RC
N
177.557 355 M
191.917 355 L
191.917 140.821 L
177.557 140.821 L
cp
f
GR
GS
0.941 0.725 0.286 RC
N
312.183 355 M
326.543 355 L
326.543 147.264 L
312.183 147.264 L
cp
f
GR
GS
0.941 0.725 0.286 RC
N
446.808 355 M
461.168 355 L
461.168 170.806 L
446.808 170.806 L
cp
f
GR
GS
0.941 0.725 0.286 RC
N
581.432 355 M
595.793 355 L
595.793 253.585 L
581.432 253.585 L
cp
f
GR
GS
10.0 ML
0.5 LW
N
177.557 355 M
177.557 140.821 L
191.917 140.821 L
191.917 355 L
cp
S
GR
GS
10.0 ML
0.5 LW
N
312.183 355 M
312.183 147.264 L
326.543 147.264 L
326.543 355 L
cp
S
GR
GS
10.0 ML
0.5 LW
N
446.808 355 M
446.808 170.806 L
461.168 170.806 L
461.168 355 L
cp
S
GR
GS
10.0 ML
0.5 LW
N
581.432 355 M
581.432 253.585 L
595.793 253.585 L
595.793 355 L
cp
S
GR
GS
0.973 0.98 0.051 RC
N
195.507 355 M
209.867 355 L
209.867 54.99 L
195.507 54.99 L
cp
f
GR
GS
0.973 0.98 0.051 RC
N
330.133 355 M
344.493 355 L
344.493 78.638 L
330.133 78.638 L
cp
f
GR
GS
0.973 0.98 0.051 RC
N
464.758 355 M
479.118 355 L
479.118 100.212 L
464.758 100.212 L
cp
f
GR
GS
0.973 0.98 0.051 RC
N
599.383 355 M
613.742 355 L
613.742 122.399 L
599.383 122.399 L
cp
f
GR
GS
10.0 ML
0.5 LW
N
195.507 355 M
195.507 54.99 L
209.867 54.99 L
209.867 355 L
cp
S
GR
GS
10.0 ML
0.5 LW
N
330.133 355 M
330.133 78.638 L
344.493 78.638 L
344.493 355 L
cp
S
GR
GS
10.0 ML
0.5 LW
N
464.758 355 M
464.758 100.212 L
479.118 100.212 L
479.118 355 L
cp
S
GR
GS
10.0 ML
0.5 LW
N
599.383 355 M
599.383 122.399 L
613.742 122.399 L
613.742 355 L
cp
S
GR
GS
0.149 GC
2 setlinecap
1 LJ
0.5 LW
N
90.5 355 M
629 355 L
S
GR
GS
0.149 GC
2 setlinecap
1 LJ
0.5 LW
N
90.5 30 M
629 30 L
S
GR
GS
0.149 GC
2 setlinecap
1 LJ
0.5 LW
N
157.813 355 M
157.813 349.615 L
S
GR
GS
0.149 GC
2 setlinecap
1 LJ
0.5 LW
N
292.438 355 M
292.438 349.615 L
S
GR
GS
0.149 GC
2 setlinecap
1 LJ
0.5 LW
N
427.063 355 M
427.063 349.615 L
S
GR
GS
0.149 GC
2 setlinecap
1 LJ
0.5 LW
N
561.688 355 M
561.688 349.615 L
S
GR
GS
0.149 GC
2 setlinecap
1 LJ
0.5 LW
N
157.813 30 M
157.813 35.385 L
S
GR
GS
0.149 GC
2 setlinecap
1 LJ
0.5 LW
N
292.438 30 M
292.438 35.385 L
S
GR
GS
0.149 GC
2 setlinecap
1 LJ
0.5 LW
N
427.063 30 M
427.063 35.385 L
S
GR
GS
0.149 GC
2 setlinecap
1 LJ
0.5 LW
N
561.688 30 M
561.688 35.385 L
S
GR
GS
[1 0 0 1 157.8125 359.79999] CT
0.149 GC
/Helvetica 14 F
GS
[1 0 0 1 0 0] CT
-14 14 moveto 
1 -1 scale
(0.05) t 
GR
GR
GS
[1 0 0 1 292.4375 359.79999] CT
0.149 GC
/Helvetica 14 F
GS
[1 0 0 1 0 0] CT
-10 14 moveto 
1 -1 scale
(0.1) t 
GR
GR
GS
[1 0 0 1 427.0625 359.79999] CT
0.149 GC
/Helvetica 14 F
GS
[1 0 0 1 0 0] CT
-14 14 moveto 
1 -1 scale
(0.15) t 
GR
GR
GS
[1 0 0 1 561.6875 359.79999] CT
0.149 GC
/Helvetica 14 F
GS
[1 0 0 1 0 0] CT
-10 14 moveto 
1 -1 scale
(0.2) t 
GR
GR
GS
[1 0 0 1 294 392] CT
0.149 GC
/Helvetica 15.4 F
GS
[1 0 0 1 0 0] CT
0 0 moveto 
1 -1 scale
(mixing parameter ) t 
GR
GR
GS
[1 0 0 1 416 392] CT
0.149 GC
N
0.766 -0.25 M
0.766 -0.469 0.953 -0.672 QT
5.172 -4.813 L
3.688 -8.984 L
3.516 -9.469 3.32 -9.742 QT
3.125 -10.016 2.766 -10.016 QT
2.594 -10.016 2.594 -10.219 QT
2.609 -10.313 2.664 -10.359 QT
2.719 -10.406 2.813 -10.406 QT
4.391 -10.406 4.719 -9.484 QT
7.766 -0.969 L
7.969 -0.344 8.172 -0.125 QT
8.25 0 8.25 0.031 QT
8.25 0.172 8.125 0.172 QT
7.313 0.172 L
6.938 0.063 6.719 -0.484 QT
5.359 -4.328 L
1.734 -0.063 L
1.453 0.203 1.25 0.203 QT
1.063 0.203 0.914 0.07 QT
0.766 -0.063 0.766 -0.25 QT
cp
f
GR
GS
0.149 GC
2 setlinecap
1 LJ
0.5 LW
N
90.5 355 M
90.5 30 L
S
GR
GS
0.149 GC
2 setlinecap
1 LJ
0.5 LW
N
629 355 M
629 30 L
S
GR
GS
0.149 GC
2 setlinecap
1 LJ
0.5 LW
N
90.5 355 M
95.885 355 L
S
GR
GS
0.149 GC
2 setlinecap
1 LJ
0.5 LW
N
90.5 314.375 M
95.885 314.375 L
S
GR
GS
0.149 GC
2 setlinecap
1 LJ
0.5 LW
N
90.5 273.75 M
95.885 273.75 L
S
GR
GS
0.149 GC
2 setlinecap
1 LJ
0.5 LW
N
90.5 233.125 M
95.885 233.125 L
S
GR
GS
0.149 GC
2 setlinecap
1 LJ
0.5 LW
N
90.5 192.5 M
95.885 192.5 L
S
GR
GS
0.149 GC
2 setlinecap
1 LJ
0.5 LW
N
90.5 151.875 M
95.885 151.875 L
S
GR
GS
0.149 GC
2 setlinecap
1 LJ
0.5 LW
N
90.5 111.25 M
95.885 111.25 L
S
GR
GS
0.149 GC
2 setlinecap
1 LJ
0.5 LW
N
90.5 70.625 M
95.885 70.625 L
S
GR
GS
0.149 GC
2 setlinecap
1 LJ
0.5 LW
N
90.5 30 M
95.885 30 L
S
GR
GS
0.149 GC
2 setlinecap
1 LJ
0.5 LW
N
629 355 M
623.615 355 L
S
GR
GS
0.149 GC
2 setlinecap
1 LJ
0.5 LW
N
629 314.375 M
623.615 314.375 L
S
GR
GS
0.149 GC
2 setlinecap
1 LJ
0.5 LW
N
629 273.75 M
623.615 273.75 L
S
GR
GS
0.149 GC
2 setlinecap
1 LJ
0.5 LW
N
629 233.125 M
623.615 233.125 L
S
GR
GS
0.149 GC
2 setlinecap
1 LJ
0.5 LW
N
629 192.5 M
623.615 192.5 L
S
GR
GS
0.149 GC
2 setlinecap
1 LJ
0.5 LW
N
629 151.875 M
623.615 151.875 L
S
GR
GS
0.149 GC
2 setlinecap
1 LJ
0.5 LW
N
629 111.25 M
623.615 111.25 L
S
GR
GS
0.149 GC
2 setlinecap
1 LJ
0.5 LW
N
629 70.625 M
623.615 70.625 L
S
GR
GS
0.149 GC
2 setlinecap
1 LJ
0.5 LW
N
629 30 M
623.615 30 L
S
GR
GS
[1 0 0 1 85.7 355] CT
0.149 GC
/Helvetica 14 F
GS
[1 0 0 1 0 0] CT
-20 5.5 moveto 
1 -1 scale
(0.2) t 
GR
GR
GS
[1 0 0 1 85.7 314.375] CT
0.149 GC
/Helvetica 14 F
GS
[1 0 0 1 0 0] CT
-20 5.5 moveto 
1 -1 scale
(0.3) t 
GR
GR
GS
[1 0 0 1 85.7 273.75] CT
0.149 GC
/Helvetica 14 F
GS
[1 0 0 1 0 0] CT
-20 5.5 moveto 
1 -1 scale
(0.4) t 
GR
GR
GS
[1 0 0 1 85.7 233.125] CT
0.149 GC
/Helvetica 14 F
GS
[1 0 0 1 0 0] CT
-20 5.5 moveto 
1 -1 scale
(0.5) t 
GR
GR
GS
[1 0 0 1 85.7 192.49998] CT
0.149 GC
/Helvetica 14 F
GS
[1 0 0 1 0 0] CT
-20 5.5 moveto 
1 -1 scale
(0.6) t 
GR
GR
GS
[1 0 0 1 85.7 151.875] CT
0.149 GC
/Helvetica 14 F
GS
[1 0 0 1 0 0] CT
-20 5.5 moveto 
1 -1 scale
(0.7) t 
GR
GR
GS
[1 0 0 1 85.7 111.24999] CT
0.149 GC
/Helvetica 14 F
GS
[1 0 0 1 0 0] CT
-20 5.5 moveto 
1 -1 scale
(0.8) t 
GR
GR
GS
[1 0 0 1 85.7 70.62501] CT
0.149 GC
/Helvetica 14 F
GS
[1 0 0 1 0 0] CT
-20 5.5 moveto 
1 -1 scale
(0.9) t 
GR
GR
GS
[1 0 0 1 85.7 30] CT
0.149 GC
/Helvetica 14 F
GS
[1 0 0 1 0 0] CT
-8 5.5 moveto 
1 -1 scale
(1) t 
GR
GR
GS
[0 -1 1 0 63.2 192.49985] CT
0.149 GC
/Helvetica 15.4 F
GS
[1 0 0 1 0 0] CT
-14 -4 moveto 
1 -1 scale
(NMI) t 
GR
GR
GS
1 GC
N
117 40 M
117 22 L
602.5 22 L
602.5 40 L
cp
f
GR
GS
[1 0 0 1 155.27011 30.75] CT
/Helvetica 11.7 F
GS
[1 0 0 1 0 0] CT
0 4.5 moveto 
1 -1 scale
(C-Rate) t 
GR
GR
GS
0.208 0.165 0.525 RC
N
122.266 35.9 M
122.266 25.6 L
152.27 25.6 L
152.27 35.9 L
cp
f
GR
GS
10.0 ML
0.5 LW
N
122.266 35.9 M
122.266 25.6 L
152.27 25.6 L
152.27 35.9 L
cp
S
GR
GS
[1 0 0 1 231.8614 30.75] CT
/Helvetica 11.7 F
GS
[1 0 0 1 0 0] CT
0 4.5 moveto 
1 -1 scale
(C-IC) t 
GR
GR
GS
0.047 0.455 0.863 RC
N
198.857 35.9 M
198.857 25.6 L
228.861 25.6 L
228.861 35.9 L
cp
f
GR
GS
10.0 ML
0.5 LW
N
198.857 35.9 M
198.857 25.6 L
228.861 25.6 L
228.861 35.9 L
cp
S
GR
GS
[1 0 0 1 295.95111 30.75] CT
/Helvetica 11.7 F
GS
[1 0 0 1 0 0] CT
0 4.5 moveto 
1 -1 scale
(CDK) t 
GR
GR
GS
0.024 0.663 0.757 RC
N
262.947 35.9 M
262.947 25.6 L
292.951 25.6 L
292.951 35.9 L
cp
f
GR
GS
10.0 ML
0.5 LW
N
262.947 35.9 M
262.947 25.6 L
292.951 25.6 L
292.951 35.9 L
cp
S
GR
GS
[1 0 0 1 360.04083 30.75] CT
/Helvetica 11.7 F
GS
[1 0 0 1 0 0] CT
0 4.5 moveto 
1 -1 scale
(NetRate/Metis) t 
GR
GR
GS
0.486 0.749 0.482 RC
N
327.037 35.9 M
327.037 25.6 L
357.04 25.6 L
357.04 35.9 L
cp
f
GR
GS
10.0 ML
0.5 LW
N
327.037 35.9 M
327.037 25.6 L
357.04 25.6 L
357.04 35.9 L
cp
S
GR
GS
[1 0 0 1 473.63681 30.75] CT
/Helvetica 11.7 F
GS
[1 0 0 1 0 0] CT
0 4.5 moveto 
1 -1 scale
(Pipeline) t 
GR
GR
GS
0.941 0.725 0.286 RC
N
440.633 35.9 M
440.633 25.6 L
470.636 25.6 L
470.636 35.9 L
cp
f
GR
GS
10.0 ML
0.5 LW
N
440.633 35.9 M
440.633 25.6 L
470.636 25.6 L
470.636 35.9 L
cp
S
GR
GS
[1 0 0 1 554.22858 30.75] CT
/Helvetica 11.7 F
GS
[1 0 0 1 0 0] CT
0 4.5 moveto 
1 -1 scale
(COSINE) t 
GR
GR
GS
0.973 0.98 0.051 RC
N
521.224 35.9 M
521.224 25.6 L
551.228 25.6 L
551.228 35.9 L
cp
f
GR
GS
10.0 ML
0.5 LW
N
521.224 35.9 M
521.224 25.6 L
551.228 25.6 L
551.228 35.9 L
cp
S
GR
GS
0.149 GC
10.0 ML
0.5 LW
N
117 40 M
117 22 L
602.5 22 L
602.5 40 L
cp
S
GR
%%Trailer
%%Pages: 1
%%EOF
